%!PS-Adobe-3.0 EPSF-3.0
%%Creator: cairo 1.11.2 (http://cairographics.org)
%%CreationDate: Tue Oct 06 14:03:40 2015
%%Pages: 1
%%DocumentData: Clean7Bit
%%LanguageLevel: 2
%%BoundingBox: 0 -1 439 347
%%EndComments
%%BeginProlog
/cairo_eps_state save def
/dict_count countdictstack def
/op_count count 1 sub def
userdict begin
/q { gsave } bind def
/Q { grestore } bind def
/cm { 6 array astore concat } bind def
/w { setlinewidth } bind def
/J { setlinecap } bind def
/j { setlinejoin } bind def
/M { setmiterlimit } bind def
/d { setdash } bind def
/m { moveto } bind def
/l { lineto } bind def
/c { curveto } bind def
/h { closepath } bind def
/re { exch dup neg 3 1 roll 5 3 roll moveto 0 rlineto
      0 exch rlineto 0 rlineto closepath } bind def
/S { stroke } bind def
/f { fill } bind def
/f* { eofill } bind def
/n { newpath } bind def
/W { clip } bind def
/W* { eoclip } bind def
/BT { } bind def
/ET { } bind def
/pdfmark where { pop globaldict /?pdfmark /exec load put }
    { globaldict begin /?pdfmark /pop load def /pdfmark
    /cleartomark load def end } ifelse
/BDC { mark 3 1 roll /BDC pdfmark } bind def
/EMC { mark /EMC pdfmark } bind def
/cairo_store_point { /cairo_point_y exch def /cairo_point_x exch def } def
/Tj { show currentpoint cairo_store_point } bind def
/TJ {
  {
    dup
    type /stringtype eq
    { show } { -0.001 mul 0 cairo_font_matrix dtransform rmoveto } ifelse
  } forall
  currentpoint cairo_store_point
} bind def
/cairo_selectfont { cairo_font_matrix aload pop pop pop 0 0 6 array astore
    cairo_font exch selectfont cairo_point_x cairo_point_y moveto } bind def
/Tf { pop /cairo_font exch def /cairo_font_matrix where
      { pop cairo_selectfont } if } bind def
/Td { matrix translate cairo_font_matrix matrix concatmatrix dup
      /cairo_font_matrix exch def dup 4 get exch 5 get cairo_store_point
      /cairo_font where { pop cairo_selectfont } if } bind def
/Tm { 2 copy 8 2 roll 6 array astore /cairo_font_matrix exch def
      cairo_store_point /cairo_font where { pop cairo_selectfont } if } bind def
/g { setgray } bind def
/rg { setrgbcolor } bind def
/d1 { setcachedevice } bind def
%%EndProlog
%%Page: 1 1
%%BeginPageSetup
%%PageBoundingBox: 0 -1 439 347
%%EndPageSetup
q 0 -1 439 348 rectclip q
0 346.568 439 -347 re W n
0 g
1.6 w
0 J
0 j
[] 0.0 d
4 M q 1 0 0 -1 0 346.568054 cm
81.918 325.527 m 117.176 140.195 162.473 151.375 187.953 205.215 c 213.434
 259.055 270.582 256.34 297.098 207.078 c 323.613 157.816 330.277 130.492
 360.117 62.145 c S Q
0.8 w
q 1 0 0 -1 0 346.568054 cm
116.313 52.77 m 242.945 322.203 l S Q
q 1 0 0 -1 0 346.568054 cm
58.652 338.371 m 184.207 47.383 l S Q
q 1 0 0 -1 0 346.568054 cm
359.34 93.188 m 231.629 325.977 l S Q
q 1 0 0 -1 0 346.568054 cm
48.016 346.559 m 48.016 1.336 l S Q
44.465 336.681 m 48 346.295 l 51.535 336.681 l 49.449 338.216 46.594 338.209
 44.465 336.681 c h
f*
0.55 w
1 j
q -0.000000000000000061 -1 -1 0.000000000000000061 0 346.568054 cm
9.887 -44.465 m 0.273 -48 l 9.887 -51.535 l 8.352 -49.449 8.359 -46.594
 9.887 -44.465 c h
S Q
0.8 w
0 j
q 1 0 0 -1 0 346.568054 cm
0 306.559 m 436.992 306.559 l S Q
428.438 43.56 m 438.055 40.025 l 428.438 36.49 l 429.973 38.576 429.965
 41.431 428.438 43.56 c h
f*
0.55 w
1 j
q -1 0 0 1 0 346.568054 cm
-428.438 -303.008 m -438.055 -306.543 l -428.438 -310.078 l -429.973 -307.992
 -429.965 -305.137 -428.438 -303.008 c h
S Q
69.578 337.404 m 69.641 337.662 69.609 337.849 69.48 337.97 c 69.352 338.088
 69.191 338.146 69.004 338.15 c 68.809 338.146 68.617 338.088 68.426 337.97
 c 68.23 337.849 68.102 337.662 68.043 337.404 c 66.145 329.822 l 65.855
 329.306 65.516 328.888 65.125 328.572 c 64.73 328.252 64.273 328.091 63.746
 328.095 c 63.457 328.091 63.207 328.181 63 328.357 c 62.793 328.533 62.648
 328.763 62.57 329.056 c 62.438 329.486 62.402 329.951 62.461 330.451 c 
62.516 330.943 62.609 331.451 62.738 331.966 c 62.863 332.478 63.039 333.052
 63.266 333.697 c 63.488 334.338 63.711 334.966 63.938 335.576 c 64.063 
335.943 64.121 336.299 64.117 336.642 c 64.105 336.986 64.035 337.295 63.902
 337.572 c 63.766 337.841 63.57 338.056 63.313 338.22 c 63.055 338.377 62.742
 338.459 62.379 338.463 c 61.945 338.459 61.563 338.345 61.227 338.127 c
 60.891 337.9 60.59 337.607 60.324 337.248 c 60.059 336.884 59.836 336.486
 59.664 336.049 c 59.484 335.607 59.344 335.181 59.234 334.767 c 59.203 
334.603 59.258 334.521 59.402 334.525 c 59.668 334.525 l 59.809 334.521 
59.91 334.603 59.977 334.767 c 60.07 335.197 60.191 335.603 60.336 335.99
 c 60.48 336.369 60.645 336.705 60.828 336.998 c 61.012 337.283 61.219 337.509
 61.453 337.681 c 61.684 337.845 61.945 337.931 62.234 337.935 c 62.602 
337.931 62.785 337.713 62.785 337.283 c 62.785 336.845 62.664 336.299 62.426
 335.642 c 62.199 335.029 61.973 334.4 61.742 333.752 c 61.508 333.099 61.328
 332.509 61.203 331.978 c 61.074 331.416 61 330.853 60.984 330.291 c 60.965
 329.728 61.078 329.213 61.32 328.748 c 61.543 328.345 61.855 328.049 62.258
 327.853 c 62.656 327.662 63.109 327.568 63.625 327.564 c 64.055 327.568
 64.453 327.65 64.813 327.818 c 65.172 327.982 65.504 328.209 65.809 328.502
 c 65.641 327.83 l 65.492 327.252 65.305 326.697 65.078 326.166 c 64.844
 325.634 64.574 325.166 64.262 324.756 c 63.949 324.345 63.598 324.021 63.215
 323.779 c 62.828 323.541 62.414 323.42 61.969 323.416 c 61.566 323.42 61.23
 323.517 60.961 323.716 c 60.688 323.916 60.512 324.185 60.434 324.517 c
 60.672 324.521 60.91 324.599 61.152 324.759 c 61.391 324.92 61.551 325.162
 61.633 325.478 c 61.711 325.802 61.672 326.041 61.512 326.201 c 61.352 
326.361 61.152 326.443 60.914 326.439 c 60.672 326.443 60.434 326.361 60.195
 326.201 c 59.953 326.041 59.793 325.802 59.715 325.478 c 59.617 325.115
 59.602 324.771 59.676 324.447 c 59.746 324.131 59.879 323.853 60.074 323.623
 c 60.262 323.392 60.512 323.213 60.816 323.08 c 61.121 322.951 61.457 322.884
 61.828 322.884 c 62.449 322.884 63.047 323.025 63.625 323.306 c 64.195 
323.588 64.719 323.959 65.195 324.412 c 65.664 324.873 66.074 325.396 66.422
 325.982 c 66.762 326.576 67.016 327.189 67.18 327.83 c h
f
428.227 30.662 m 428.301 30.963 428.293 31.232 428.199 31.466 c 428.105
 31.697 427.957 31.884 427.758 32.033 c 427.555 32.177 427.313 32.287 427.035
 32.357 c 426.754 32.424 426.473 32.459 426.184 32.463 c 425.688 32.459 
425.242 32.299 424.852 31.982 c 424.457 31.658 424.125 31.267 423.855 30.806
 c 423.82 30.9 423.785 30.994 423.746 31.091 c 423.707 31.185 423.664 31.275
 423.617 31.357 c 423.406 31.693 423.129 31.959 422.789 32.162 c 422.441
 32.357 422.047 32.459 421.602 32.463 c 421.137 32.459 420.703 32.353 420.305
 32.15 c 419.902 31.939 419.539 31.666 419.211 31.322 c 418.883 30.978 418.598
 30.58 418.359 30.134 c 418.117 29.681 417.941 29.228 417.832 28.767 c 417.797
 28.603 417.852 28.521 418 28.525 c 418.266 28.525 l 418.406 28.521 418.512
 28.603 418.578 28.767 c 418.672 29.181 418.813 29.58 419.008 29.963 c 419.195
 30.345 419.418 30.681 419.668 30.97 c 419.914 31.259 420.188 31.49 420.496
 31.67 c 420.797 31.841 421.117 31.931 421.457 31.935 c 421.723 31.931 421.953
 31.849 422.141 31.693 c 422.324 31.529 422.453 31.322 422.535 31.064 c 
422.645 30.728 422.672 30.361 422.617 29.966 c 422.559 29.572 422.477 29.166
 422.367 28.752 c 421.289 24.431 l 421.129 23.806 420.875 23.259 420.531
 22.795 c 420.184 22.326 419.789 22.091 419.344 22.095 c 418.863 22.091 
418.48 22.213 418.191 22.455 c 418.398 22.498 418.586 22.595 418.754 22.752
 c 418.922 22.9 419.039 23.107 419.105 23.365 c 419.184 23.685 419.137 23.924
 418.973 24.084 c 418.801 24.244 418.598 24.326 418.359 24.326 c 418.117
 24.326 417.879 24.244 417.641 24.084 c 417.398 23.924 417.238 23.685 417.16
 23.365 c 417.078 23.06 417.086 22.795 417.184 22.572 c 417.277 22.345 417.426
 22.158 417.629 22.009 c 417.828 21.857 418.066 21.748 418.348 21.674 c 
418.625 21.603 418.91 21.568 419.199 21.564 c 419.695 21.568 420.137 21.72
 420.531 22.033 c 420.922 22.341 421.254 22.728 421.527 23.197 c 421.559
 23.095 421.598 23.006 421.637 22.92 c 421.676 22.834 421.727 22.748 421.793
 22.67 c 422 22.33 422.273 22.064 422.609 21.865 c 422.945 21.666 423.344
 21.568 423.809 21.564 c 424.254 21.568 424.68 21.674 425.09 21.888 c 425.496
 22.103 425.863 22.381 426.184 22.728 c 426.504 23.068 426.781 23.466 427.023
 23.916 c 427.262 24.365 427.441 24.822 427.555 25.287 c 427.617 25.427 
427.559 25.498 427.387 25.502 c 427.121 25.502 l 426.961 25.498 426.863 
25.427 426.832 25.287 c 426.719 24.869 426.566 24.466 426.375 24.084 c 426.184
 23.697 425.965 23.357 425.715 23.064 c 425.465 22.767 425.188 22.533 424.887
 22.357 c 424.582 22.181 424.262 22.091 423.93 22.095 c 423.652 22.091 423.43
 22.174 423.254 22.334 c 423.078 22.494 422.949 22.701 422.871 22.963 c 
422.758 23.299 422.73 23.666 422.785 24.06 c 422.84 24.451 422.922 24.865
 423.039 25.302 c 424.121 29.619 l 424.277 30.244 424.523 30.787 424.863
 31.248 c 425.195 31.701 425.586 31.931 426.039 31.935 c 426.531 31.931 
426.918 31.818 427.191 31.599 c 427 31.529 426.824 31.424 426.664 31.283
 c 426.504 31.134 426.383 30.927 426.305 30.662 c 426.223 30.338 426.262
 30.099 426.422 29.939 c 426.582 29.779 426.781 29.697 427.023 29.701 c 
427.262 29.697 427.504 29.779 427.746 29.939 c 427.984 30.099 428.145 30.338
 428.227 30.662 c h
f
301.328 28.025 m 301.402 28.326 301.395 28.595 301.301 28.83 c 301.207 
29.06 301.059 29.248 300.859 29.396 c 300.656 29.541 300.414 29.65 300.137
 29.72 c 299.855 29.787 299.574 29.822 299.285 29.826 c 298.789 29.822 298.344
 29.662 297.953 29.345 c 297.559 29.021 297.227 28.631 296.957 28.17 c 296.922
 28.263 296.887 28.357 296.848 28.455 c 296.809 28.549 296.766 28.638 296.719
 28.72 c 296.508 29.056 296.23 29.322 295.891 29.525 c 295.543 29.72 295.148
 29.822 294.703 29.826 c 294.238 29.822 293.805 29.716 293.406 29.513 c 
293.004 29.302 292.641 29.029 292.313 28.685 c 291.984 28.341 291.699 27.943
 291.461 27.498 c 291.219 27.045 291.043 26.591 290.934 26.131 c 290.898
 25.966 290.953 25.884 291.102 25.888 c 291.367 25.888 l 291.508 25.884 
291.613 25.966 291.68 26.131 c 291.773 26.545 291.914 26.943 292.109 27.326
 c 292.297 27.709 292.52 28.045 292.77 28.334 c 293.016 28.623 293.289 28.853
 293.598 29.033 c 293.898 29.205 294.219 29.295 294.559 29.299 c 294.824
 29.295 295.055 29.213 295.242 29.056 c 295.426 28.892 295.555 28.685 295.637
 28.427 c 295.746 28.091 295.773 27.724 295.719 27.33 c 295.66 26.935 295.578
 26.529 295.469 26.115 c 294.391 21.795 l 294.23 21.17 293.977 20.623 293.633
 20.158 c 293.285 19.689 292.891 19.455 292.445 19.459 c 291.965 19.455 
291.582 19.576 291.293 19.818 c 291.5 19.861 291.688 19.959 291.855 20.115
 c 292.023 20.263 292.141 20.47 292.207 20.728 c 292.285 21.049 292.238 
21.287 292.074 21.447 c 291.902 21.607 291.699 21.689 291.461 21.689 c 291.219
 21.689 290.98 21.607 290.742 21.447 c 290.5 21.287 290.34 21.049 290.262
 20.728 c 290.18 20.424 290.188 20.158 290.285 19.935 c 290.379 19.709 290.527
 19.521 290.73 19.373 c 290.93 19.22 291.168 19.111 291.449 19.037 c 291.727
 18.966 292.012 18.931 292.301 18.927 c 292.797 18.931 293.238 19.084 293.633
 19.396 c 294.023 19.705 294.355 20.091 294.629 20.56 c 294.66 20.459 294.699
 20.369 294.738 20.283 c 294.777 20.197 294.828 20.111 294.895 20.033 c 
295.102 19.693 295.375 19.427 295.711 19.228 c 296.047 19.029 296.445 18.931
 296.91 18.927 c 297.355 18.931 297.781 19.037 298.191 19.252 c 298.598 
19.466 298.965 19.744 299.285 20.091 c 299.605 20.431 299.883 20.83 300.125
 21.279 c 300.363 21.728 300.543 22.185 300.656 22.65 c 300.719 22.791 300.66
 22.861 300.488 22.865 c 300.223 22.865 l 300.063 22.861 299.965 22.791 
299.934 22.65 c 299.82 22.232 299.668 21.83 299.477 21.447 c 299.285 21.06
 299.066 20.72 298.816 20.427 c 298.566 20.131 298.289 19.896 297.988 19.72
 c 297.684 19.545 297.363 19.455 297.031 19.459 c 296.754 19.455 296.531
 19.537 296.355 19.697 c 296.18 19.857 296.051 20.064 295.973 20.326 c 295.859
 20.662 295.832 21.029 295.887 21.424 c 295.941 21.814 296.023 22.228 296.141
 22.666 c 297.223 26.982 l 297.379 27.607 297.625 28.15 297.965 28.611 c
 298.297 29.064 298.688 29.295 299.141 29.299 c 299.633 29.295 300.02 29.181
 300.293 28.963 c 300.102 28.892 299.926 28.787 299.766 28.646 c 299.605
 28.498 299.484 28.291 299.406 28.025 c 299.324 27.701 299.363 27.463 299.523
 27.302 c 299.684 27.142 299.883 27.06 300.125 27.064 c 300.363 27.06 300.605
 27.142 300.848 27.302 c 301.086 27.463 301.246 27.701 301.328 28.025 c 
h
f
308.371 21.248 m 308.48 21.701 308.512 22.142 308.469 22.576 c 308.422 
23.006 308.293 23.392 308.074 23.74 c 307.863 24.056 307.59 24.31 307.254
 24.502 c 306.914 24.685 306.523 24.779 306.09 24.783 c 305.652 24.779 305.246
 24.674 304.867 24.463 c 304.484 24.248 304.141 23.966 303.836 23.623 c 
303.527 23.271 303.266 22.877 303.051 22.439 c 302.828 21.994 302.66 21.552
 302.551 21.111 c 302.504 20.931 302.48 20.756 302.48 20.588 c 302.473 20.416
 302.496 20.259 302.543 20.115 c 302.59 19.97 302.668 19.853 302.777 19.767
 c 302.887 19.674 303.035 19.631 303.223 19.634 c 303.469 19.631 303.695
 19.697 303.906 19.83 c 304.113 19.959 304.297 20.127 304.453 20.334 c 304.609
 20.541 304.742 20.771 304.859 21.029 c 304.969 21.283 305.059 21.537 305.125
 21.787 c 305.238 22.232 305.18 22.599 304.953 22.896 c 304.898 22.963 304.828
 22.963 304.734 22.896 c 304.703 22.865 l 304.617 22.802 304.598 22.732 
304.641 22.662 c 304.711 22.521 304.762 22.381 304.797 22.24 c 304.824 22.091
 304.82 21.943 304.781 21.787 c 304.719 21.545 304.637 21.314 304.539 21.099
 c 304.438 20.877 304.324 20.685 304.203 20.521 c 304.074 20.357 303.938
 20.224 303.789 20.127 c 303.637 20.025 303.473 19.974 303.301 19.978 c 
303.109 19.974 303 20.084 302.965 20.302 c 302.926 20.517 302.949 20.787
 303.035 21.115 c 303.137 21.537 303.281 21.951 303.477 22.357 c 303.664
 22.756 303.891 23.111 304.148 23.416 c 304.402 23.72 304.684 23.966 305
 24.158 c 305.309 24.341 305.645 24.435 306 24.439 c 306.297 24.435 306.551
 24.353 306.77 24.189 c 306.98 24.021 307.141 23.802 307.246 23.533 c 307.367
 23.197 307.41 22.834 307.379 22.447 c 307.34 22.056 307.27 21.658 307.168
 21.256 c 306.988 20.588 306.633 19.99 306.098 19.455 c 305.563 18.916 304.953
 18.455 304.266 18.076 c 303.496 17.634 302.844 17.072 302.316 16.388 c 
301.781 15.701 301.418 14.97 301.223 14.189 c 301.199 14.15 301.203 14.115
 301.23 14.088 c 301.254 14.064 301.285 14.052 301.332 14.049 c 301.504 
14.049 l 301.605 14.052 301.668 14.099 301.691 14.189 c 301.773 14.49 301.887
 14.736 302.035 14.939 c 302.176 15.134 302.34 15.236 302.52 15.236 c 302.801
 15.236 303.047 15.174 303.266 15.049 c 303.48 14.924 303.695 14.787 303.906
 14.642 c 304.113 14.494 304.336 14.361 304.57 14.236 c 304.805 14.115 305.07
 14.052 305.375 14.049 c 305.703 14.052 306.008 14.138 306.285 14.306 c 
306.559 14.478 306.805 14.701 307.027 14.986 c 307.242 15.263 307.43 15.576
 307.582 15.92 c 307.73 16.259 307.848 16.603 307.934 16.951 c 307.953 16.99
 307.949 17.025 307.926 17.052 c 307.898 17.076 307.863 17.088 307.824 17.091
 c 307.652 17.091 l 307.547 17.088 307.484 17.041 307.465 16.951 c 307.402
 16.709 307.309 16.478 307.191 16.256 c 307.066 16.029 306.926 15.834 306.77
 15.67 c 306.605 15.506 306.43 15.373 306.238 15.275 c 306.047 15.174 305.852
 15.123 305.656 15.127 c 305.383 15.123 305.125 15.146 304.883 15.197 c 
304.633 15.24 304.387 15.295 304.141 15.353 c 303.887 15.408 303.633 15.459
 303.383 15.509 c 303.125 15.552 302.863 15.576 302.598 15.58 c 302.449 
15.576 302.332 15.556 302.238 15.517 c 302.496 15.963 302.813 16.369 303.188
 16.736 c 303.563 17.103 303.984 17.424 304.453 17.697 c 304.836 17.912 
305.238 18.142 305.66 18.396 c 306.082 18.642 306.477 18.912 306.848 19.205
 c 307.215 19.494 307.539 19.81 307.816 20.146 c 308.09 20.482 308.273 20.849
 308.371 21.248 c h
f
0.8 w
0 j
[ 4.8 4.8] 0 d
q 1 0 0 -1 0 346.568054 cm
297.371 204.73 m 297.371 306.039 l S Q
[ 4.8 4.8] 0 d
q 1 0 0 -1 0 346.568054 cm
187.449 204.836 m 187.449 306.145 l S Q
[ 4.8 4.8] 0 d
q 1 0 0 -1 0 346.568054 cm
115.773 205.27 m 115.773 306.578 l S Q
119.219 30.662 m 119.293 30.963 119.285 31.232 119.191 31.466 c 119.098
 31.697 118.949 31.884 118.75 32.033 c 118.547 32.177 118.305 32.287 118.027
 32.357 c 117.746 32.424 117.465 32.459 117.176 32.463 c 116.68 32.459 116.234
 32.299 115.844 31.982 c 115.449 31.658 115.117 31.267 114.848 30.806 c 
114.813 30.9 114.777 30.994 114.738 31.091 c 114.699 31.185 114.656 31.275
 114.609 31.357 c 114.398 31.693 114.121 31.959 113.781 32.162 c 113.434
 32.357 113.039 32.459 112.594 32.463 c 112.129 32.459 111.695 32.353 111.297
 32.15 c 110.895 31.939 110.531 31.666 110.203 31.322 c 109.875 30.978 109.59
 30.58 109.352 30.134 c 109.109 29.681 108.934 29.228 108.824 28.767 c 108.789
 28.603 108.844 28.521 108.992 28.525 c 109.258 28.525 l 109.398 28.521 
109.504 28.603 109.57 28.767 c 109.664 29.181 109.805 29.58 110 29.963 c
 110.188 30.345 110.41 30.681 110.66 30.97 c 110.906 31.259 111.18 31.49
 111.488 31.67 c 111.789 31.841 112.109 31.931 112.449 31.935 c 112.715 
31.931 112.945 31.849 113.133 31.693 c 113.316 31.529 113.445 31.322 113.527
 31.064 c 113.637 30.728 113.664 30.361 113.609 29.966 c 113.551 29.572 
113.469 29.166 113.359 28.752 c 112.281 24.431 l 112.121 23.806 111.867 
23.259 111.523 22.795 c 111.176 22.326 110.781 22.091 110.336 22.095 c 109.855
 22.091 109.473 22.213 109.184 22.455 c 109.391 22.498 109.578 22.595 109.746
 22.752 c 109.914 22.9 110.031 23.107 110.098 23.365 c 110.176 23.685 110.129
 23.924 109.965 24.084 c 109.793 24.244 109.59 24.326 109.352 24.326 c 109.109
 24.326 108.871 24.244 108.633 24.084 c 108.391 23.924 108.23 23.685 108.152
 23.365 c 108.07 23.06 108.078 22.795 108.176 22.572 c 108.27 22.345 108.418
 22.158 108.621 22.009 c 108.82 21.857 109.059 21.748 109.34 21.674 c 109.617
 21.603 109.902 21.568 110.191 21.564 c 110.688 21.568 111.129 21.72 111.523
 22.033 c 111.914 22.341 112.246 22.728 112.52 23.197 c 112.551 23.095 112.59
 23.006 112.629 22.92 c 112.668 22.834 112.719 22.748 112.785 22.67 c 112.992
 22.33 113.266 22.064 113.602 21.865 c 113.938 21.666 114.336 21.568 114.801
 21.564 c 115.246 21.568 115.672 21.674 116.082 21.888 c 116.488 22.103 
116.855 22.381 117.176 22.728 c 117.496 23.068 117.773 23.466 118.016 23.916
 c 118.254 24.365 118.434 24.822 118.547 25.287 c 118.609 25.427 118.551
 25.498 118.379 25.502 c 118.113 25.502 l 117.953 25.498 117.855 25.427 
117.824 25.287 c 117.711 24.869 117.559 24.466 117.367 24.084 c 117.176 
23.697 116.957 23.357 116.707 23.064 c 116.457 22.767 116.18 22.533 115.879
 22.357 c 115.574 22.181 115.254 22.091 114.922 22.095 c 114.645 22.091 
114.422 22.174 114.246 22.334 c 114.07 22.494 113.941 22.701 113.863 22.963
 c 113.75 23.299 113.723 23.666 113.777 24.06 c 113.832 24.451 113.914 24.865
 114.031 25.302 c 115.113 29.619 l 115.27 30.244 115.516 30.787 115.855 
31.248 c 116.188 31.701 116.578 31.931 117.031 31.935 c 117.523 31.931 117.91
 31.818 118.184 31.599 c 117.992 31.529 117.816 31.424 117.656 31.283 c 
117.496 31.134 117.375 30.927 117.297 30.662 c 117.215 30.338 117.254 30.099
 117.414 29.939 c 117.574 29.779 117.773 29.697 118.016 29.701 c 118.254
 29.697 118.496 29.779 118.738 29.939 c 118.977 30.099 119.137 30.338 119.219
 30.662 c h
f
124.965 27.248 m 124.98 27.299 124.98 27.338 124.957 27.373 c 124.93 27.4
 124.891 27.416 124.84 27.42 c 124.809 27.42 l 124.734 27.416 124.672 27.381
 124.621 27.31 c 124.254 26.775 123.82 26.326 123.316 25.959 c 122.813 25.591
 122.289 25.408 121.75 25.408 c 121.645 25.408 121.57 25.349 121.531 25.24
 c 121.5 25.103 l 121.477 25.052 121.477 25.009 121.508 24.982 c 121.531
 24.951 121.57 24.939 121.625 24.939 c 121.953 24.939 122.277 24.998 122.594
 25.119 c 122.902 25.236 123.203 25.4 123.5 25.611 c 121.609 18.06 l 121.543
 17.81 121.445 17.658 121.316 17.607 c 121.168 17.552 120.957 17.521 120.684
 17.513 c 120.406 17.502 120.129 17.498 119.848 17.498 c 119.73 17.498 119.656
 17.435 119.629 17.314 c 119.598 17.193 l 119.574 17.084 119.621 17.029 
119.738 17.029 c 121.168 17.091 122.598 17.091 124.027 17.029 c 124.129 
17.029 124.203 17.084 124.246 17.193 c 124.277 17.314 l 124.309 17.435 124.266
 17.498 124.152 17.498 c 123.871 17.498 123.598 17.502 123.328 17.513 c 
123.055 17.521 122.859 17.552 122.75 17.607 c 122.633 17.658 122.609 17.81
 122.672 18.06 c h
f
192.465 30.662 m 192.539 30.963 192.531 31.232 192.438 31.466 c 192.344
 31.697 192.195 31.884 191.996 32.033 c 191.793 32.177 191.551 32.287 191.273
 32.357 c 190.992 32.424 190.711 32.459 190.422 32.463 c 189.926 32.459 
189.48 32.299 189.09 31.982 c 188.695 31.658 188.363 31.267 188.094 30.806
 c 188.059 30.9 188.023 30.994 187.984 31.091 c 187.945 31.185 187.902 31.275
 187.855 31.357 c 187.645 31.693 187.367 31.959 187.027 32.162 c 186.68 
32.357 186.285 32.459 185.84 32.463 c 185.375 32.459 184.941 32.353 184.543
 32.15 c 184.141 31.939 183.777 31.666 183.449 31.322 c 183.121 30.978 182.836
 30.58 182.598 30.134 c 182.355 29.681 182.18 29.228 182.07 28.767 c 182.035
 28.603 182.09 28.521 182.238 28.525 c 182.504 28.525 l 182.645 28.521 182.75
 28.603 182.816 28.767 c 182.91 29.181 183.051 29.58 183.246 29.963 c 183.434
 30.345 183.656 30.681 183.906 30.97 c 184.152 31.259 184.426 31.49 184.734
 31.67 c 185.035 31.841 185.355 31.931 185.695 31.935 c 185.961 31.931 186.191
 31.849 186.379 31.693 c 186.563 31.529 186.691 31.322 186.773 31.064 c 
186.883 30.728 186.91 30.361 186.855 29.966 c 186.797 29.572 186.715 29.166
 186.605 28.752 c 185.527 24.431 l 185.367 23.806 185.113 23.259 184.77 
22.795 c 184.422 22.326 184.027 22.091 183.582 22.095 c 183.102 22.091 182.719
 22.213 182.43 22.455 c 182.637 22.498 182.824 22.595 182.992 22.752 c 183.16
 22.9 183.277 23.107 183.344 23.365 c 183.422 23.685 183.375 23.924 183.211
 24.084 c 183.039 24.244 182.836 24.326 182.598 24.326 c 182.355 24.326 
182.117 24.244 181.879 24.084 c 181.637 23.924 181.477 23.685 181.398 23.365
 c 181.316 23.06 181.324 22.795 181.422 22.572 c 181.516 22.345 181.664 
22.158 181.867 22.009 c 182.066 21.857 182.305 21.748 182.586 21.674 c 182.863
 21.603 183.148 21.568 183.438 21.564 c 183.934 21.568 184.375 21.72 184.77
 22.033 c 185.16 22.341 185.492 22.728 185.766 23.197 c 185.797 23.095 185.836
 23.006 185.875 22.92 c 185.914 22.834 185.965 22.748 186.031 22.67 c 186.238
 22.33 186.512 22.064 186.848 21.865 c 187.184 21.666 187.582 21.568 188.047
 21.564 c 188.492 21.568 188.918 21.674 189.328 21.888 c 189.734 22.103 
190.102 22.381 190.422 22.728 c 190.742 23.068 191.02 23.466 191.262 23.916
 c 191.5 24.365 191.68 24.822 191.793 25.287 c 191.855 25.427 191.797 25.498
 191.625 25.502 c 191.359 25.502 l 191.199 25.498 191.102 25.427 191.07 
25.287 c 190.957 24.869 190.805 24.466 190.613 24.084 c 190.422 23.697 190.203
 23.357 189.953 23.064 c 189.703 22.767 189.426 22.533 189.125 22.357 c 
188.82 22.181 188.5 22.091 188.168 22.095 c 187.891 22.091 187.668 22.174
 187.492 22.334 c 187.316 22.494 187.188 22.701 187.109 22.963 c 186.996
 23.299 186.969 23.666 187.023 24.06 c 187.078 24.451 187.16 24.865 187.277
 25.302 c 188.359 29.619 l 188.516 30.244 188.762 30.787 189.102 31.248 
c 189.434 31.701 189.824 31.931 190.277 31.935 c 190.77 31.931 191.156 31.818
 191.43 31.599 c 191.238 31.529 191.063 31.424 190.902 31.283 c 190.742 
31.134 190.621 30.927 190.543 30.662 c 190.461 30.338 190.5 30.099 190.66
 29.939 c 190.82 29.779 191.02 29.697 191.262 29.701 c 191.5 29.697 191.742
 29.779 191.984 29.939 c 192.223 30.099 192.383 30.338 192.465 30.662 c 
h
f
199.66 26.049 m 199.535 26.459 199.309 26.791 198.977 27.045 c 198.641 
27.291 198.238 27.416 197.773 27.42 c 197.305 27.416 196.844 27.291 196.387
 27.045 c 195.926 26.791 195.527 26.459 195.199 26.049 c 194.707 25.431 
194.336 24.779 194.086 24.084 c 193.828 23.388 193.613 22.693 193.438 21.998
 c 193.258 21.31 193.129 20.627 193.047 19.947 c 192.961 19.267 193.012 
18.627 193.203 18.025 c 193.324 17.619 193.555 17.295 193.891 17.052 c 194.223
 16.81 194.621 16.689 195.09 16.685 c 195.555 16.689 196.02 16.81 196.48
 17.052 c 196.938 17.295 197.332 17.619 197.664 18.025 c 198.152 18.627 
198.52 19.267 198.773 19.947 c 199.02 20.627 199.234 21.31 199.414 21.998
 c 199.586 22.701 199.719 23.396 199.809 24.091 c 199.895 24.779 199.844
 25.431 199.66 26.049 c h
198.867 25.904 m 198.883 25.697 198.879 25.451 198.852 25.166 c 198.816
 24.877 198.77 24.568 198.711 24.244 c 198.645 23.912 198.57 23.576 198.492
 23.236 c 198.406 22.892 198.328 22.568 198.258 22.256 c 198.172 21.92 198.082
 21.568 197.984 21.201 c 197.883 20.834 197.777 20.47 197.672 20.111 c 197.559
 19.752 197.445 19.412 197.328 19.095 c 197.207 18.775 197.086 18.506 196.965
 18.291 c 196.754 17.947 196.492 17.654 196.184 17.404 c 195.867 17.154 
195.535 17.029 195.184 17.029 c 194.82 17.029 194.543 17.154 194.352 17.404
 c 194.156 17.654 194.043 17.947 194.016 18.291 c 193.992 18.506 194.004
 18.775 194.047 19.095 c 194.086 19.412 194.145 19.752 194.219 20.111 c 
194.289 20.47 194.367 20.834 194.461 21.201 c 194.547 21.568 194.633 21.92
 194.715 22.256 c 194.785 22.568 194.867 22.892 194.957 23.236 c 195.043
 23.576 195.137 23.912 195.246 24.244 c 195.348 24.568 195.457 24.877 195.566
 25.166 c 195.676 25.451 195.793 25.697 195.918 25.904 c 196.125 26.236 
196.387 26.513 196.703 26.74 c 197.02 26.959 197.348 27.072 197.695 27.076
 c 198.035 27.072 198.309 26.959 198.508 26.74 c 198.703 26.513 198.82 26.236
 198.867 25.904 c h
f
Q Q
showpage
%%Trailer
count op_count sub {pop} repeat
countdictstack dict_count sub {end} repeat
cairo_eps_state restore
%%EOF
