%!PS-Adobe-3.0 EPSF-3.0
%%Creator: cairo 1.11.2 (http://cairographics.org)
%%CreationDate: Tue Oct 06 13:42:46 2015
%%Pages: 1
%%DocumentData: Clean7Bit
%%LanguageLevel: 2
%%BoundingBox: 0 -1 439 347
%%EndComments
%%BeginProlog
/cairo_eps_state save def
/dict_count countdictstack def
/op_count count 1 sub def
userdict begin
/q { gsave } bind def
/Q { grestore } bind def
/cm { 6 array astore concat } bind def
/w { setlinewidth } bind def
/J { setlinecap } bind def
/j { setlinejoin } bind def
/M { setmiterlimit } bind def
/d { setdash } bind def
/m { moveto } bind def
/l { lineto } bind def
/c { curveto } bind def
/h { closepath } bind def
/re { exch dup neg 3 1 roll 5 3 roll moveto 0 rlineto
      0 exch rlineto 0 rlineto closepath } bind def
/S { stroke } bind def
/f { fill } bind def
/f* { eofill } bind def
/n { newpath } bind def
/W { clip } bind def
/W* { eoclip } bind def
/BT { } bind def
/ET { } bind def
/pdfmark where { pop globaldict /?pdfmark /exec load put }
    { globaldict begin /?pdfmark /pop load def /pdfmark
    /cleartomark load def end } ifelse
/BDC { mark 3 1 roll /BDC pdfmark } bind def
/EMC { mark /EMC pdfmark } bind def
/cairo_store_point { /cairo_point_y exch def /cairo_point_x exch def } def
/Tj { show currentpoint cairo_store_point } bind def
/TJ {
  {
    dup
    type /stringtype eq
    { show } { -0.001 mul 0 cairo_font_matrix dtransform rmoveto } ifelse
  } forall
  currentpoint cairo_store_point
} bind def
/cairo_selectfont { cairo_font_matrix aload pop pop pop 0 0 6 array astore
    cairo_font exch selectfont cairo_point_x cairo_point_y moveto } bind def
/Tf { pop /cairo_font exch def /cairo_font_matrix where
      { pop cairo_selectfont } if } bind def
/Td { matrix translate cairo_font_matrix matrix concatmatrix dup
      /cairo_font_matrix exch def dup 4 get exch 5 get cairo_store_point
      /cairo_font where { pop cairo_selectfont } if } bind def
/Tm { 2 copy 8 2 roll 6 array astore /cairo_font_matrix exch def
      cairo_store_point /cairo_font where { pop cairo_selectfont } if } bind def
/g { setgray } bind def
/rg { setrgbcolor } bind def
/d1 { setcachedevice } bind def
%%EndProlog
%%Page: 1 1
%%BeginPageSetup
%%PageBoundingBox: 0 -1 439 347
%%EndPageSetup
q 0 -1 439 348 rectclip q
0 346.568 439 -347 re W n
0 g
0.8 w
0 J
0 j
[] 0.0 d
4 M q 1 0 0 -1 0 346.568054 cm
268.27 18.285 m 394.906 287.715 l S Q
q 1 0 0 -1 0 346.568054 cm
196.602 40.918 m 68.891 273.707 l S Q
q 1 0 0 -1 0 346.568054 cm
48.016 346.559 m 48.016 1.336 l S Q
44.465 336.681 m 48 346.295 l 51.535 336.681 l 49.449 338.216 46.594 338.209
 44.465 336.681 c h
f*
0.55 w
1 j
q -0.000000000000000061 -1 -1 0.000000000000000061 0 346.568054 cm
9.887 -44.465 m 0.273 -48 l 9.887 -51.535 l 8.352 -49.449 8.359 -46.594
 9.887 -44.465 c h
S Q
0.8 w
0 j
q 1 0 0 -1 0 346.568054 cm
0 306.559 m 436.992 306.559 l S Q
428.438 43.56 m 438.055 40.025 l 428.438 36.49 l 429.973 38.576 429.965
 41.431 428.438 43.56 c h
f*
0.55 w
1 j
q -1 0 0 1 0 346.568054 cm
-428.438 -303.008 m -438.055 -306.543 l -428.438 -310.078 l -429.973 -307.992
 -429.965 -305.137 -428.438 -303.008 c h
S Q
69.578 337.404 m 69.641 337.662 69.609 337.849 69.48 337.97 c 69.352 338.088
 69.191 338.146 69.004 338.15 c 68.809 338.146 68.617 338.088 68.426 337.97
 c 68.23 337.849 68.102 337.662 68.043 337.404 c 66.145 329.822 l 65.855
 329.306 65.516 328.888 65.125 328.572 c 64.73 328.252 64.273 328.091 63.746
 328.095 c 63.457 328.091 63.207 328.181 63 328.357 c 62.793 328.533 62.648
 328.763 62.57 329.056 c 62.438 329.486 62.402 329.951 62.461 330.451 c 
62.516 330.943 62.609 331.451 62.738 331.966 c 62.863 332.478 63.039 333.052
 63.266 333.697 c 63.488 334.338 63.711 334.966 63.938 335.576 c 64.063 
335.943 64.121 336.299 64.117 336.642 c 64.105 336.986 64.035 337.295 63.902
 337.572 c 63.766 337.841 63.57 338.056 63.313 338.22 c 63.055 338.377 62.742
 338.459 62.379 338.463 c 61.945 338.459 61.563 338.345 61.227 338.127 c
 60.891 337.9 60.59 337.607 60.324 337.248 c 60.059 336.884 59.836 336.486
 59.664 336.049 c 59.484 335.607 59.344 335.181 59.234 334.767 c 59.203 
334.603 59.258 334.521 59.402 334.525 c 59.668 334.525 l 59.809 334.521 
59.91 334.603 59.977 334.767 c 60.07 335.197 60.191 335.603 60.336 335.99
 c 60.48 336.369 60.645 336.705 60.828 336.998 c 61.012 337.283 61.219 337.509
 61.453 337.681 c 61.684 337.845 61.945 337.931 62.234 337.935 c 62.602 
337.931 62.785 337.713 62.785 337.283 c 62.785 336.845 62.664 336.299 62.426
 335.642 c 62.199 335.029 61.973 334.4 61.742 333.752 c 61.508 333.099 61.328
 332.509 61.203 331.978 c 61.074 331.416 61 330.853 60.984 330.291 c 60.965
 329.728 61.078 329.213 61.32 328.748 c 61.543 328.345 61.855 328.049 62.258
 327.853 c 62.656 327.662 63.109 327.568 63.625 327.564 c 64.055 327.568
 64.453 327.65 64.813 327.818 c 65.172 327.982 65.504 328.209 65.809 328.502
 c 65.641 327.83 l 65.492 327.252 65.305 326.697 65.078 326.166 c 64.844
 325.634 64.574 325.166 64.262 324.756 c 63.949 324.345 63.598 324.021 63.215
 323.779 c 62.828 323.541 62.414 323.42 61.969 323.416 c 61.566 323.42 61.23
 323.517 60.961 323.716 c 60.688 323.916 60.512 324.185 60.434 324.517 c
 60.672 324.521 60.91 324.599 61.152 324.759 c 61.391 324.92 61.551 325.162
 61.633 325.478 c 61.711 325.802 61.672 326.041 61.512 326.201 c 61.352 
326.361 61.152 326.443 60.914 326.439 c 60.672 326.443 60.434 326.361 60.195
 326.201 c 59.953 326.041 59.793 325.802 59.715 325.478 c 59.617 325.115
 59.602 324.771 59.676 324.447 c 59.746 324.131 59.879 323.853 60.074 323.623
 c 60.262 323.392 60.512 323.213 60.816 323.08 c 61.121 322.951 61.457 322.884
 61.828 322.884 c 62.449 322.884 63.047 323.025 63.625 323.306 c 64.195 
323.588 64.719 323.959 65.195 324.412 c 65.664 324.873 66.074 325.396 66.422
 325.982 c 66.762 326.576 67.016 327.189 67.18 327.83 c h
f
428.227 30.662 m 428.301 30.963 428.293 31.232 428.199 31.466 c 428.105
 31.697 427.957 31.884 427.758 32.033 c 427.555 32.177 427.313 32.287 427.035
 32.357 c 426.754 32.424 426.473 32.459 426.184 32.463 c 425.688 32.459 
425.242 32.299 424.852 31.982 c 424.457 31.658 424.125 31.267 423.855 30.806
 c 423.82 30.9 423.785 30.994 423.746 31.091 c 423.707 31.185 423.664 31.275
 423.617 31.357 c 423.406 31.693 423.129 31.959 422.789 32.162 c 422.441
 32.357 422.047 32.459 421.602 32.463 c 421.137 32.459 420.703 32.353 420.305
 32.15 c 419.902 31.939 419.539 31.666 419.211 31.322 c 418.883 30.978 418.598
 30.58 418.359 30.134 c 418.117 29.681 417.941 29.228 417.832 28.767 c 417.797
 28.603 417.852 28.521 418 28.525 c 418.266 28.525 l 418.406 28.521 418.512
 28.603 418.578 28.767 c 418.672 29.181 418.813 29.58 419.008 29.963 c 419.195
 30.345 419.418 30.681 419.668 30.97 c 419.914 31.259 420.188 31.49 420.496
 31.67 c 420.797 31.841 421.117 31.931 421.457 31.935 c 421.723 31.931 421.953
 31.849 422.141 31.693 c 422.324 31.529 422.453 31.322 422.535 31.064 c 
422.645 30.728 422.672 30.361 422.617 29.966 c 422.559 29.572 422.477 29.166
 422.367 28.752 c 421.289 24.431 l 421.129 23.806 420.875 23.259 420.531
 22.795 c 420.184 22.326 419.789 22.091 419.344 22.095 c 418.863 22.091 
418.48 22.213 418.191 22.455 c 418.398 22.498 418.586 22.595 418.754 22.752
 c 418.922 22.9 419.039 23.107 419.105 23.365 c 419.184 23.685 419.137 23.924
 418.973 24.084 c 418.801 24.244 418.598 24.326 418.359 24.326 c 418.117
 24.326 417.879 24.244 417.641 24.084 c 417.398 23.924 417.238 23.685 417.16
 23.365 c 417.078 23.06 417.086 22.795 417.184 22.572 c 417.277 22.345 417.426
 22.158 417.629 22.009 c 417.828 21.857 418.066 21.748 418.348 21.674 c 
418.625 21.603 418.91 21.568 419.199 21.564 c 419.695 21.568 420.137 21.72
 420.531 22.033 c 420.922 22.341 421.254 22.728 421.527 23.197 c 421.559
 23.095 421.598 23.006 421.637 22.92 c 421.676 22.834 421.727 22.748 421.793
 22.67 c 422 22.33 422.273 22.064 422.609 21.865 c 422.945 21.666 423.344
 21.568 423.809 21.564 c 424.254 21.568 424.68 21.674 425.09 21.888 c 425.496
 22.103 425.863 22.381 426.184 22.728 c 426.504 23.068 426.781 23.466 427.023
 23.916 c 427.262 24.365 427.441 24.822 427.555 25.287 c 427.617 25.427 
427.559 25.498 427.387 25.502 c 427.121 25.502 l 426.961 25.498 426.863 
25.427 426.832 25.287 c 426.719 24.869 426.566 24.466 426.375 24.084 c 426.184
 23.697 425.965 23.357 425.715 23.064 c 425.465 22.767 425.188 22.533 424.887
 22.357 c 424.582 22.181 424.262 22.091 423.93 22.095 c 423.652 22.091 423.43
 22.174 423.254 22.334 c 423.078 22.494 422.949 22.701 422.871 22.963 c 
422.758 23.299 422.73 23.666 422.785 24.06 c 422.84 24.451 422.922 24.865
 423.039 25.302 c 424.121 29.619 l 424.277 30.244 424.523 30.787 424.863
 31.248 c 425.195 31.701 425.586 31.931 426.039 31.935 c 426.531 31.931 
426.918 31.818 427.191 31.599 c 427 31.529 426.824 31.424 426.664 31.283
 c 426.504 31.134 426.383 30.927 426.305 30.662 c 426.223 30.338 426.262
 30.099 426.422 29.939 c 426.582 29.779 426.781 29.697 427.023 29.701 c 
427.262 29.697 427.504 29.779 427.746 29.939 c 427.984 30.099 428.145 30.338
 428.227 30.662 c h
f
1.6 w
0 j
q 1 0 0 -1 0 346.568054 cm
96.914 274.785 m 96.914 274.785 100.742 213.203 129.781 161.082 c 182.219
 66.98 230.012 177.789 230.012 177.789 c S Q
q 1 0 0 -1 0 346.568054 cm
312.996 36.605 m 311.918 56.004 310.324 111.613 343.172 178.867 c 360.477
 214.293 424.004 245.145 424.004 245.145 c S Q
367.695 200.213 m 367.727 200.287 367.723 200.349 367.684 200.4 c 367.645
 200.447 367.582 200.47 367.504 200.474 c 363.711 200.474 l 363.52 200.47
 363.375 200.384 363.281 200.213 c 355.023 186.459 l 353.656 200.213 l 353.625
 200.384 353.52 200.47 353.344 200.474 c 349.551 200.474 l 349.387 200.47
 349.277 200.384 349.215 200.213 c 349.168 200.021 l 349.137 199.841 349.207
 199.752 349.383 199.756 c 349.75 199.752 350.098 199.744 350.43 199.732
 c 350.754 199.713 350.984 199.666 351.113 199.588 c 351.238 199.521 351.254
 199.287 351.16 198.888 c 348.016 186.318 l 347.949 186.091 347.859 185.881
 347.738 185.681 c 347.617 185.478 347.461 185.314 347.273 185.189 c 347.031
 185.025 346.773 184.92 346.504 184.873 c 346.23 184.822 345.945 184.799
 345.641 184.802 c 345.461 184.799 345.348 184.705 345.305 184.525 c 345.258
 184.338 l 345.223 184.259 345.227 184.201 345.266 184.154 c 345.305 184.107
 345.363 184.084 345.449 184.084 c 347.074 184.177 348.676 184.177 350.25
 184.084 c 350.324 184.084 350.395 184.107 350.461 184.154 c 350.523 184.201
 350.566 184.259 350.586 184.338 c 350.633 184.525 l 350.68 184.705 350.613
 184.799 350.441 184.802 c 350.133 184.799 349.859 184.822 349.613 184.873
 c 349.363 184.92 349.156 185.025 349 185.189 c 348.867 185.314 348.793 
185.478 348.773 185.677 c 348.746 185.877 348.766 186.088 348.832 186.314
 c 352.074 199.322 l 353.559 184.338 l 353.59 184.166 353.695 184.084 353.871
 184.084 c 353.992 184.084 l 354.18 184.084 354.324 184.166 354.426 184.338
 c 363.543 199.517 l 360.063 185.67 l 359.965 185.283 359.832 185.041 359.656
 184.947 c 359.477 184.861 359.223 184.818 358.898 184.814 c 358.57 184.802
 358.223 184.799 357.855 184.802 c 357.68 184.799 357.566 184.705 357.52
 184.525 c 357.473 184.338 l 357.438 184.166 357.504 184.084 357.664 184.084
 c 359.617 184.177 361.527 184.177 363.402 184.084 c 363.477 184.084 363.547
 184.107 363.613 184.154 c 363.676 184.201 363.719 184.259 363.738 184.338
 c 363.785 184.525 l 363.828 184.705 363.766 184.799 363.594 184.802 c 363.223
 184.799 362.871 184.802 362.547 184.814 c 362.215 184.818 361.988 184.861
 361.863 184.947 c 361.734 185.025 361.719 185.267 361.816 185.67 c 365.105
 198.888 l 365.199 199.271 365.332 199.506 365.512 199.588 c 365.684 199.666
 365.941 199.713 366.281 199.732 c 366.613 199.744 366.965 199.752 367.336
 199.756 c 367.512 199.752 367.617 199.841 367.648 200.021 c h
f
159.863 184.795 m 159.895 184.869 159.891 184.931 159.852 184.982 c 159.813
 185.029 159.75 185.052 159.672 185.056 c 155.879 185.056 l 155.688 185.052
 155.543 184.966 155.449 184.795 c 147.191 171.041 l 145.824 184.795 l 145.793
 184.966 145.688 185.052 145.512 185.056 c 141.719 185.056 l 141.555 185.052
 141.445 184.966 141.383 184.795 c 141.336 184.603 l 141.305 184.424 141.375
 184.334 141.551 184.338 c 141.918 184.334 142.266 184.326 142.598 184.314
 c 142.922 184.295 143.152 184.248 143.281 184.17 c 143.406 184.103 143.422
 183.869 143.328 183.47 c 140.184 170.9 l 140.117 170.674 140.027 170.463
 139.906 170.263 c 139.785 170.06 139.629 169.896 139.441 169.771 c 139.199
 169.607 138.941 169.502 138.672 169.455 c 138.398 169.404 138.113 169.381
 137.809 169.384 c 137.629 169.381 137.516 169.287 137.473 169.107 c 137.426
 168.92 l 137.391 168.841 137.395 168.783 137.434 168.736 c 137.473 168.689
 137.531 168.666 137.617 168.666 c 139.242 168.759 140.844 168.759 142.418
 168.666 c 142.492 168.666 142.563 168.689 142.629 168.736 c 142.691 168.783
 142.734 168.841 142.754 168.92 c 142.801 169.107 l 142.848 169.287 142.781
 169.381 142.609 169.384 c 142.301 169.381 142.027 169.404 141.781 169.455
 c 141.531 169.502 141.324 169.607 141.168 169.771 c 141.035 169.896 140.961
 170.06 140.941 170.259 c 140.914 170.459 140.934 170.67 141 170.896 c 144.242
 183.904 l 145.727 168.92 l 145.758 168.748 145.863 168.666 146.039 168.666
 c 146.16 168.666 l 146.348 168.666 146.492 168.748 146.594 168.92 c 155.711
 184.099 l 152.23 170.252 l 152.133 169.865 152 169.623 151.824 169.529 
c 151.645 169.443 151.391 169.4 151.066 169.396 c 150.738 169.384 150.391
 169.381 150.023 169.384 c 149.848 169.381 149.734 169.287 149.688 169.107
 c 149.641 168.92 l 149.605 168.748 149.672 168.666 149.832 168.666 c 151.785
 168.759 153.695 168.759 155.57 168.666 c 155.645 168.666 155.715 168.689
 155.781 168.736 c 155.844 168.783 155.887 168.841 155.906 168.92 c 155.953
 169.107 l 155.996 169.287 155.934 169.381 155.762 169.384 c 155.391 169.381
 155.039 169.384 154.715 169.396 c 154.383 169.4 154.156 169.443 154.031
 169.529 c 153.902 169.607 153.887 169.849 153.984 170.252 c 157.273 183.47
 l 157.367 183.853 157.5 184.088 157.68 184.17 c 157.852 184.248 158.109
 184.295 158.449 184.314 c 158.781 184.326 159.133 184.334 159.504 184.338
 c 159.68 184.334 159.785 184.424 159.816 184.603 c h
f
207.699 240.81 m 207.777 241.115 207.777 241.384 207.699 241.627 c 207.617
 241.861 207.488 242.064 207.313 242.232 c 207.137 242.392 206.914 242.517
 206.652 242.603 c 206.387 242.689 206.113 242.732 205.828 242.732 c 205.441
 242.732 205.074 242.627 204.723 242.42 c 204.371 242.209 204.059 241.943
 203.785 241.627 c 203.594 241.4 203.43 241.127 203.293 240.799 c 203.156
 240.47 203.035 240.127 202.934 239.767 c 202.828 239.408 202.734 239.041
 202.656 238.674 c 202.574 238.302 202.512 237.966 202.469 237.666 c 202.18
 236.107 l 200.309 236.107 l 200.242 236.103 200.176 236.08 200.113 236.033
 c 200.047 235.982 200.008 235.92 199.996 235.841 c 199.945 235.65 l 199.91
 235.564 199.914 235.502 199.957 235.459 c 199.996 235.408 200.059 235.384
 200.141 235.388 c 202.035 235.388 l 200.859 229.353 l 200.633 228.244 200.41
 227.111 200.188 225.951 c 199.961 224.791 199.711 223.728 199.441 222.763
 c 199.328 222.349 199.176 222.013 198.984 221.756 c 198.793 221.502 198.578
 221.377 198.34 221.373 c 197.891 221.377 197.539 221.517 197.281 221.802
 c 197.504 221.834 197.711 221.935 197.906 222.103 c 198.098 222.271 198.234
 222.49 198.316 222.763 c 198.391 223.084 198.348 223.326 198.191 223.486
 c 198.027 223.646 197.828 223.724 197.594 223.724 c 197.352 223.724 197.109
 223.646 196.863 223.486 c 196.617 223.326 196.457 223.084 196.371 222.763
 c 196.293 222.474 196.293 222.213 196.371 221.97 c 196.457 221.736 196.582
 221.533 196.754 221.365 c 196.93 221.205 197.145 221.076 197.402 220.982
 c 197.656 220.888 197.93 220.841 198.219 220.841 c 198.473 220.841 198.711
 220.9 198.938 221.009 c 199.16 221.127 199.371 221.271 199.574 221.443 
c 199.77 221.623 199.949 221.822 200.113 222.045 c 200.27 222.271 200.414
 222.494 200.547 222.716 c 200.766 223.115 200.969 223.588 201.156 224.131
 c 201.336 224.677 201.504 225.252 201.66 225.857 c 201.809 226.466 201.945
 227.08 202.07 227.705 c 202.188 228.326 202.305 228.912 202.418 229.459
 c 203.57 235.388 l 205.805 235.388 l 205.961 235.384 206.074 235.47 206.141
 235.65 c 206.188 235.841 l 206.219 236.017 206.152 236.103 205.996 236.107
 c 203.715 236.107 l 204.027 237.744 l 204.086 238.111 204.16 238.498 204.242
 238.9 c 204.32 239.302 204.395 239.677 204.469 240.033 c 204.539 240.384
 204.605 240.689 204.672 240.947 c 204.734 241.201 204.793 241.373 204.844
 241.455 c 205.098 241.951 205.379 242.197 205.684 242.201 c 206.16 242.197
 206.527 242.049 206.785 241.748 c 206.559 241.713 206.352 241.615 206.172
 241.459 c 205.984 241.299 205.855 241.084 205.777 240.81 c 205.699 240.49
 205.738 240.244 205.898 240.076 c 206.059 239.908 206.258 239.826 206.5
 239.826 c 206.734 239.826 206.977 239.908 207.219 240.076 c 207.457 240.244
 207.617 240.49 207.699 240.81 c h
216.859 243.549 m 216.871 243.591 216.863 243.65 216.836 243.716 c 216.797
 243.763 216.727 243.787 216.617 243.787 c 216.57 243.787 216.512 243.771
 216.449 243.74 c 215.406 243.002 214.477 242.174 213.652 241.256 c 212.828
 240.334 212.098 239.357 211.469 238.326 c 210.836 237.295 210.297 236.224
 209.852 235.123 c 209.398 234.013 209.031 232.904 208.746 231.787 c 208.473
 230.666 208.281 229.549 208.172 228.439 c 208.059 227.326 208.063 226.256
 208.184 225.224 c 208.301 224.193 208.543 223.22 208.914 222.306 c 209.277
 221.396 209.809 220.572 210.5 219.834 c 210.531 219.802 210.57 219.787 
210.617 219.787 c 210.691 219.787 l 210.75 219.787 210.805 219.81 210.859
 219.857 c 210.934 219.908 210.973 219.966 210.977 220.025 c 210.992 220.064
 210.984 220.119 210.953 220.193 c 210.406 220.931 210.004 221.752 209.742
 222.654 c 209.477 223.56 209.328 224.509 209.297 225.498 c 209.262 226.49
 209.316 227.513 209.465 228.58 c 209.605 229.642 209.816 230.713 210.09
 231.787 c 210.344 232.857 210.66 233.92 211.047 234.978 c 211.43 236.033
 211.891 237.06 212.43 238.064 c 212.961 239.06 213.586 240.009 214.301 
240.908 c 215.012 241.802 215.832 242.627 216.762 243.381 c 216.824 243.439
 216.855 243.494 216.859 243.549 c h
226.465 234.619 m 226.539 234.92 226.531 235.189 226.438 235.424 c 226.344
 235.654 226.195 235.841 225.996 235.99 c 225.793 236.134 225.551 236.244
 225.273 236.314 c 224.992 236.381 224.711 236.416 224.422 236.42 c 223.926
 236.416 223.48 236.256 223.09 235.939 c 222.695 235.615 222.363 235.224
 222.094 234.763 c 222.059 234.857 222.023 234.951 221.984 235.049 c 221.945
 235.142 221.902 235.232 221.855 235.314 c 221.645 235.65 221.367 235.916
 221.027 236.119 c 220.68 236.314 220.285 236.416 219.84 236.42 c 219.375
 236.416 218.941 236.31 218.543 236.107 c 218.141 235.896 217.777 235.623
 217.449 235.279 c 217.121 234.935 216.836 234.537 216.598 234.091 c 216.355
 233.638 216.18 233.185 216.07 232.724 c 216.035 232.56 216.09 232.478 216.238
 232.482 c 216.504 232.482 l 216.645 232.478 216.75 232.56 216.816 232.724
 c 216.91 233.138 217.051 233.537 217.246 233.92 c 217.434 234.302 217.656
 234.638 217.906 234.927 c 218.152 235.216 218.426 235.447 218.734 235.627
 c 219.035 235.799 219.355 235.888 219.695 235.892 c 219.961 235.888 220.191
 235.806 220.379 235.65 c 220.563 235.486 220.691 235.279 220.773 235.021
 c 220.883 234.685 220.91 234.318 220.855 233.924 c 220.797 233.529 220.715
 233.123 220.605 232.709 c 219.527 228.388 l 219.367 227.763 219.113 227.216
 218.77 226.752 c 218.422 226.283 218.027 226.049 217.582 226.052 c 217.102
 226.049 216.719 226.17 216.43 226.412 c 216.637 226.455 216.824 226.552
 216.992 226.709 c 217.16 226.857 217.277 227.064 217.344 227.322 c 217.422
 227.642 217.375 227.881 217.211 228.041 c 217.039 228.201 216.836 228.283
 216.598 228.283 c 216.355 228.283 216.117 228.201 215.879 228.041 c 215.637
 227.881 215.477 227.642 215.398 227.322 c 215.316 227.017 215.324 226.752
 215.422 226.529 c 215.516 226.302 215.664 226.115 215.867 225.966 c 216.066
 225.814 216.305 225.705 216.586 225.631 c 216.863 225.56 217.148 225.525
 217.438 225.521 c 217.934 225.525 218.375 225.677 218.77 225.99 c 219.16
 226.299 219.492 226.685 219.766 227.154 c 219.797 227.052 219.836 226.963
 219.875 226.877 c 219.914 226.791 219.965 226.705 220.031 226.627 c 220.238
 226.287 220.512 226.021 220.848 225.822 c 221.184 225.623 221.582 225.525
 222.047 225.521 c 222.492 225.525 222.918 225.631 223.328 225.845 c 223.734
 226.06 224.102 226.338 224.422 226.685 c 224.742 227.025 225.02 227.424
 225.262 227.873 c 225.5 228.322 225.68 228.779 225.793 229.244 c 225.855
 229.384 225.797 229.455 225.625 229.459 c 225.359 229.459 l 225.199 229.455
 225.102 229.384 225.07 229.244 c 224.957 228.826 224.805 228.424 224.613
 228.041 c 224.422 227.654 224.203 227.314 223.953 227.021 c 223.703 226.724
 223.426 226.49 223.125 226.314 c 222.82 226.138 222.5 226.049 222.168 226.052
 c 221.891 226.049 221.668 226.131 221.492 226.291 c 221.316 226.451 221.188
 226.658 221.109 226.92 c 220.996 227.256 220.969 227.623 221.023 228.017
 c 221.078 228.408 221.16 228.822 221.277 229.259 c 222.359 233.576 l 222.516
 234.201 222.762 234.744 223.102 235.205 c 223.434 235.658 223.824 235.888
 224.277 235.892 c 224.77 235.888 225.156 235.775 225.43 235.556 c 225.238
 235.486 225.063 235.381 224.902 235.24 c 224.742 235.091 224.621 234.884
 224.543 234.619 c 224.461 234.295 224.5 234.056 224.66 233.896 c 224.82
 233.736 225.02 233.654 225.262 233.658 c 225.5 233.654 225.742 233.736 
225.984 233.896 c 226.223 234.056 226.383 234.295 226.465 234.619 c h
233.563 231.787 m 233.836 232.904 234.027 234.013 234.141 235.123 c 234.25
 236.224 234.246 237.295 234.129 238.326 c 234.008 239.357 233.762 240.334
 233.395 241.256 c 233.023 242.174 232.496 243.002 231.813 243.74 c 231.773
 243.771 231.734 243.787 231.691 243.787 c 231.621 243.787 l 231.555 243.787
 231.488 243.763 231.426 243.716 c 231.375 243.666 231.344 243.607 231.332
 243.545 c 231.313 243.478 231.32 243.424 231.355 243.381 c 231.895 242.627
 232.301 241.802 232.566 240.908 c 232.832 240.009 232.98 239.06 233.012
 238.064 c 233.043 237.06 232.984 236.033 232.844 234.978 c 232.695 233.92
 232.488 232.857 232.219 231.787 c 231.945 230.713 231.621 229.642 231.246
 228.58 c 230.867 227.513 230.41 226.49 229.879 225.498 c 229.34 224.509
 228.719 223.56 228.008 222.654 c 227.297 221.752 226.477 220.931 225.547
 220.193 c 225.484 220.134 225.453 220.08 225.453 220.025 c 225.418 219.951
 225.426 219.892 225.477 219.857 c 225.508 219.81 225.578 219.787 225.691
 219.787 c 225.703 219.787 225.758 219.802 225.859 219.834 c 226.895 220.572
 227.828 221.396 228.652 222.306 c 229.477 223.22 230.203 224.193 230.84
 225.224 c 231.469 226.256 232.012 227.326 232.461 228.439 c 232.906 229.549
 233.273 230.666 233.563 231.787 c h
f
342.887 273.076 m 342.965 273.381 342.965 273.65 342.887 273.892 c 342.805
 274.127 342.676 274.33 342.5 274.498 c 342.324 274.658 342.102 274.783 
341.84 274.869 c 341.574 274.955 341.301 274.998 341.016 274.998 c 340.629
 274.998 340.262 274.892 339.91 274.685 c 339.559 274.474 339.246 274.209
 338.973 273.892 c 338.781 273.666 338.617 273.392 338.48 273.064 c 338.344
 272.736 338.223 272.392 338.121 272.033 c 338.016 271.674 337.922 271.306
 337.844 270.939 c 337.762 270.568 337.699 270.232 337.656 269.931 c 337.367
 268.373 l 335.496 268.373 l 335.43 268.369 335.363 268.345 335.301 268.299
 c 335.234 268.248 335.195 268.185 335.184 268.107 c 335.133 267.916 l 335.098
 267.83 335.102 267.767 335.145 267.724 c 335.184 267.674 335.246 267.65
 335.328 267.654 c 337.223 267.654 l 336.047 261.619 l 335.82 260.509 335.598
 259.377 335.375 258.216 c 335.148 257.056 334.898 255.994 334.629 255.029
 c 334.516 254.615 334.363 254.279 334.172 254.021 c 333.98 253.767 333.766
 253.642 333.527 253.638 c 333.078 253.642 332.727 253.783 332.469 254.068
 c 332.691 254.099 332.898 254.201 333.094 254.369 c 333.285 254.537 333.422
 254.756 333.504 255.029 c 333.578 255.349 333.535 255.591 333.379 255.752
 c 333.215 255.912 333.016 255.99 332.781 255.99 c 332.539 255.99 332.297
 255.912 332.051 255.752 c 331.805 255.591 331.645 255.349 331.559 255.029
 c 331.48 254.74 331.48 254.478 331.559 254.236 c 331.645 254.002 331.77
 253.799 331.941 253.631 c 332.117 253.47 332.332 253.341 332.59 253.248
 c 332.844 253.154 333.117 253.107 333.406 253.107 c 333.66 253.107 333.898
 253.166 334.125 253.275 c 334.348 253.392 334.559 253.537 334.762 253.709
 c 334.957 253.888 335.137 254.088 335.301 254.31 c 335.457 254.537 335.602
 254.759 335.734 254.982 c 335.953 255.381 336.156 255.853 336.344 256.396
 c 336.523 256.943 336.691 257.517 336.848 258.123 c 336.996 258.732 337.133
 259.345 337.258 259.97 c 337.375 260.591 337.492 261.177 337.605 261.724
 c 338.758 267.654 l 340.992 267.654 l 341.148 267.65 341.262 267.736 341.328
 267.916 c 341.375 268.107 l 341.406 268.283 341.34 268.369 341.184 268.373
 c 338.902 268.373 l 339.215 270.009 l 339.273 270.377 339.348 270.763 339.43
 271.166 c 339.508 271.568 339.582 271.943 339.656 272.299 c 339.727 272.65
 339.793 272.955 339.859 273.213 c 339.922 273.466 339.98 273.638 340.031
 273.72 c 340.285 274.216 340.566 274.463 340.871 274.466 c 341.348 274.463
 341.715 274.314 341.973 274.013 c 341.746 273.978 341.539 273.881 341.359
 273.724 c 341.172 273.564 341.043 273.349 340.965 273.076 c 340.887 272.756
 340.926 272.509 341.086 272.341 c 341.246 272.174 341.445 272.091 341.688
 272.091 c 341.922 272.091 342.164 272.174 342.406 272.341 c 342.645 272.509
 342.805 272.756 342.887 273.076 c h
352.047 275.814 m 352.059 275.857 352.051 275.916 352.023 275.982 c 351.984
 276.029 351.914 276.052 351.805 276.052 c 351.758 276.052 351.699 276.037
 351.637 276.006 c 350.594 275.267 349.664 274.439 348.84 273.521 c 348.016
 272.599 347.285 271.623 346.656 270.591 c 346.023 269.56 345.484 268.49
 345.039 267.388 c 344.586 266.279 344.219 265.17 343.934 264.052 c 343.66
 262.931 343.469 261.814 343.359 260.705 c 343.246 259.591 343.25 258.521
 343.371 257.49 c 343.488 256.459 343.73 255.486 344.102 254.572 c 344.465
 253.662 344.996 252.838 345.688 252.099 c 345.719 252.068 345.758 252.052
 345.805 252.052 c 345.879 252.052 l 345.938 252.052 345.992 252.076 346.047
 252.123 c 346.121 252.174 346.16 252.232 346.164 252.291 c 346.18 252.33
 346.172 252.384 346.141 252.459 c 345.594 253.197 345.191 254.017 344.93
 254.92 c 344.664 255.826 344.516 256.775 344.484 257.763 c 344.449 258.756
 344.504 259.779 344.652 260.845 c 344.793 261.908 345.004 262.978 345.277
 264.052 c 345.531 265.123 345.848 266.185 346.234 267.244 c 346.617 268.299
 347.078 269.326 347.617 270.33 c 348.148 271.326 348.773 272.275 349.488
 273.174 c 350.199 274.068 351.02 274.892 351.949 275.646 c 352.012 275.705
 352.043 275.759 352.047 275.814 c h
361.652 266.884 m 361.727 267.185 361.719 267.455 361.625 267.689 c 361.531
 267.92 361.383 268.107 361.184 268.256 c 360.98 268.4 360.738 268.509 360.461
 268.58 c 360.18 268.646 359.898 268.681 359.609 268.685 c 359.113 268.681
 358.668 268.521 358.277 268.205 c 357.883 267.881 357.551 267.49 357.281
 267.029 c 357.246 267.123 357.211 267.216 357.172 267.314 c 357.133 267.408
 357.09 267.498 357.043 267.58 c 356.832 267.916 356.555 268.181 356.215
 268.384 c 355.867 268.58 355.473 268.681 355.027 268.685 c 354.563 268.681
 354.129 268.576 353.73 268.373 c 353.328 268.162 352.965 267.888 352.637
 267.545 c 352.309 267.201 352.023 266.802 351.785 266.357 c 351.543 265.904
 351.367 265.451 351.258 264.99 c 351.223 264.826 351.277 264.744 351.426
 264.748 c 351.691 264.748 l 351.832 264.744 351.938 264.826 352.004 264.99
 c 352.098 265.404 352.238 265.802 352.434 266.185 c 352.621 266.568 352.844
 266.904 353.094 267.193 c 353.34 267.482 353.613 267.713 353.922 267.892
 c 354.223 268.064 354.543 268.154 354.883 268.158 c 355.148 268.154 355.379
 268.072 355.566 267.916 c 355.75 267.752 355.879 267.545 355.961 267.287
 c 356.07 266.951 356.098 266.584 356.043 266.189 c 355.984 265.795 355.902
 265.388 355.793 264.974 c 354.715 260.654 l 354.555 260.029 354.301 259.482
 353.957 259.017 c 353.609 258.549 353.215 258.314 352.77 258.318 c 352.289
 258.314 351.906 258.435 351.617 258.677 c 351.824 258.72 352.012 258.818
 352.18 258.974 c 352.348 259.123 352.465 259.33 352.531 259.588 c 352.609
 259.908 352.563 260.146 352.398 260.306 c 352.227 260.466 352.023 260.549
 351.785 260.549 c 351.543 260.549 351.305 260.466 351.066 260.306 c 350.824
 260.146 350.664 259.908 350.586 259.588 c 350.504 259.283 350.512 259.017
 350.609 258.795 c 350.703 258.568 350.852 258.381 351.055 258.232 c 351.254
 258.08 351.492 257.97 351.773 257.896 c 352.051 257.826 352.336 257.791
 352.625 257.787 c 353.121 257.791 353.563 257.943 353.957 258.256 c 354.348
 258.564 354.68 258.951 354.953 259.42 c 354.984 259.318 355.023 259.228
 355.063 259.142 c 355.102 259.056 355.152 258.97 355.219 258.892 c 355.426
 258.552 355.699 258.287 356.035 258.088 c 356.371 257.888 356.77 257.791
 357.234 257.787 c 357.68 257.791 358.105 257.896 358.516 258.111 c 358.922
 258.326 359.289 258.603 359.609 258.951 c 359.93 259.291 360.207 259.689
 360.449 260.138 c 360.688 260.588 360.867 261.045 360.98 261.509 c 361.043
 261.65 360.984 261.72 360.813 261.724 c 360.547 261.724 l 360.387 261.72
 360.289 261.65 360.258 261.509 c 360.145 261.091 359.992 260.689 359.801
 260.306 c 359.609 259.92 359.391 259.58 359.141 259.287 c 358.891 258.99
 358.613 258.756 358.313 258.58 c 358.008 258.404 357.688 258.314 357.355
 258.318 c 357.078 258.314 356.855 258.396 356.68 258.556 c 356.504 258.716
 356.375 258.924 356.297 259.185 c 356.184 259.521 356.156 259.888 356.211
 260.283 c 356.266 260.674 356.348 261.088 356.465 261.525 c 357.547 265.841
 l 357.703 266.466 357.949 267.009 358.289 267.47 c 358.621 267.924 359.012
 268.154 359.465 268.158 c 359.957 268.154 360.344 268.041 360.617 267.822
 c 360.426 267.752 360.25 267.646 360.09 267.506 c 359.93 267.357 359.809
 267.15 359.73 266.884 c 359.648 266.56 359.688 266.322 359.848 266.162 
c 360.008 266.002 360.207 265.92 360.449 265.924 c 360.688 265.92 360.93
 266.002 361.172 266.162 c 361.41 266.322 361.57 266.56 361.652 266.884 
c h
368.75 264.052 m 369.023 265.17 369.215 266.279 369.328 267.388 c 369.438
 268.49 369.434 269.56 369.316 270.591 c 369.195 271.623 368.949 272.599
 368.582 273.521 c 368.211 274.439 367.684 275.267 367 276.006 c 366.961
 276.037 366.922 276.052 366.879 276.052 c 366.809 276.052 l 366.742 276.052
 366.676 276.029 366.613 275.982 c 366.563 275.931 366.531 275.873 366.52
 275.81 c 366.5 275.744 366.508 275.689 366.543 275.646 c 367.082 274.892
 367.488 274.068 367.754 273.174 c 368.02 272.275 368.168 271.326 368.199
 270.33 c 368.23 269.326 368.172 268.299 368.031 267.244 c 367.883 266.185
 367.676 265.123 367.406 264.052 c 367.133 262.978 366.809 261.908 366.434
 260.845 c 366.055 259.779 365.598 258.756 365.066 257.763 c 364.527 256.775
 363.906 255.826 363.195 254.92 c 362.484 254.017 361.664 253.197 360.734
 252.459 c 360.672 252.4 360.641 252.345 360.641 252.291 c 360.605 252.216
 360.613 252.158 360.664 252.123 c 360.695 252.076 360.766 252.052 360.879
 252.052 c 360.891 252.052 360.945 252.068 361.047 252.099 c 362.082 252.838
 363.016 253.662 363.84 254.572 c 364.664 255.486 365.391 256.459 366.027
 257.49 c 366.656 258.521 367.199 259.591 367.648 260.705 c 368.094 261.814
 368.461 262.931 368.75 264.052 c h
f
171.031 77.326 m 171.063 77.466 170.996 77.537 170.836 77.541 c 170.574
 77.541 l 170.41 77.537 170.313 77.466 170.285 77.326 c 170.172 76.861 170.059
 76.435 169.949 76.052 c 169.832 75.666 169.715 75.33 169.59 75.045 c 169.461
 74.752 169.316 74.529 169.156 74.373 c 168.996 74.213 168.82 74.131 168.629
 74.134 c 168.434 74.131 168.285 74.193 168.184 74.314 c 168.082 74.431 
168.012 74.595 167.98 74.806 c 167.945 75.013 167.945 75.259 167.98 75.552
 c 168.012 75.838 168.07 76.142 168.148 76.466 c 169.828 83.252 l 169.891
 83.502 169.855 83.697 169.723 83.838 c 169.586 83.97 169.414 84.041 169.207
 84.045 c 169.012 84.041 168.824 83.97 168.641 83.838 c 168.457 83.697 168.34
 83.502 168.293 83.252 c 168.27 83.107 l 168.09 83.486 167.844 83.814 167.535
 84.091 c 167.223 84.361 166.82 84.498 166.324 84.502 c 165.746 84.498 165.176
 84.341 164.609 84.033 c 164.039 83.716 163.531 83.326 163.086 82.865 c 
162.539 82.302 162.098 81.693 161.766 81.037 c 161.426 80.377 161.168 79.713
 160.996 79.041 c 160.816 78.365 160.738 77.697 160.758 77.041 c 160.77 
76.381 160.914 75.775 161.191 75.216 c 161.414 74.748 161.727 74.361 162.125
 74.06 c 162.523 73.756 163.02 73.607 163.613 73.603 c 164.172 73.607 164.707
 73.775 165.219 74.119 c 165.73 74.463 166.172 74.861 166.543 75.31 c 166.621
 74.81 166.828 74.4 167.164 74.084 c 167.5 73.763 167.945 73.607 168.508
 73.603 c 168.922 73.607 169.27 73.732 169.551 73.986 c 169.828 74.244 170.066
 74.556 170.262 74.924 c 170.453 75.291 170.605 75.689 170.719 76.123 c 
170.828 76.552 170.934 76.955 171.031 77.326 c h
167.91 81.658 m 166.613 76.47 l 166.516 76.295 166.41 76.134 166.301 75.99
 c 166.188 75.841 166.066 75.689 165.941 75.533 c 165.617 75.146 165.27 
74.814 164.895 74.545 c 164.516 74.267 164.137 74.131 163.758 74.134 c 163.387
 74.131 163.102 74.263 162.906 74.529 c 162.703 74.791 162.563 75.119 162.484
 75.509 c 162.367 76.037 162.363 76.599 162.473 77.205 c 162.574 77.806 
162.707 78.424 162.871 79.052 c 163.027 79.693 163.203 80.31 163.398 80.908
 c 163.586 81.502 163.875 82.076 164.262 82.623 c 164.531 83.006 164.836
 83.326 165.172 83.588 c 165.508 83.841 165.852 83.97 166.207 83.974 c 166.586
 83.97 166.902 83.838 167.152 83.576 c 167.402 83.306 167.59 82.982 167.719
 82.599 c 167.762 82.435 167.797 82.275 167.824 82.127 c 167.848 81.97 167.875
 81.814 167.91 81.658 c h
f
348.652 80.302 m 348.824 80.974 348.906 81.638 348.891 82.299 c 348.875
 82.955 348.738 83.564 348.484 84.127 c 348.258 84.588 347.941 84.978 347.535
 85.295 c 347.125 85.603 346.625 85.759 346.035 85.763 c 345.555 85.759 
345.09 85.623 344.645 85.353 c 344.191 85.08 343.785 84.752 343.422 84.369
 c 345.219 91.525 l 345.25 91.603 345.246 91.67 345.207 91.724 c 345.164
 91.779 345.105 91.799 345.027 91.787 c 341.957 91.529 l 341.777 91.494 
341.664 91.408 341.621 91.271 c 341.574 91.084 l 341.535 91.002 341.539 
90.939 341.582 90.896 c 341.621 90.845 341.684 90.822 341.766 90.826 c 342.102
 90.822 342.402 90.81 342.676 90.791 c 342.945 90.763 343.141 90.713 343.254
 90.634 c 343.332 90.568 343.363 90.466 343.348 90.334 c 343.332 90.197 
343.293 90.002 343.23 89.744 c 340.875 80.299 l 340.699 79.627 340.617 78.963
 340.637 78.314 c 340.648 77.662 340.777 77.06 341.02 76.502 c 341.227 76.033
 341.523 75.642 341.906 75.334 c 342.289 75.021 342.762 74.869 343.324 74.865
 c 343.914 74.869 344.488 75.017 345.051 75.322 c 345.609 75.623 346.113
 76.009 346.566 76.478 c 347.105 77.037 347.547 77.642 347.883 78.302 c 
348.219 78.959 348.473 79.627 348.652 80.302 c h
347.188 83.884 m 347.297 83.338 347.301 82.763 347.199 82.17 c 347.09 81.572
 346.961 80.955 346.805 80.314 c 346.645 79.685 346.469 79.068 346.277 78.466
 c 346.082 77.861 345.793 77.299 345.414 76.771 c 345.137 76.381 344.832
 76.052 344.5 75.791 c 344.16 75.525 343.816 75.392 343.469 75.396 c 343.098
 75.392 342.805 75.525 342.594 75.791 c 342.375 76.052 342.219 76.381 342.125
 76.771 c 341.992 77.299 341.969 77.861 342.051 78.466 c 342.129 79.068 
342.25 79.685 342.414 80.314 c 343.063 82.92 l 343.25 83.22 343.465 83.537
 343.707 83.861 c 344.023 84.244 344.371 84.568 344.75 84.838 c 345.125 
85.099 345.516 85.232 345.918 85.236 c 346.266 85.232 346.547 85.103 346.758
 84.849 c 346.965 84.588 347.105 84.267 347.188 83.884 c h
f
Q Q
showpage
%%Trailer
count op_count sub {pop} repeat
countdictstack dict_count sub {end} repeat
cairo_eps_state restore
%%EOF
