%!PS-Adobe-2.0 EPSF-2.0
%%Title: /home/yurchor/test.eps
%%Creator: gnuplot 4.6 patchlevel 5
%%CreationDate: Sun Aug 16 16:00:00 2015
%%DocumentFonts: (atend)
%%BoundingBox: 50 50 514 398
%%EndComments
%%BeginProlog
/gnudict 256 dict def
gnudict begin
%
% The following true/false flags may be edited by hand if desired.
% The unit line width and grayscale image gamma correction may also be changed.
%
/Color true def
/Blacktext false def
/Solid true def
/Dashlength 1 def
/Landscape false def
/Level1 false def
/Rounded false def
/ClipToBoundingBox false def
/SuppressPDFMark false def
/TransparentPatterns false def
/gnulinewidth 10.000 def
/userlinewidth gnulinewidth def
/Gamma 1.0 def
/BackgroundColor {-1.000 -1.000 -1.000} def
%
/vshift -80 def
/dl1 {
  10.0 Dashlength mul mul
  Rounded { currentlinewidth 0.75 mul sub dup 0 le { pop 0.01 } if } if
} def
/dl2 {
  10.0 Dashlength mul mul
  Rounded { currentlinewidth 0.75 mul add } if
} def
/hpt_ 31.5 def
/vpt_ 31.5 def
/hpt hpt_ def
/vpt vpt_ def
/doclip {
  ClipToBoundingBox {
    newpath 50 50 moveto 514 50 lineto 514 398 lineto 50 398 lineto closepath
    clip
  } if
} def
%
% Gnuplot Prolog Version 4.6 (September 2012)
%
%/SuppressPDFMark true def
%
/M {moveto} bind def
/L {lineto} bind def
/R {rmoveto} bind def
/V {rlineto} bind def
/N {newpath moveto} bind def
/Z {closepath} bind def
/C {setrgbcolor} bind def
/f {rlineto fill} bind def
/g {setgray} bind def
/Gshow {show} def   % May be redefined later in the file to support UTF-8
/vpt2 vpt 2 mul def
/hpt2 hpt 2 mul def
/Lshow {currentpoint stroke M 0 vshift R 
	Blacktext {gsave 0 setgray show grestore} {show} ifelse} def
/Rshow {currentpoint stroke M dup stringwidth pop neg vshift R
	Blacktext {gsave 0 setgray show grestore} {show} ifelse} def
/Cshow {currentpoint stroke M dup stringwidth pop -2 div vshift R 
	Blacktext {gsave 0 setgray show grestore} {show} ifelse} def
/UP {dup vpt_ mul /vpt exch def hpt_ mul /hpt exch def
  /hpt2 hpt 2 mul def /vpt2 vpt 2 mul def} def
/DL {Color {setrgbcolor Solid {pop []} if 0 setdash}
 {pop pop pop 0 setgray Solid {pop []} if 0 setdash} ifelse} def
/BL {stroke userlinewidth 2 mul setlinewidth
	Rounded {1 setlinejoin 1 setlinecap} if} def
/AL {stroke userlinewidth 2 div setlinewidth
	Rounded {1 setlinejoin 1 setlinecap} if} def
/UL {dup gnulinewidth mul /userlinewidth exch def
	dup 1 lt {pop 1} if 10 mul /udl exch def} def
/PL {stroke userlinewidth setlinewidth
	Rounded {1 setlinejoin 1 setlinecap} if} def
3.8 setmiterlimit
% Default Line colors
/LCw {1 1 1} def
/LCb {0 0 0} def
/LCa {0 0 0} def
/LC0 {1 0 0} def
/LC1 {0 1 0} def
/LC2 {0 0 1} def
/LC3 {1 0 1} def
/LC4 {0 1 1} def
/LC5 {1 1 0} def
/LC6 {0 0 0} def
/LC7 {1 0.3 0} def
/LC8 {0.5 0.5 0.5} def
% Default Line Types
/LTw {PL [] 1 setgray} def
/LTb {BL [] LCb DL} def
/LTa {AL [1 udl mul 2 udl mul] 0 setdash LCa setrgbcolor} def
/LT0 {PL [] LC0 DL} def
/LT1 {PL [4 dl1 2 dl2] LC1 DL} def
/LT2 {PL [2 dl1 3 dl2] LC2 DL} def
/LT3 {PL [1 dl1 1.5 dl2] LC3 DL} def
/LT4 {PL [6 dl1 2 dl2 1 dl1 2 dl2] LC4 DL} def
/LT5 {PL [3 dl1 3 dl2 1 dl1 3 dl2] LC5 DL} def
/LT6 {PL [2 dl1 2 dl2 2 dl1 6 dl2] LC6 DL} def
/LT7 {PL [1 dl1 2 dl2 6 dl1 2 dl2 1 dl1 2 dl2] LC7 DL} def
/LT8 {PL [2 dl1 2 dl2 2 dl1 2 dl2 2 dl1 2 dl2 2 dl1 4 dl2] LC8 DL} def
/Pnt {stroke [] 0 setdash gsave 1 setlinecap M 0 0 V stroke grestore} def
/Dia {stroke [] 0 setdash 2 copy vpt add M
  hpt neg vpt neg V hpt vpt neg V
  hpt vpt V hpt neg vpt V closepath stroke
  Pnt} def
/Pls {stroke [] 0 setdash vpt sub M 0 vpt2 V
  currentpoint stroke M
  hpt neg vpt neg R hpt2 0 V stroke
 } def
/Box {stroke [] 0 setdash 2 copy exch hpt sub exch vpt add M
  0 vpt2 neg V hpt2 0 V 0 vpt2 V
  hpt2 neg 0 V closepath stroke
  Pnt} def
/Crs {stroke [] 0 setdash exch hpt sub exch vpt add M
  hpt2 vpt2 neg V currentpoint stroke M
  hpt2 neg 0 R hpt2 vpt2 V stroke} def
/TriU {stroke [] 0 setdash 2 copy vpt 1.12 mul add M
  hpt neg vpt -1.62 mul V
  hpt 2 mul 0 V
  hpt neg vpt 1.62 mul V closepath stroke
  Pnt} def
/Star {2 copy Pls Crs} def
/BoxF {stroke [] 0 setdash exch hpt sub exch vpt add M
  0 vpt2 neg V hpt2 0 V 0 vpt2 V
  hpt2 neg 0 V closepath fill} def
/TriUF {stroke [] 0 setdash vpt 1.12 mul add M
  hpt neg vpt -1.62 mul V
  hpt 2 mul 0 V
  hpt neg vpt 1.62 mul V closepath fill} def
/TriD {stroke [] 0 setdash 2 copy vpt 1.12 mul sub M
  hpt neg vpt 1.62 mul V
  hpt 2 mul 0 V
  hpt neg vpt -1.62 mul V closepath stroke
  Pnt} def
/TriDF {stroke [] 0 setdash vpt 1.12 mul sub M
  hpt neg vpt 1.62 mul V
  hpt 2 mul 0 V
  hpt neg vpt -1.62 mul V closepath fill} def
/DiaF {stroke [] 0 setdash vpt add M
  hpt neg vpt neg V hpt vpt neg V
  hpt vpt V hpt neg vpt V closepath fill} def
/Pent {stroke [] 0 setdash 2 copy gsave
  translate 0 hpt M 4 {72 rotate 0 hpt L} repeat
  closepath stroke grestore Pnt} def
/PentF {stroke [] 0 setdash gsave
  translate 0 hpt M 4 {72 rotate 0 hpt L} repeat
  closepath fill grestore} def
/Circle {stroke [] 0 setdash 2 copy
  hpt 0 360 arc stroke Pnt} def
/CircleF {stroke [] 0 setdash hpt 0 360 arc fill} def
/C0 {BL [] 0 setdash 2 copy moveto vpt 90 450 arc} bind def
/C1 {BL [] 0 setdash 2 copy moveto
	2 copy vpt 0 90 arc closepath fill
	vpt 0 360 arc closepath} bind def
/C2 {BL [] 0 setdash 2 copy moveto
	2 copy vpt 90 180 arc closepath fill
	vpt 0 360 arc closepath} bind def
/C3 {BL [] 0 setdash 2 copy moveto
	2 copy vpt 0 180 arc closepath fill
	vpt 0 360 arc closepath} bind def
/C4 {BL [] 0 setdash 2 copy moveto
	2 copy vpt 180 270 arc closepath fill
	vpt 0 360 arc closepath} bind def
/C5 {BL [] 0 setdash 2 copy moveto
	2 copy vpt 0 90 arc
	2 copy moveto
	2 copy vpt 180 270 arc closepath fill
	vpt 0 360 arc} bind def
/C6 {BL [] 0 setdash 2 copy moveto
	2 copy vpt 90 270 arc closepath fill
	vpt 0 360 arc closepath} bind def
/C7 {BL [] 0 setdash 2 copy moveto
	2 copy vpt 0 270 arc closepath fill
	vpt 0 360 arc closepath} bind def
/C8 {BL [] 0 setdash 2 copy moveto
	2 copy vpt 270 360 arc closepath fill
	vpt 0 360 arc closepath} bind def
/C9 {BL [] 0 setdash 2 copy moveto
	2 copy vpt 270 450 arc closepath fill
	vpt 0 360 arc closepath} bind def
/C10 {BL [] 0 setdash 2 copy 2 copy moveto vpt 270 360 arc closepath fill
	2 copy moveto
	2 copy vpt 90 180 arc closepath fill
	vpt 0 360 arc closepath} bind def
/C11 {BL [] 0 setdash 2 copy moveto
	2 copy vpt 0 180 arc closepath fill
	2 copy moveto
	2 copy vpt 270 360 arc closepath fill
	vpt 0 360 arc closepath} bind def
/C12 {BL [] 0 setdash 2 copy moveto
	2 copy vpt 180 360 arc closepath fill
	vpt 0 360 arc closepath} bind def
/C13 {BL [] 0 setdash 2 copy moveto
	2 copy vpt 0 90 arc closepath fill
	2 copy moveto
	2 copy vpt 180 360 arc closepath fill
	vpt 0 360 arc closepath} bind def
/C14 {BL [] 0 setdash 2 copy moveto
	2 copy vpt 90 360 arc closepath fill
	vpt 0 360 arc} bind def
/C15 {BL [] 0 setdash 2 copy vpt 0 360 arc closepath fill
	vpt 0 360 arc closepath} bind def
/Rec {newpath 4 2 roll moveto 1 index 0 rlineto 0 exch rlineto
	neg 0 rlineto closepath} bind def
/Square {dup Rec} bind def
/Bsquare {vpt sub exch vpt sub exch vpt2 Square} bind def
/S0 {BL [] 0 setdash 2 copy moveto 0 vpt rlineto BL Bsquare} bind def
/S1 {BL [] 0 setdash 2 copy vpt Square fill Bsquare} bind def
/S2 {BL [] 0 setdash 2 copy exch vpt sub exch vpt Square fill Bsquare} bind def
/S3 {BL [] 0 setdash 2 copy exch vpt sub exch vpt2 vpt Rec fill Bsquare} bind def
/S4 {BL [] 0 setdash 2 copy exch vpt sub exch vpt sub vpt Square fill Bsquare} bind def
/S5 {BL [] 0 setdash 2 copy 2 copy vpt Square fill
	exch vpt sub exch vpt sub vpt Square fill Bsquare} bind def
/S6 {BL [] 0 setdash 2 copy exch vpt sub exch vpt sub vpt vpt2 Rec fill Bsquare} bind def
/S7 {BL [] 0 setdash 2 copy exch vpt sub exch vpt sub vpt vpt2 Rec fill
	2 copy vpt Square fill Bsquare} bind def
/S8 {BL [] 0 setdash 2 copy vpt sub vpt Square fill Bsquare} bind def
/S9 {BL [] 0 setdash 2 copy vpt sub vpt vpt2 Rec fill Bsquare} bind def
/S10 {BL [] 0 setdash 2 copy vpt sub vpt Square fill 2 copy exch vpt sub exch vpt Square fill
	Bsquare} bind def
/S11 {BL [] 0 setdash 2 copy vpt sub vpt Square fill 2 copy exch vpt sub exch vpt2 vpt Rec fill
	Bsquare} bind def
/S12 {BL [] 0 setdash 2 copy exch vpt sub exch vpt sub vpt2 vpt Rec fill Bsquare} bind def
/S13 {BL [] 0 setdash 2 copy exch vpt sub exch vpt sub vpt2 vpt Rec fill
	2 copy vpt Square fill Bsquare} bind def
/S14 {BL [] 0 setdash 2 copy exch vpt sub exch vpt sub vpt2 vpt Rec fill
	2 copy exch vpt sub exch vpt Square fill Bsquare} bind def
/S15 {BL [] 0 setdash 2 copy Bsquare fill Bsquare} bind def
/D0 {gsave translate 45 rotate 0 0 S0 stroke grestore} bind def
/D1 {gsave translate 45 rotate 0 0 S1 stroke grestore} bind def
/D2 {gsave translate 45 rotate 0 0 S2 stroke grestore} bind def
/D3 {gsave translate 45 rotate 0 0 S3 stroke grestore} bind def
/D4 {gsave translate 45 rotate 0 0 S4 stroke grestore} bind def
/D5 {gsave translate 45 rotate 0 0 S5 stroke grestore} bind def
/D6 {gsave translate 45 rotate 0 0 S6 stroke grestore} bind def
/D7 {gsave translate 45 rotate 0 0 S7 stroke grestore} bind def
/D8 {gsave translate 45 rotate 0 0 S8 stroke grestore} bind def
/D9 {gsave translate 45 rotate 0 0 S9 stroke grestore} bind def
/D10 {gsave translate 45 rotate 0 0 S10 stroke grestore} bind def
/D11 {gsave translate 45 rotate 0 0 S11 stroke grestore} bind def
/D12 {gsave translate 45 rotate 0 0 S12 stroke grestore} bind def
/D13 {gsave translate 45 rotate 0 0 S13 stroke grestore} bind def
/D14 {gsave translate 45 rotate 0 0 S14 stroke grestore} bind def
/D15 {gsave translate 45 rotate 0 0 S15 stroke grestore} bind def
/DiaE {stroke [] 0 setdash vpt add M
  hpt neg vpt neg V hpt vpt neg V
  hpt vpt V hpt neg vpt V closepath stroke} def
/BoxE {stroke [] 0 setdash exch hpt sub exch vpt add M
  0 vpt2 neg V hpt2 0 V 0 vpt2 V
  hpt2 neg 0 V closepath stroke} def
/TriUE {stroke [] 0 setdash vpt 1.12 mul add M
  hpt neg vpt -1.62 mul V
  hpt 2 mul 0 V
  hpt neg vpt 1.62 mul V closepath stroke} def
/TriDE {stroke [] 0 setdash vpt 1.12 mul sub M
  hpt neg vpt 1.62 mul V
  hpt 2 mul 0 V
  hpt neg vpt -1.62 mul V closepath stroke} def
/PentE {stroke [] 0 setdash gsave
  translate 0 hpt M 4 {72 rotate 0 hpt L} repeat
  closepath stroke grestore} def
/CircE {stroke [] 0 setdash 
  hpt 0 360 arc stroke} def
/Opaque {gsave closepath 1 setgray fill grestore 0 setgray closepath} def
/DiaW {stroke [] 0 setdash vpt add M
  hpt neg vpt neg V hpt vpt neg V
  hpt vpt V hpt neg vpt V Opaque stroke} def
/BoxW {stroke [] 0 setdash exch hpt sub exch vpt add M
  0 vpt2 neg V hpt2 0 V 0 vpt2 V
  hpt2 neg 0 V Opaque stroke} def
/TriUW {stroke [] 0 setdash vpt 1.12 mul add M
  hpt neg vpt -1.62 mul V
  hpt 2 mul 0 V
  hpt neg vpt 1.62 mul V Opaque stroke} def
/TriDW {stroke [] 0 setdash vpt 1.12 mul sub M
  hpt neg vpt 1.62 mul V
  hpt 2 mul 0 V
  hpt neg vpt -1.62 mul V Opaque stroke} def
/PentW {stroke [] 0 setdash gsave
  translate 0 hpt M 4 {72 rotate 0 hpt L} repeat
  Opaque stroke grestore} def
/CircW {stroke [] 0 setdash 
  hpt 0 360 arc Opaque stroke} def
/BoxFill {gsave Rec 1 setgray fill grestore} def
/Density {
  /Fillden exch def
  currentrgbcolor
  /ColB exch def /ColG exch def /ColR exch def
  /ColR ColR Fillden mul Fillden sub 1 add def
  /ColG ColG Fillden mul Fillden sub 1 add def
  /ColB ColB Fillden mul Fillden sub 1 add def
  ColR ColG ColB setrgbcolor} def
/BoxColFill {gsave Rec PolyFill} def
/PolyFill {gsave Density fill grestore grestore} def
/h {rlineto rlineto rlineto gsave closepath fill grestore} bind def
%
% PostScript Level 1 Pattern Fill routine for rectangles
% Usage: x y w h s a XX PatternFill
%	x,y = lower left corner of box to be filled
%	w,h = width and height of box
%	  a = angle in degrees between lines and x-axis
%	 XX = 0/1 for no/yes cross-hatch
%
/PatternFill {gsave /PFa [ 9 2 roll ] def
  PFa 0 get PFa 2 get 2 div add PFa 1 get PFa 3 get 2 div add translate
  PFa 2 get -2 div PFa 3 get -2 div PFa 2 get PFa 3 get Rec
  TransparentPatterns {} {gsave 1 setgray fill grestore} ifelse
  clip
  currentlinewidth 0.5 mul setlinewidth
  /PFs PFa 2 get dup mul PFa 3 get dup mul add sqrt def
  0 0 M PFa 5 get rotate PFs -2 div dup translate
  0 1 PFs PFa 4 get div 1 add floor cvi
	{PFa 4 get mul 0 M 0 PFs V} for
  0 PFa 6 get ne {
	0 1 PFs PFa 4 get div 1 add floor cvi
	{PFa 4 get mul 0 2 1 roll M PFs 0 V} for
 } if
  stroke grestore} def
%
/languagelevel where
 {pop languagelevel} {1} ifelse
 2 lt
	{/InterpretLevel1 true def}
	{/InterpretLevel1 Level1 def}
 ifelse
%
% PostScript level 2 pattern fill definitions
%
/Level2PatternFill {
/Tile8x8 {/PaintType 2 /PatternType 1 /TilingType 1 /BBox [0 0 8 8] /XStep 8 /YStep 8}
	bind def
/KeepColor {currentrgbcolor [/Pattern /DeviceRGB] setcolorspace} bind def
<< Tile8x8
 /PaintProc {0.5 setlinewidth pop 0 0 M 8 8 L 0 8 M 8 0 L stroke} 
>> matrix makepattern
/Pat1 exch def
<< Tile8x8
 /PaintProc {0.5 setlinewidth pop 0 0 M 8 8 L 0 8 M 8 0 L stroke
	0 4 M 4 8 L 8 4 L 4 0 L 0 4 L stroke}
>> matrix makepattern
/Pat2 exch def
<< Tile8x8
 /PaintProc {0.5 setlinewidth pop 0 0 M 0 8 L
	8 8 L 8 0 L 0 0 L fill}
>> matrix makepattern
/Pat3 exch def
<< Tile8x8
 /PaintProc {0.5 setlinewidth pop -4 8 M 8 -4 L
	0 12 M 12 0 L stroke}
>> matrix makepattern
/Pat4 exch def
<< Tile8x8
 /PaintProc {0.5 setlinewidth pop -4 0 M 8 12 L
	0 -4 M 12 8 L stroke}
>> matrix makepattern
/Pat5 exch def
<< Tile8x8
 /PaintProc {0.5 setlinewidth pop -2 8 M 4 -4 L
	0 12 M 8 -4 L 4 12 M 10 0 L stroke}
>> matrix makepattern
/Pat6 exch def
<< Tile8x8
 /PaintProc {0.5 setlinewidth pop -2 0 M 4 12 L
	0 -4 M 8 12 L 4 -4 M 10 8 L stroke}
>> matrix makepattern
/Pat7 exch def
<< Tile8x8
 /PaintProc {0.5 setlinewidth pop 8 -2 M -4 4 L
	12 0 M -4 8 L 12 4 M 0 10 L stroke}
>> matrix makepattern
/Pat8 exch def
<< Tile8x8
 /PaintProc {0.5 setlinewidth pop 0 -2 M 12 4 L
	-4 0 M 12 8 L -4 4 M 8 10 L stroke}
>> matrix makepattern
/Pat9 exch def
/Pattern1 {PatternBgnd KeepColor Pat1 setpattern} bind def
/Pattern2 {PatternBgnd KeepColor Pat2 setpattern} bind def
/Pattern3 {PatternBgnd KeepColor Pat3 setpattern} bind def
/Pattern4 {PatternBgnd KeepColor Landscape {Pat5} {Pat4} ifelse setpattern} bind def
/Pattern5 {PatternBgnd KeepColor Landscape {Pat4} {Pat5} ifelse setpattern} bind def
/Pattern6 {PatternBgnd KeepColor Landscape {Pat9} {Pat6} ifelse setpattern} bind def
/Pattern7 {PatternBgnd KeepColor Landscape {Pat8} {Pat7} ifelse setpattern} bind def
} def
%
%
%End of PostScript Level 2 code
%
/PatternBgnd {
  TransparentPatterns {} {gsave 1 setgray fill grestore} ifelse
} def
%
% Substitute for Level 2 pattern fill codes with
% grayscale if Level 2 support is not selected.
%
/Level1PatternFill {
/Pattern1 {0.250 Density} bind def
/Pattern2 {0.500 Density} bind def
/Pattern3 {0.750 Density} bind def
/Pattern4 {0.125 Density} bind def
/Pattern5 {0.375 Density} bind def
/Pattern6 {0.625 Density} bind def
/Pattern7 {0.875 Density} bind def
} def
%
% Now test for support of Level 2 code
%
Level1 {Level1PatternFill} {Level2PatternFill} ifelse
%
/Symbol-Oblique /Symbol findfont [1 0 .167 1 0 0] makefont
dup length dict begin {1 index /FID eq {pop pop} {def} ifelse} forall
currentdict end definefont pop
Level1 SuppressPDFMark or 
{} {
/SDict 10 dict def
systemdict /pdfmark known not {
  userdict /pdfmark systemdict /cleartomark get put
} if
SDict begin [
  /Title (/home/yurchor/test.eps)
  /Subject (gnuplot plot)
  /Creator (gnuplot 4.6 patchlevel 5)
  /Author (yurchor)
%  /Producer (gnuplot)
%  /Keywords ()
  /CreationDate (Sun Aug 16 16:00:00 2015)
  /DOCINFO pdfmark
end
} ifelse
end
%%EndProlog
%%Page: 1 1
gnudict begin
gsave
doclip
50 50 translate
0.050 0.050 scale
0 setgray
newpath
(Helvetica) findfont 240 scalefont setfont
BackgroundColor 0 lt 3 1 roll 0 lt exch 0 lt or or not {BackgroundColor C 1.000 0 0 9296.00 6972.00 BoxColFill} if
1.000 UL
LTa
LCa setrgbcolor
1032 2991 M
7831 0 V
stroke
LTa
LCa setrgbcolor
4948 789 M
0 5873 V
stroke
LTb
LCb setrgbcolor
1032 6662 N
0 -5873 V
7831 0 V
0 5873 V
-7831 0 V
Z stroke
LCb setrgbcolor
192 3725 M
currentpoint gsave translate -270 rotate 0 0 M
(y) Cshow
grestore
LTb
LCb setrgbcolor
4947 189 M
(x) Cshow
LTb
1.000 UP
1.000 UL
LTb
LCb setrgbcolor
% Begin plot #1
1.000 UP
3.000 UL
LT0
0.00 0.00 1.00 C LCb setrgbcolor
7792 6479 M
(x^3+2) Rshow
LT0
0.00 0.00 1.00 C 7936 6479 M
639 0 V
1032 789 M
34 75 V
34 74 V
33 73 V
34 71 V
34 71 V
34 69 V
33 67 V
34 67 V
34 65 V
34 64 V
33 63 V
34 61 V
34 61 V
34 59 V
33 58 V
34 57 V
34 56 V
34 55 V
33 53 V
34 53 V
34 52 V
34 50 V
33 49 V
34 49 V
34 47 V
34 46 V
33 45 V
34 44 V
34 44 V
34 42 V
33 41 V
34 40 V
34 40 V
34 38 V
33 38 V
34 36 V
34 36 V
34 35 V
33 34 V
34 33 V
34 32 V
34 31 V
33 31 V
34 29 V
34 29 V
34 28 V
33 27 V
34 27 V
34 26 V
34 25 V
33 24 V
34 23 V
34 23 V
34 22 V
33 21 V
34 21 V
34 20 V
34 19 V
34 19 V
33 18 V
34 18 V
34 16 V
34 16 V
33 16 V
34 15 V
34 14 V
34 14 V
33 13 V
34 13 V
34 12 V
34 12 V
33 11 V
34 11 V
34 10 V
34 10 V
33 9 V
17 5 V
17 4 V
17 4 V
17 4 V
17 4 V
17 4 V
16 4 V
17 4 V
17 3 V
17 4 V
17 3 V
17 4 V
17 3 V
17 3 V
16 3 V
17 3 V
17 3 V
17 2 V
17 3 V
17 3 V
17 2 V
17 3 V
17 2 V
16 2 V
17 2 V
17 2 V
stroke 4036 3688 M
17 2 V
17 2 V
17 2 V
17 2 V
17 2 V
16 1 V
17 2 V
17 2 V
17 1 V
17 1 V
17 2 V
17 1 V
17 1 V
16 1 V
17 2 V
17 1 V
17 1 V
17 1 V
17 0 V
17 1 V
17 1 V
16 1 V
17 0 V
17 1 V
17 1 V
17 0 V
8 1 V
9 0 V
8 0 V
9 0 V
8 1 V
9 0 V
8 0 V
8 0 V
9 0 V
8 1 V
9 0 V
8 0 V
9 0 V
8 0 V
9 0 V
8 1 V
8 0 V
9 0 V
8 0 V
9 0 V
8 0 V
9 0 V
8 0 V
8 1 V
9 0 V
8 0 V
9 0 V
8 0 V
9 0 V
8 0 V
9 0 V
8 0 V
8 0 V
9 0 V
8 0 V
9 0 V
4 0 V
4 0 V
4 0 V
5 0 V
4 0 V
4 0 V
4 0 V
4 0 V
5 0 V
4 0 V
4 0 V
4 0 V
5 0 V
4 0 V
4 0 V
4 0 V
4 0 V
5 0 V
4 0 V
4 0 V
4 0 V
5 0 V
4 0 V
4 0 V
4 0 V
4 0 V
5 0 V
4 0 V
2 0 V
2 0 V
2 0 V
2 0 V
2 0 V
3 0 V
2 0 V
2 0 V
2 0 V
2 0 V
2 0 V
2 0 V
2 0 V
2 0 V
stroke 4926 3725 M
3 0 V
2 0 V
2 0 V
2 0 V
2 0 V
2 0 V
2 0 V
2 0 V
2 0 V
3 1 V
2 0 V
2 0 V
2 0 V
2 0 V
2 0 V
2 0 V
2 0 V
2 0 V
2 0 V
3 0 V
2 0 V
2 0 V
2 0 V
2 0 V
2 0 V
2 0 V
2 0 V
2 0 V
3 0 V
2 0 V
2 0 V
2 0 V
2 0 V
2 0 V
2 0 V
2 0 V
2 0 V
3 0 V
2 0 V
2 0 V
2 0 V
2 0 V
4 0 V
4 0 V
5 0 V
4 0 V
4 0 V
4 0 V
5 0 V
4 0 V
4 0 V
4 0 V
4 0 V
5 0 V
4 0 V
4 0 V
4 0 V
5 0 V
4 0 V
4 0 V
4 0 V
4 0 V
5 0 V
4 0 V
4 0 V
4 0 V
9 0 V
8 0 V
9 0 V
8 0 V
8 0 V
9 0 V
8 0 V
9 0 V
8 0 V
9 0 V
8 0 V
9 0 V
8 1 V
8 0 V
9 0 V
8 0 V
9 0 V
8 0 V
9 0 V
8 0 V
8 1 V
9 0 V
8 0 V
9 0 V
8 0 V
9 0 V
8 1 V
9 0 V
8 0 V
8 0 V
9 0 V
8 1 V
9 0 V
8 0 V
9 0 V
8 1 V
17 0 V
17 1 V
stroke 5454 3732 M
17 1 V
17 0 V
16 1 V
17 1 V
17 1 V
17 0 V
17 1 V
17 1 V
17 1 V
17 2 V
16 1 V
17 1 V
17 1 V
17 2 V
17 1 V
17 1 V
17 2 V
17 2 V
16 1 V
17 2 V
17 2 V
17 2 V
17 2 V
17 2 V
17 2 V
17 2 V
16 2 V
17 2 V
17 3 V
17 2 V
17 3 V
17 3 V
17 2 V
17 3 V
17 3 V
16 3 V
17 3 V
17 3 V
17 4 V
17 3 V
17 4 V
17 3 V
17 4 V
16 4 V
17 4 V
17 4 V
17 4 V
17 4 V
17 4 V
17 5 V
33 9 V
34 10 V
34 10 V
34 11 V
33 11 V
34 12 V
34 12 V
34 13 V
33 13 V
34 14 V
34 14 V
34 15 V
33 16 V
34 16 V
34 16 V
34 18 V
33 18 V
34 19 V
34 19 V
34 20 V
34 21 V
33 21 V
34 22 V
34 23 V
34 23 V
33 24 V
34 25 V
34 26 V
34 27 V
33 27 V
34 28 V
34 29 V
34 29 V
33 31 V
34 31 V
34 32 V
34 33 V
33 34 V
34 35 V
34 36 V
34 36 V
33 38 V
34 38 V
34 40 V
34 40 V
33 41 V
34 42 V
34 44 V
34 44 V
33 45 V
34 46 V
34 47 V
34 49 V
33 49 V
stroke 8120 5288 M
34 50 V
34 52 V
34 53 V
33 53 V
34 55 V
34 56 V
34 57 V
33 58 V
34 59 V
34 61 V
34 61 V
33 63 V
34 64 V
34 65 V
34 67 V
33 67 V
34 69 V
34 71 V
34 71 V
33 73 V
34 74 V
34 75 V
1032 789 CircleF
1066 864 CircleF
1100 938 CircleF
1133 1011 CircleF
1167 1082 CircleF
1201 1153 CircleF
1235 1222 CircleF
1268 1289 CircleF
1302 1356 CircleF
1336 1421 CircleF
1370 1485 CircleF
1403 1548 CircleF
1437 1609 CircleF
1471 1670 CircleF
1505 1729 CircleF
1538 1787 CircleF
1572 1844 CircleF
1606 1900 CircleF
1640 1955 CircleF
1673 2008 CircleF
1707 2061 CircleF
1741 2113 CircleF
1775 2163 CircleF
1808 2212 CircleF
1842 2261 CircleF
1876 2308 CircleF
1910 2354 CircleF
1943 2399 CircleF
1977 2443 CircleF
2011 2487 CircleF
2045 2529 CircleF
2078 2570 CircleF
2112 2610 CircleF
2146 2650 CircleF
2180 2688 CircleF
2213 2726 CircleF
2247 2762 CircleF
2281 2798 CircleF
2315 2833 CircleF
2348 2867 CircleF
2382 2900 CircleF
2416 2932 CircleF
2450 2963 CircleF
2483 2994 CircleF
2517 3023 CircleF
2551 3052 CircleF
2585 3080 CircleF
2618 3107 CircleF
2652 3134 CircleF
2686 3160 CircleF
2720 3185 CircleF
2753 3209 CircleF
2787 3232 CircleF
2821 3255 CircleF
2855 3277 CircleF
2888 3298 CircleF
2922 3319 CircleF
2956 3339 CircleF
2990 3358 CircleF
3024 3377 CircleF
3057 3395 CircleF
3091 3413 CircleF
3125 3429 CircleF
3159 3445 CircleF
3192 3461 CircleF
3226 3476 CircleF
3260 3490 CircleF
3294 3504 CircleF
3327 3517 CircleF
3361 3530 CircleF
3395 3542 CircleF
3429 3554 CircleF
3462 3565 CircleF
3496 3576 CircleF
3530 3586 CircleF
3564 3596 CircleF
3597 3605 CircleF
3614 3610 CircleF
3631 3614 CircleF
3648 3618 CircleF
3665 3622 CircleF
3682 3626 CircleF
3699 3630 CircleF
3715 3634 CircleF
3732 3638 CircleF
3749 3641 CircleF
3766 3645 CircleF
3783 3648 CircleF
3800 3652 CircleF
3817 3655 CircleF
3834 3658 CircleF
3850 3661 CircleF
3867 3664 CircleF
3884 3667 CircleF
3901 3669 CircleF
3918 3672 CircleF
3935 3675 CircleF
3952 3677 CircleF
3969 3680 CircleF
3986 3682 CircleF
4002 3684 CircleF
4019 3686 CircleF
4036 3688 CircleF
4053 3690 CircleF
4070 3692 CircleF
4087 3694 CircleF
4104 3696 CircleF
4121 3698 CircleF
4137 3699 CircleF
4154 3701 CircleF
4171 3703 CircleF
4188 3704 CircleF
4205 3705 CircleF
4222 3707 CircleF
4239 3708 CircleF
4256 3709 CircleF
4272 3710 CircleF
4289 3712 CircleF
4306 3713 CircleF
4323 3714 CircleF
4340 3715 CircleF
4357 3715 CircleF
4374 3716 CircleF
4391 3717 CircleF
4407 3718 CircleF
4424 3718 CircleF
4441 3719 CircleF
4458 3720 CircleF
4475 3720 CircleF
4483 3721 CircleF
4492 3721 CircleF
4500 3721 CircleF
4509 3721 CircleF
4517 3722 CircleF
4526 3722 CircleF
4534 3722 CircleF
4542 3722 CircleF
4551 3722 CircleF
4559 3723 CircleF
4568 3723 CircleF
4576 3723 CircleF
4585 3723 CircleF
4593 3723 CircleF
4602 3723 CircleF
4610 3724 CircleF
4618 3724 CircleF
4627 3724 CircleF
4635 3724 CircleF
4644 3724 CircleF
4652 3724 CircleF
4661 3724 CircleF
4669 3724 CircleF
4677 3725 CircleF
4686 3725 CircleF
4694 3725 CircleF
4703 3725 CircleF
4711 3725 CircleF
4720 3725 CircleF
4728 3725 CircleF
4737 3725 CircleF
4745 3725 CircleF
4753 3725 CircleF
4762 3725 CircleF
4770 3725 CircleF
4779 3725 CircleF
4783 3725 CircleF
4787 3725 CircleF
4791 3725 CircleF
4796 3725 CircleF
4800 3725 CircleF
4804 3725 CircleF
4808 3725 CircleF
4812 3725 CircleF
4817 3725 CircleF
4821 3725 CircleF
4825 3725 CircleF
4829 3725 CircleF
4834 3725 CircleF
4838 3725 CircleF
4842 3725 CircleF
4846 3725 CircleF
4850 3725 CircleF
4855 3725 CircleF
4859 3725 CircleF
4863 3725 CircleF
4867 3725 CircleF
4872 3725 CircleF
4876 3725 CircleF
4880 3725 CircleF
4884 3725 CircleF
4888 3725 CircleF
4893 3725 CircleF
4897 3725 CircleF
4899 3725 CircleF
4901 3725 CircleF
4903 3725 CircleF
4905 3725 CircleF
4907 3725 CircleF
4910 3725 CircleF
4912 3725 CircleF
4914 3725 CircleF
4916 3725 CircleF
4918 3725 CircleF
4920 3725 CircleF
4922 3725 CircleF
4924 3725 CircleF
4926 3725 CircleF
4929 3725 CircleF
4931 3725 CircleF
4933 3725 CircleF
4935 3725 CircleF
4937 3725 CircleF
4939 3725 CircleF
4941 3725 CircleF
4943 3725 CircleF
4945 3725 CircleF
4948 3726 CircleF
4950 3726 CircleF
4952 3726 CircleF
4954 3726 CircleF
4956 3726 CircleF
4958 3726 CircleF
4960 3726 CircleF
4962 3726 CircleF
4964 3726 CircleF
4966 3726 CircleF
4969 3726 CircleF
4971 3726 CircleF
4973 3726 CircleF
4975 3726 CircleF
4977 3726 CircleF
4979 3726 CircleF
4981 3726 CircleF
4983 3726 CircleF
4985 3726 CircleF
4988 3726 CircleF
4990 3726 CircleF
4992 3726 CircleF
4994 3726 CircleF
4996 3726 CircleF
4998 3726 CircleF
5000 3726 CircleF
5002 3726 CircleF
5004 3726 CircleF
5007 3726 CircleF
5009 3726 CircleF
5011 3726 CircleF
5013 3726 CircleF
5015 3726 CircleF
5019 3726 CircleF
5023 3726 CircleF
5028 3726 CircleF
5032 3726 CircleF
5036 3726 CircleF
5040 3726 CircleF
5045 3726 CircleF
5049 3726 CircleF
5053 3726 CircleF
5057 3726 CircleF
5061 3726 CircleF
5066 3726 CircleF
5070 3726 CircleF
5074 3726 CircleF
5078 3726 CircleF
5083 3726 CircleF
5087 3726 CircleF
5091 3726 CircleF
5095 3726 CircleF
5099 3726 CircleF
5104 3726 CircleF
5108 3726 CircleF
5112 3726 CircleF
5116 3726 CircleF
5125 3726 CircleF
5133 3726 CircleF
5142 3726 CircleF
5150 3726 CircleF
5158 3726 CircleF
5167 3726 CircleF
5175 3726 CircleF
5184 3726 CircleF
5192 3726 CircleF
5201 3726 CircleF
5209 3726 CircleF
5218 3726 CircleF
5226 3727 CircleF
5234 3727 CircleF
5243 3727 CircleF
5251 3727 CircleF
5260 3727 CircleF
5268 3727 CircleF
5277 3727 CircleF
5285 3727 CircleF
5293 3728 CircleF
5302 3728 CircleF
5310 3728 CircleF
5319 3728 CircleF
5327 3728 CircleF
5336 3728 CircleF
5344 3729 CircleF
5353 3729 CircleF
5361 3729 CircleF
5369 3729 CircleF
5378 3729 CircleF
5386 3730 CircleF
5395 3730 CircleF
5403 3730 CircleF
5412 3730 CircleF
5420 3731 CircleF
5437 3731 CircleF
5454 3732 CircleF
5471 3733 CircleF
5488 3733 CircleF
5504 3734 CircleF
5521 3735 CircleF
5538 3736 CircleF
5555 3736 CircleF
5572 3737 CircleF
5589 3738 CircleF
5606 3739 CircleF
5623 3741 CircleF
5639 3742 CircleF
5656 3743 CircleF
5673 3744 CircleF
5690 3746 CircleF
5707 3747 CircleF
5724 3748 CircleF
5741 3750 CircleF
5758 3752 CircleF
5774 3753 CircleF
5791 3755 CircleF
5808 3757 CircleF
5825 3759 CircleF
5842 3761 CircleF
5859 3763 CircleF
5876 3765 CircleF
5893 3767 CircleF
5909 3769 CircleF
5926 3771 CircleF
5943 3774 CircleF
5960 3776 CircleF
5977 3779 CircleF
5994 3782 CircleF
6011 3784 CircleF
6028 3787 CircleF
6045 3790 CircleF
6061 3793 CircleF
6078 3796 CircleF
6095 3799 CircleF
6112 3803 CircleF
6129 3806 CircleF
6146 3810 CircleF
6163 3813 CircleF
6180 3817 CircleF
6196 3821 CircleF
6213 3825 CircleF
6230 3829 CircleF
6247 3833 CircleF
6264 3837 CircleF
6281 3841 CircleF
6298 3846 CircleF
6331 3855 CircleF
6365 3865 CircleF
6399 3875 CircleF
6433 3886 CircleF
6466 3897 CircleF
6500 3909 CircleF
6534 3921 CircleF
6568 3934 CircleF
6601 3947 CircleF
6635 3961 CircleF
6669 3975 CircleF
6703 3990 CircleF
6736 4006 CircleF
6770 4022 CircleF
6804 4038 CircleF
6838 4056 CircleF
6871 4074 CircleF
6905 4093 CircleF
6939 4112 CircleF
6973 4132 CircleF
7007 4153 CircleF
7040 4174 CircleF
7074 4196 CircleF
7108 4219 CircleF
7142 4242 CircleF
7175 4266 CircleF
7209 4291 CircleF
7243 4317 CircleF
7277 4344 CircleF
7310 4371 CircleF
7344 4399 CircleF
7378 4428 CircleF
7412 4457 CircleF
7445 4488 CircleF
7479 4519 CircleF
7513 4551 CircleF
7547 4584 CircleF
7580 4618 CircleF
7614 4653 CircleF
7648 4689 CircleF
7682 4725 CircleF
7715 4763 CircleF
7749 4801 CircleF
7783 4841 CircleF
7817 4881 CircleF
7850 4922 CircleF
7884 4964 CircleF
7918 5008 CircleF
7952 5052 CircleF
7985 5097 CircleF
8019 5143 CircleF
8053 5190 CircleF
8087 5239 CircleF
8120 5288 CircleF
8154 5338 CircleF
8188 5390 CircleF
8222 5443 CircleF
8255 5496 CircleF
8289 5551 CircleF
8323 5607 CircleF
8357 5664 CircleF
8390 5722 CircleF
8424 5781 CircleF
8458 5842 CircleF
8492 5903 CircleF
8525 5966 CircleF
8559 6030 CircleF
8593 6095 CircleF
8627 6162 CircleF
8660 6229 CircleF
8694 6298 CircleF
8728 6369 CircleF
8762 6440 CircleF
8795 6513 CircleF
8829 6587 CircleF
8863 6662 CircleF
8255 6479 CircleF
% End plot #1
% Begin plot #2
3.000 UL
LT1
0.00 0.00 1.00 C LCb setrgbcolor
7792 6239 M
(cos\(t\), sin\(t\)) Rshow
LT1
0.00 0.00 1.00 C 7936 6239 M
639 0 V
5503 3343 M
-30 2 V
-29 1 V
-30 2 V
-30 1 V
-29 1 V
-30 2 V
-30 1 V
-31 1 V
-30 0 V
-30 1 V
-30 1 V
-31 1 V
-30 0 V
-31 1 V
-30 0 V
-31 0 V
-30 0 V
-31 0 V
-31 0 V
-30 0 V
-31 0 V
-30 0 V
-31 -1 V
-30 0 V
-31 -1 V
-30 0 V
-31 -1 V
-30 -1 V
-30 -1 V
-30 -1 V
-30 -1 V
-30 -1 V
-30 -1 V
-30 -1 V
-29 -2 V
-30 -1 V
-29 -2 V
-30 -2 V
-29 -1 V
-29 -2 V
-28 -2 V
-29 -2 V
-28 -2 V
-29 -3 V
-28 -2 V
-28 -2 V
-27 -3 V
-28 -2 V
-27 -3 V
-27 -2 V
-27 -3 V
-27 -3 V
-26 -3 V
-26 -3 V
-26 -3 V
-25 -3 V
-26 -3 V
-25 -4 V
-25 -3 V
-24 -3 V
-24 -4 V
-24 -3 V
-24 -4 V
-23 -4 V
-23 -4 V
-23 -3 V
-22 -4 V
-22 -4 V
-22 -4 V
-21 -5 V
-21 -4 V
-21 -4 V
-20 -4 V
-20 -5 V
-20 -4 V
-19 -4 V
-19 -5 V
-18 -5 V
-18 -4 V
-18 -5 V
-17 -5 V
-17 -4 V
-17 -5 V
-16 -5 V
-15 -5 V
-16 -5 V
-14 -5 V
-15 -5 V
-14 -5 V
-14 -5 V
-13 -5 V
-12 -6 V
-13 -5 V
-11 -5 V
-12 -6 V
-11 -5 V
-10 -5 V
-10 -6 V
-10 -5 V
-9 -6 V
-9 -5 V
-8 -6 V
stroke 3058 3087 M
-8 -5 V
-7 -6 V
-7 -5 V
-6 -6 V
-6 -6 V
-6 -5 V
-5 -6 V
-4 -6 V
-4 -5 V
-4 -6 V
-3 -6 V
-2 -5 V
-3 -6 V
-1 -6 V
-1 -3 V
0 -3 V
-1 -2 V
0 -3 V
0 -3 V
0 -3 V
0 -3 V
0 -3 V
1 -5 V
1 -6 V
2 -6 V
2 -6 V
3 -5 V
3 -6 V
3 -6 V
4 -5 V
5 -6 V
5 -6 V
5 -5 V
6 -6 V
7 -6 V
7 -5 V
7 -6 V
8 -5 V
8 -6 V
9 -5 V
9 -6 V
10 -5 V
10 -6 V
10 -5 V
11 -5 V
12 -6 V
12 -5 V
12 -5 V
13 -5 V
13 -6 V
14 -5 V
14 -5 V
14 -5 V
15 -5 V
16 -5 V
15 -5 V
16 -5 V
17 -5 V
17 -4 V
17 -5 V
18 -5 V
18 -4 V
19 -5 V
18 -4 V
20 -5 V
19 -4 V
20 -5 V
21 -4 V
20 -4 V
21 -4 V
22 -4 V
21 -4 V
23 -4 V
22 -4 V
23 -4 V
23 -4 V
23 -4 V
24 -3 V
24 -4 V
24 -3 V
24 -4 V
25 -3 V
25 -3 V
26 -4 V
25 -3 V
26 -3 V
26 -3 V
27 -3 V
26 -2 V
27 -3 V
27 -3 V
28 -2 V
27 -3 V
28 -2 V
28 -3 V
28 -2 V
28 -2 V
29 -2 V
28 -2 V
29 -2 V
29 -2 V
29 -2 V
29 -2 V
30 -1 V
stroke 4420 2638 M
29 -2 V
30 -1 V
30 -1 V
30 -2 V
29 -1 V
31 -1 V
30 -1 V
30 -1 V
30 0 V
31 -1 V
30 -1 V
30 0 V
31 -1 V
30 0 V
31 0 V
31 -1 V
30 0 V
31 0 V
30 0 V
31 1 V
30 0 V
31 0 V
30 1 V
31 0 V
30 1 V
31 1 V
30 0 V
30 1 V
30 1 V
30 1 V
30 1 V
30 2 V
30 1 V
30 1 V
29 2 V
29 2 V
30 1 V
29 2 V
29 2 V
29 2 V
28 2 V
29 2 V
28 2 V
28 2 V
28 3 V
28 2 V
27 3 V
27 2 V
27 3 V
27 3 V
27 3 V
26 2 V
26 3 V
26 4 V
26 3 V
25 3 V
25 3 V
25 3 V
25 4 V
24 3 V
24 4 V
23 4 V
24 3 V
23 4 V
22 4 V
23 4 V
22 4 V
22 4 V
21 4 V
21 4 V
21 4 V
20 5 V
20 4 V
20 4 V
19 5 V
19 4 V
18 5 V
18 5 V
18 4 V
17 5 V
17 5 V
17 5 V
16 4 V
15 5 V
16 5 V
15 5 V
14 5 V
14 6 V
14 5 V
13 5 V
13 5 V
12 5 V
12 6 V
11 5 V
11 5 V
11 6 V
10 5 V
9 6 V
10 5 V
8 5 V
9 6 V
7 6 V
8 5 V
7 6 V
stroke 6859 2912 M
6 5 V
6 6 V
5 6 V
5 5 V
5 6 V
4 6 V
4 5 V
3 6 V
2 6 V
2 5 V
2 6 V
1 6 V
1 6 V
0 5 V
0 6 V
-1 6 V
-1 6 V
-2 5 V
-2 6 V
-2 6 V
-3 5 V
-4 6 V
-4 6 V
-5 5 V
-5 6 V
-5 6 V
-6 5 V
-6 6 V
-7 6 V
-8 5 V
-7 6 V
-9 5 V
-8 6 V
-10 5 V
-9 6 V
-10 5 V
-11 5 V
-11 6 V
-11 5 V
-12 5 V
-12 6 V
-13 5 V
-13 5 V
-14 5 V
-14 5 V
-14 5 V
-15 5 V
-16 5 V
-15 5 V
-16 5 V
-17 5 V
-17 5 V
-17 4 V
-18 5 V
-18 5 V
-18 4 V
-19 5 V
-19 4 V
-20 5 V
-20 4 V
-20 4 V
-21 5 V
-21 4 V
-21 4 V
-22 4 V
-22 4 V
-23 4 V
-22 4 V
-23 3 V
-24 4 V
-23 4 V
-24 3 V
-24 4 V
-25 3 V
-25 4 V
-25 3 V
-25 3 V
-26 3 V
-26 3 V
-26 3 V
-26 3 V
-27 3 V
-27 3 V
-27 2 V
-27 3 V
-27 3 V
-28 2 V
-28 2 V
-28 3 V
-28 2 V
-29 2 V
-28 2 V
-29 2 V
-29 2 V
-29 1 V
-30 2 V
-29 2 V
-29 1 V
-30 2 V
-30 1 V
-30 1 V
-30 1 V
-30 1 V
-30 1 V
stroke 5268 3353 M
-30 1 V
-30 1 V
-31 1 V
-30 1 V
-31 0 V
-30 1 V
-31 0 V
-30 0 V
-31 0 V
-30 0 V
-31 0 V
-30 0 V
-31 0 V
-31 0 V
-30 0 V
-31 -1 V
-30 0 V
-30 -1 V
-31 -1 V
-30 -1 V
-30 0 V
-30 -1 V
-31 -2 V
-29 -1 V
-30 -1 V
-30 -1 V
-30 -2 V
-29 -1 V
-30 -2 V
-29 -1 V
-29 -2 V
-29 -2 V
-29 -2 V
-28 -2 V
-29 -2 V
-28 -2 V
-28 -3 V
-28 -2 V
-28 -2 V
-27 -3 V
-28 -2 V
-27 -3 V
-27 -3 V
-26 -3 V
-27 -3 V
-26 -3 V
-26 -3 V
-25 -3 V
-26 -3 V
-25 -3 V
-25 -4 V
-24 -3 V
-24 -3 V
-24 -4 V
-24 -4 V
-23 -3 V
-23 -4 V
-23 -4 V
-22 -4 V
-23 -4 V
-21 -4 V
-22 -4 V
-21 -4 V
-20 -4 V
-21 -5 V
-20 -4 V
-19 -4 V
-20 -5 V
-18 -4 V
-19 -5 V
-18 -5 V
-18 -4 V
-17 -5 V
-17 -5 V
-17 -5 V
-16 -4 V
-15 -5 V
-16 -5 V
-15 -5 V
-14 -5 V
-14 -5 V
-14 -6 V
-13 -5 V
-13 -5 V
-12 -5 V
-12 -6 V
-12 -5 V
-11 -5 V
-10 -6 V
-10 -5 V
-10 -5 V
-9 -6 V
-9 -5 V
-8 -6 V
-8 -5 V
-7 -6 V
-7 -6 V
-7 -5 V
-6 -6 V
-5 -5 V
-5 -6 V
-5 -6 V
-4 -6 V
-3 -5 V
stroke 3002 3032 M
-3 -6 V
-3 -6 V
-2 -5 V
-2 -6 V
-1 -6 V
-1 -6 V
0 -2 V
0 -3 V
0 -3 V
0 -3 V
0 -3 V
1 -3 V
0 -3 V
1 -2 V
1 -6 V
3 -6 V
2 -6 V
3 -5 V
4 -6 V
4 -6 V
4 -5 V
5 -6 V
6 -6 V
6 -5 V
6 -6 V
7 -6 V
7 -5 V
8 -6 V
8 -5 V
9 -6 V
9 -5 V
10 -6 V
10 -5 V
10 -5 V
11 -6 V
12 -5 V
11 -5 V
13 -6 V
12 -5 V
13 -5 V
14 -5 V
14 -5 V
15 -5 V
14 -5 V
16 -5 V
15 -5 V
16 -5 V
17 -5 V
17 -5 V
17 -4 V
18 -5 V
18 -5 V
18 -4 V
19 -5 V
19 -4 V
20 -5 V
20 -4 V
20 -4 V
21 -5 V
21 -4 V
21 -4 V
22 -4 V
22 -4 V
22 -4 V
23 -4 V
23 -3 V
23 -4 V
24 -4 V
24 -3 V
24 -4 V
24 -3 V
25 -4 V
25 -3 V
26 -3 V
25 -3 V
26 -3 V
26 -3 V
26 -3 V
27 -3 V
27 -3 V
27 -3 V
27 -2 V
28 -3 V
27 -2 V
28 -2 V
28 -3 V
29 -2 V
28 -2 V
29 -2 V
28 -2 V
29 -2 V
29 -2 V
30 -1 V
29 -2 V
30 -1 V
29 -2 V
30 -1 V
30 -1 V
30 -2 V
30 -1 V
30 -1 V
30 -1 V
30 0 V
31 -1 V
stroke 4716 2627 M
30 -1 V
31 0 V
30 -1 V
31 0 V
30 0 V
31 -1 V
15 0 V
15 0 V
16 0 V
15 0 V
15 0 V
16 0 V
15 0 V
15 1 V
31 0 V
30 0 V
31 1 V
30 0 V
31 1 V
30 0 V
30 1 V
30 1 V
31 1 V
30 1 V
30 1 V
29 2 V
30 1 V
30 1 V
29 2 V
30 1 V
% End plot #2
stroke
1.000 UL
LTb
LCb setrgbcolor
1032 789 M
63 0 V
7768 0 R
-63 0 V
888 789 M
(-6) Rshow
1.000 UL
LTb
LCb setrgbcolor
1032 1523 M
63 0 V
7768 0 R
-63 0 V
-7912 0 R
(-4) Rshow
1.000 UL
LTb
LCb setrgbcolor
1032 2257 M
63 0 V
7768 0 R
-63 0 V
-7912 0 R
(-2) Rshow
1.000 UL
LTb
LCb setrgbcolor
1032 2991 M
63 0 V
7768 0 R
-63 0 V
-7912 0 R
( 0) Rshow
1.000 UL
LTb
LCb setrgbcolor
1032 3726 M
63 0 V
7768 0 R
-63 0 V
-7912 0 R
( 2) Rshow
1.000 UL
LTb
LCb setrgbcolor
1032 4460 M
63 0 V
7768 0 R
-63 0 V
-7912 0 R
( 4) Rshow
1.000 UL
LTb
LCb setrgbcolor
1032 5194 M
63 0 V
7768 0 R
-63 0 V
-7912 0 R
( 6) Rshow
1.000 UL
LTb
LCb setrgbcolor
1032 5928 M
63 0 V
7768 0 R
-63 0 V
-7912 0 R
( 8) Rshow
1.000 UL
LTb
LCb setrgbcolor
1032 6662 M
63 0 V
7768 0 R
-63 0 V
-7912 0 R
( 10) Rshow
1.000 UL
LTb
LCb setrgbcolor
1032 789 M
0 63 V
0 5810 R
0 -63 V
0 -6050 R
(-2) Cshow
1.000 UL
LTb
LCb setrgbcolor
2011 789 M
0 63 V
0 5810 R
0 -63 V
0 -6050 R
(-1.5) Cshow
1.000 UL
LTb
LCb setrgbcolor
2990 789 M
0 63 V
0 5810 R
0 -63 V
0 -6050 R
(-1) Cshow
1.000 UL
LTb
LCb setrgbcolor
3969 789 M
0 63 V
0 5810 R
0 -63 V
0 -6050 R
(-0.5) Cshow
1.000 UL
LTb
LCb setrgbcolor
4948 789 M
0 63 V
0 5810 R
0 -63 V
0 -6050 R
( 0) Cshow
1.000 UL
LTb
LCb setrgbcolor
5926 789 M
0 63 V
0 5810 R
0 -63 V
0 -6050 R
( 0.5) Cshow
1.000 UL
LTb
LCb setrgbcolor
6905 789 M
0 63 V
0 5810 R
0 -63 V
0 -6050 R
( 1) Cshow
1.000 UL
LTb
LCb setrgbcolor
7884 789 M
0 63 V
0 5810 R
0 -63 V
0 -6050 R
( 1.5) Cshow
1.000 UL
LTb
LCb setrgbcolor
8863 789 M
0 63 V
0 5810 R
0 -63 V
0 -6050 R
( 2) Cshow
1.000 UL
LTb
LCb setrgbcolor
1.000 UL
LTa
LCa setrgbcolor
1032 2991 M
7831 0 V
stroke
LTa
LCa setrgbcolor
4948 789 M
0 5873 V
stroke
LTb
LCb setrgbcolor
1032 6662 N
0 -5873 V
7831 0 V
0 5873 V
-7831 0 V
Z stroke
1.000 UP
1.000 UL
LTb
LCb setrgbcolor
stroke
grestore
end
showpage
%%Trailer
%%DocumentFonts: Helvetica
