%!PS-Adobe-2.0 EPSF-2.0
%%Title: fig7.eps
%%Creator: gnuplot 4.6 patchlevel 5
%%CreationDate: Sun Aug 16 19:45:06 2015
%%DocumentFonts: (atend)
%%BoundingBox: 50 50 220 191
%%EndComments
%%BeginProlog
/gnudict 256 dict def
gnudict begin
%
% The following true/false flags may be edited by hand if desired.
% The unit line width and grayscale image gamma correction may also be changed.
%
/Color false def
/Blacktext false def
/Solid false def
/Dashlength 1 def
/Landscape false def
/Level1 false def
/Rounded false def
/ClipToBoundingBox false def
/SuppressPDFMark false def
/TransparentPatterns false def
/gnulinewidth 5.000 def
/userlinewidth gnulinewidth def
/Gamma 1.0 def
/BackgroundColor {-1.000 -1.000 -1.000} def
%
/vshift -46 def
/dl1 {
  10.0 Dashlength mul mul
  Rounded { currentlinewidth 0.75 mul sub dup 0 le { pop 0.01 } if } if
} def
/dl2 {
  10.0 Dashlength mul mul
  Rounded { currentlinewidth 0.75 mul add } if
} def
/hpt_ 31.5 def
/vpt_ 31.5 def
/hpt hpt_ def
/vpt vpt_ def
/doclip {
  ClipToBoundingBox {
    newpath 50 50 moveto 220 50 lineto 220 191 lineto 50 191 lineto closepath
    clip
  } if
} def
%
% Gnuplot Prolog Version 4.6 (September 2012)
%
%/SuppressPDFMark true def
%
/M {moveto} bind def
/L {lineto} bind def
/R {rmoveto} bind def
/V {rlineto} bind def
/N {newpath moveto} bind def
/Z {closepath} bind def
/C {setrgbcolor} bind def
/f {rlineto fill} bind def
/g {setgray} bind def
/Gshow {show} def   % May be redefined later in the file to support UTF-8
/vpt2 vpt 2 mul def
/hpt2 hpt 2 mul def
/Lshow {currentpoint stroke M 0 vshift R 
	Blacktext {gsave 0 setgray show grestore} {show} ifelse} def
/Rshow {currentpoint stroke M dup stringwidth pop neg vshift R
	Blacktext {gsave 0 setgray show grestore} {show} ifelse} def
/Cshow {currentpoint stroke M dup stringwidth pop -2 div vshift R 
	Blacktext {gsave 0 setgray show grestore} {show} ifelse} def
/UP {dup vpt_ mul /vpt exch def hpt_ mul /hpt exch def
  /hpt2 hpt 2 mul def /vpt2 vpt 2 mul def} def
/DL {Color {setrgbcolor Solid {pop []} if 0 setdash}
 {pop pop pop 0 setgray Solid {pop []} if 0 setdash} ifelse} def
/BL {stroke userlinewidth 2 mul setlinewidth
	Rounded {1 setlinejoin 1 setlinecap} if} def
/AL {stroke userlinewidth 2 div setlinewidth
	Rounded {1 setlinejoin 1 setlinecap} if} def
/UL {dup gnulinewidth mul /userlinewidth exch def
	dup 1 lt {pop 1} if 10 mul /udl exch def} def
/PL {stroke userlinewidth setlinewidth
	Rounded {1 setlinejoin 1 setlinecap} if} def
3.8 setmiterlimit
% Default Line colors
/LCw {1 1 1} def
/LCb {0 0 0} def
/LCa {0 0 0} def
/LC0 {1 0 0} def
/LC1 {0 1 0} def
/LC2 {0 0 1} def
/LC3 {1 0 1} def
/LC4 {0 1 1} def
/LC5 {1 1 0} def
/LC6 {0 0 0} def
/LC7 {1 0.3 0} def
/LC8 {0.5 0.5 0.5} def
% Default Line Types
/LTw {PL [] 1 setgray} def
/LTb {BL [] LCb DL} def
/LTa {AL [1 udl mul 2 udl mul] 0 setdash LCa setrgbcolor} def
/LT0 {PL [] LC0 DL} def
/LT1 {PL [4 dl1 2 dl2] LC1 DL} def
/LT2 {PL [2 dl1 3 dl2] LC2 DL} def
/LT3 {PL [1 dl1 1.5 dl2] LC3 DL} def
/LT4 {PL [6 dl1 2 dl2 1 dl1 2 dl2] LC4 DL} def
/LT5 {PL [3 dl1 3 dl2 1 dl1 3 dl2] LC5 DL} def
/LT6 {PL [2 dl1 2 dl2 2 dl1 6 dl2] LC6 DL} def
/LT7 {PL [1 dl1 2 dl2 6 dl1 2 dl2 1 dl1 2 dl2] LC7 DL} def
/LT8 {PL [2 dl1 2 dl2 2 dl1 2 dl2 2 dl1 2 dl2 2 dl1 4 dl2] LC8 DL} def
/Pnt {stroke [] 0 setdash gsave 1 setlinecap M 0 0 V stroke grestore} def
/Dia {stroke [] 0 setdash 2 copy vpt add M
  hpt neg vpt neg V hpt vpt neg V
  hpt vpt V hpt neg vpt V closepath stroke
  Pnt} def
/Pls {stroke [] 0 setdash vpt sub M 0 vpt2 V
  currentpoint stroke M
  hpt neg vpt neg R hpt2 0 V stroke
 } def
/Box {stroke [] 0 setdash 2 copy exch hpt sub exch vpt add M
  0 vpt2 neg V hpt2 0 V 0 vpt2 V
  hpt2 neg 0 V closepath stroke
  Pnt} def
/Crs {stroke [] 0 setdash exch hpt sub exch vpt add M
  hpt2 vpt2 neg V currentpoint stroke M
  hpt2 neg 0 R hpt2 vpt2 V stroke} def
/TriU {stroke [] 0 setdash 2 copy vpt 1.12 mul add M
  hpt neg vpt -1.62 mul V
  hpt 2 mul 0 V
  hpt neg vpt 1.62 mul V closepath stroke
  Pnt} def
/Star {2 copy Pls Crs} def
/BoxF {stroke [] 0 setdash exch hpt sub exch vpt add M
  0 vpt2 neg V hpt2 0 V 0 vpt2 V
  hpt2 neg 0 V closepath fill} def
/TriUF {stroke [] 0 setdash vpt 1.12 mul add M
  hpt neg vpt -1.62 mul V
  hpt 2 mul 0 V
  hpt neg vpt 1.62 mul V closepath fill} def
/TriD {stroke [] 0 setdash 2 copy vpt 1.12 mul sub M
  hpt neg vpt 1.62 mul V
  hpt 2 mul 0 V
  hpt neg vpt -1.62 mul V closepath stroke
  Pnt} def
/TriDF {stroke [] 0 setdash vpt 1.12 mul sub M
  hpt neg vpt 1.62 mul V
  hpt 2 mul 0 V
  hpt neg vpt -1.62 mul V closepath fill} def
/DiaF {stroke [] 0 setdash vpt add M
  hpt neg vpt neg V hpt vpt neg V
  hpt vpt V hpt neg vpt V closepath fill} def
/Pent {stroke [] 0 setdash 2 copy gsave
  translate 0 hpt M 4 {72 rotate 0 hpt L} repeat
  closepath stroke grestore Pnt} def
/PentF {stroke [] 0 setdash gsave
  translate 0 hpt M 4 {72 rotate 0 hpt L} repeat
  closepath fill grestore} def
/Circle {stroke [] 0 setdash 2 copy
  hpt 0 360 arc stroke Pnt} def
/CircleF {stroke [] 0 setdash hpt 0 360 arc fill} def
/C0 {BL [] 0 setdash 2 copy moveto vpt 90 450 arc} bind def
/C1 {BL [] 0 setdash 2 copy moveto
	2 copy vpt 0 90 arc closepath fill
	vpt 0 360 arc closepath} bind def
/C2 {BL [] 0 setdash 2 copy moveto
	2 copy vpt 90 180 arc closepath fill
	vpt 0 360 arc closepath} bind def
/C3 {BL [] 0 setdash 2 copy moveto
	2 copy vpt 0 180 arc closepath fill
	vpt 0 360 arc closepath} bind def
/C4 {BL [] 0 setdash 2 copy moveto
	2 copy vpt 180 270 arc closepath fill
	vpt 0 360 arc closepath} bind def
/C5 {BL [] 0 setdash 2 copy moveto
	2 copy vpt 0 90 arc
	2 copy moveto
	2 copy vpt 180 270 arc closepath fill
	vpt 0 360 arc} bind def
/C6 {BL [] 0 setdash 2 copy moveto
	2 copy vpt 90 270 arc closepath fill
	vpt 0 360 arc closepath} bind def
/C7 {BL [] 0 setdash 2 copy moveto
	2 copy vpt 0 270 arc closepath fill
	vpt 0 360 arc closepath} bind def
/C8 {BL [] 0 setdash 2 copy moveto
	2 copy vpt 270 360 arc closepath fill
	vpt 0 360 arc closepath} bind def
/C9 {BL [] 0 setdash 2 copy moveto
	2 copy vpt 270 450 arc closepath fill
	vpt 0 360 arc closepath} bind def
/C10 {BL [] 0 setdash 2 copy 2 copy moveto vpt 270 360 arc closepath fill
	2 copy moveto
	2 copy vpt 90 180 arc closepath fill
	vpt 0 360 arc closepath} bind def
/C11 {BL [] 0 setdash 2 copy moveto
	2 copy vpt 0 180 arc closepath fill
	2 copy moveto
	2 copy vpt 270 360 arc closepath fill
	vpt 0 360 arc closepath} bind def
/C12 {BL [] 0 setdash 2 copy moveto
	2 copy vpt 180 360 arc closepath fill
	vpt 0 360 arc closepath} bind def
/C13 {BL [] 0 setdash 2 copy moveto
	2 copy vpt 0 90 arc closepath fill
	2 copy moveto
	2 copy vpt 180 360 arc closepath fill
	vpt 0 360 arc closepath} bind def
/C14 {BL [] 0 setdash 2 copy moveto
	2 copy vpt 90 360 arc closepath fill
	vpt 0 360 arc} bind def
/C15 {BL [] 0 setdash 2 copy vpt 0 360 arc closepath fill
	vpt 0 360 arc closepath} bind def
/Rec {newpath 4 2 roll moveto 1 index 0 rlineto 0 exch rlineto
	neg 0 rlineto closepath} bind def
/Square {dup Rec} bind def
/Bsquare {vpt sub exch vpt sub exch vpt2 Square} bind def
/S0 {BL [] 0 setdash 2 copy moveto 0 vpt rlineto BL Bsquare} bind def
/S1 {BL [] 0 setdash 2 copy vpt Square fill Bsquare} bind def
/S2 {BL [] 0 setdash 2 copy exch vpt sub exch vpt Square fill Bsquare} bind def
/S3 {BL [] 0 setdash 2 copy exch vpt sub exch vpt2 vpt Rec fill Bsquare} bind def
/S4 {BL [] 0 setdash 2 copy exch vpt sub exch vpt sub vpt Square fill Bsquare} bind def
/S5 {BL [] 0 setdash 2 copy 2 copy vpt Square fill
	exch vpt sub exch vpt sub vpt Square fill Bsquare} bind def
/S6 {BL [] 0 setdash 2 copy exch vpt sub exch vpt sub vpt vpt2 Rec fill Bsquare} bind def
/S7 {BL [] 0 setdash 2 copy exch vpt sub exch vpt sub vpt vpt2 Rec fill
	2 copy vpt Square fill Bsquare} bind def
/S8 {BL [] 0 setdash 2 copy vpt sub vpt Square fill Bsquare} bind def
/S9 {BL [] 0 setdash 2 copy vpt sub vpt vpt2 Rec fill Bsquare} bind def
/S10 {BL [] 0 setdash 2 copy vpt sub vpt Square fill 2 copy exch vpt sub exch vpt Square fill
	Bsquare} bind def
/S11 {BL [] 0 setdash 2 copy vpt sub vpt Square fill 2 copy exch vpt sub exch vpt2 vpt Rec fill
	Bsquare} bind def
/S12 {BL [] 0 setdash 2 copy exch vpt sub exch vpt sub vpt2 vpt Rec fill Bsquare} bind def
/S13 {BL [] 0 setdash 2 copy exch vpt sub exch vpt sub vpt2 vpt Rec fill
	2 copy vpt Square fill Bsquare} bind def
/S14 {BL [] 0 setdash 2 copy exch vpt sub exch vpt sub vpt2 vpt Rec fill
	2 copy exch vpt sub exch vpt Square fill Bsquare} bind def
/S15 {BL [] 0 setdash 2 copy Bsquare fill Bsquare} bind def
/D0 {gsave translate 45 rotate 0 0 S0 stroke grestore} bind def
/D1 {gsave translate 45 rotate 0 0 S1 stroke grestore} bind def
/D2 {gsave translate 45 rotate 0 0 S2 stroke grestore} bind def
/D3 {gsave translate 45 rotate 0 0 S3 stroke grestore} bind def
/D4 {gsave translate 45 rotate 0 0 S4 stroke grestore} bind def
/D5 {gsave translate 45 rotate 0 0 S5 stroke grestore} bind def
/D6 {gsave translate 45 rotate 0 0 S6 stroke grestore} bind def
/D7 {gsave translate 45 rotate 0 0 S7 stroke grestore} bind def
/D8 {gsave translate 45 rotate 0 0 S8 stroke grestore} bind def
/D9 {gsave translate 45 rotate 0 0 S9 stroke grestore} bind def
/D10 {gsave translate 45 rotate 0 0 S10 stroke grestore} bind def
/D11 {gsave translate 45 rotate 0 0 S11 stroke grestore} bind def
/D12 {gsave translate 45 rotate 0 0 S12 stroke grestore} bind def
/D13 {gsave translate 45 rotate 0 0 S13 stroke grestore} bind def
/D14 {gsave translate 45 rotate 0 0 S14 stroke grestore} bind def
/D15 {gsave translate 45 rotate 0 0 S15 stroke grestore} bind def
/DiaE {stroke [] 0 setdash vpt add M
  hpt neg vpt neg V hpt vpt neg V
  hpt vpt V hpt neg vpt V closepath stroke} def
/BoxE {stroke [] 0 setdash exch hpt sub exch vpt add M
  0 vpt2 neg V hpt2 0 V 0 vpt2 V
  hpt2 neg 0 V closepath stroke} def
/TriUE {stroke [] 0 setdash vpt 1.12 mul add M
  hpt neg vpt -1.62 mul V
  hpt 2 mul 0 V
  hpt neg vpt 1.62 mul V closepath stroke} def
/TriDE {stroke [] 0 setdash vpt 1.12 mul sub M
  hpt neg vpt 1.62 mul V
  hpt 2 mul 0 V
  hpt neg vpt -1.62 mul V closepath stroke} def
/PentE {stroke [] 0 setdash gsave
  translate 0 hpt M 4 {72 rotate 0 hpt L} repeat
  closepath stroke grestore} def
/CircE {stroke [] 0 setdash 
  hpt 0 360 arc stroke} def
/Opaque {gsave closepath 1 setgray fill grestore 0 setgray closepath} def
/DiaW {stroke [] 0 setdash vpt add M
  hpt neg vpt neg V hpt vpt neg V
  hpt vpt V hpt neg vpt V Opaque stroke} def
/BoxW {stroke [] 0 setdash exch hpt sub exch vpt add M
  0 vpt2 neg V hpt2 0 V 0 vpt2 V
  hpt2 neg 0 V Opaque stroke} def
/TriUW {stroke [] 0 setdash vpt 1.12 mul add M
  hpt neg vpt -1.62 mul V
  hpt 2 mul 0 V
  hpt neg vpt 1.62 mul V Opaque stroke} def
/TriDW {stroke [] 0 setdash vpt 1.12 mul sub M
  hpt neg vpt 1.62 mul V
  hpt 2 mul 0 V
  hpt neg vpt -1.62 mul V Opaque stroke} def
/PentW {stroke [] 0 setdash gsave
  translate 0 hpt M 4 {72 rotate 0 hpt L} repeat
  Opaque stroke grestore} def
/CircW {stroke [] 0 setdash 
  hpt 0 360 arc Opaque stroke} def
/BoxFill {gsave Rec 1 setgray fill grestore} def
/Density {
  /Fillden exch def
  currentrgbcolor
  /ColB exch def /ColG exch def /ColR exch def
  /ColR ColR Fillden mul Fillden sub 1 add def
  /ColG ColG Fillden mul Fillden sub 1 add def
  /ColB ColB Fillden mul Fillden sub 1 add def
  ColR ColG ColB setrgbcolor} def
/BoxColFill {gsave Rec PolyFill} def
/PolyFill {gsave Density fill grestore grestore} def
/h {rlineto rlineto rlineto gsave closepath fill grestore} bind def
%
% PostScript Level 1 Pattern Fill routine for rectangles
% Usage: x y w h s a XX PatternFill
%	x,y = lower left corner of box to be filled
%	w,h = width and height of box
%	  a = angle in degrees between lines and x-axis
%	 XX = 0/1 for no/yes cross-hatch
%
/PatternFill {gsave /PFa [ 9 2 roll ] def
  PFa 0 get PFa 2 get 2 div add PFa 1 get PFa 3 get 2 div add translate
  PFa 2 get -2 div PFa 3 get -2 div PFa 2 get PFa 3 get Rec
  TransparentPatterns {} {gsave 1 setgray fill grestore} ifelse
  clip
  currentlinewidth 0.5 mul setlinewidth
  /PFs PFa 2 get dup mul PFa 3 get dup mul add sqrt def
  0 0 M PFa 5 get rotate PFs -2 div dup translate
  0 1 PFs PFa 4 get div 1 add floor cvi
	{PFa 4 get mul 0 M 0 PFs V} for
  0 PFa 6 get ne {
	0 1 PFs PFa 4 get div 1 add floor cvi
	{PFa 4 get mul 0 2 1 roll M PFs 0 V} for
 } if
  stroke grestore} def
%
/languagelevel where
 {pop languagelevel} {1} ifelse
 2 lt
	{/InterpretLevel1 true def}
	{/InterpretLevel1 Level1 def}
 ifelse
%
% PostScript level 2 pattern fill definitions
%
/Level2PatternFill {
/Tile8x8 {/PaintType 2 /PatternType 1 /TilingType 1 /BBox [0 0 8 8] /XStep 8 /YStep 8}
	bind def
/KeepColor {currentrgbcolor [/Pattern /DeviceRGB] setcolorspace} bind def
<< Tile8x8
 /PaintProc {0.5 setlinewidth pop 0 0 M 8 8 L 0 8 M 8 0 L stroke} 
>> matrix makepattern
/Pat1 exch def
<< Tile8x8
 /PaintProc {0.5 setlinewidth pop 0 0 M 8 8 L 0 8 M 8 0 L stroke
	0 4 M 4 8 L 8 4 L 4 0 L 0 4 L stroke}
>> matrix makepattern
/Pat2 exch def
<< Tile8x8
 /PaintProc {0.5 setlinewidth pop 0 0 M 0 8 L
	8 8 L 8 0 L 0 0 L fill}
>> matrix makepattern
/Pat3 exch def
<< Tile8x8
 /PaintProc {0.5 setlinewidth pop -4 8 M 8 -4 L
	0 12 M 12 0 L stroke}
>> matrix makepattern
/Pat4 exch def
<< Tile8x8
 /PaintProc {0.5 setlinewidth pop -4 0 M 8 12 L
	0 -4 M 12 8 L stroke}
>> matrix makepattern
/Pat5 exch def
<< Tile8x8
 /PaintProc {0.5 setlinewidth pop -2 8 M 4 -4 L
	0 12 M 8 -4 L 4 12 M 10 0 L stroke}
>> matrix makepattern
/Pat6 exch def
<< Tile8x8
 /PaintProc {0.5 setlinewidth pop -2 0 M 4 12 L
	0 -4 M 8 12 L 4 -4 M 10 8 L stroke}
>> matrix makepattern
/Pat7 exch def
<< Tile8x8
 /PaintProc {0.5 setlinewidth pop 8 -2 M -4 4 L
	12 0 M -4 8 L 12 4 M 0 10 L stroke}
>> matrix makepattern
/Pat8 exch def
<< Tile8x8
 /PaintProc {0.5 setlinewidth pop 0 -2 M 12 4 L
	-4 0 M 12 8 L -4 4 M 8 10 L stroke}
>> matrix makepattern
/Pat9 exch def
/Pattern1 {PatternBgnd KeepColor Pat1 setpattern} bind def
/Pattern2 {PatternBgnd KeepColor Pat2 setpattern} bind def
/Pattern3 {PatternBgnd KeepColor Pat3 setpattern} bind def
/Pattern4 {PatternBgnd KeepColor Landscape {Pat5} {Pat4} ifelse setpattern} bind def
/Pattern5 {PatternBgnd KeepColor Landscape {Pat4} {Pat5} ifelse setpattern} bind def
/Pattern6 {PatternBgnd KeepColor Landscape {Pat9} {Pat6} ifelse setpattern} bind def
/Pattern7 {PatternBgnd KeepColor Landscape {Pat8} {Pat7} ifelse setpattern} bind def
} def
%
%
%End of PostScript Level 2 code
%
/PatternBgnd {
  TransparentPatterns {} {gsave 1 setgray fill grestore} ifelse
} def
%
% Substitute for Level 2 pattern fill codes with
% grayscale if Level 2 support is not selected.
%
/Level1PatternFill {
/Pattern1 {0.250 Density} bind def
/Pattern2 {0.500 Density} bind def
/Pattern3 {0.750 Density} bind def
/Pattern4 {0.125 Density} bind def
/Pattern5 {0.375 Density} bind def
/Pattern6 {0.625 Density} bind def
/Pattern7 {0.875 Density} bind def
} def
%
% Now test for support of Level 2 code
%
Level1 {Level1PatternFill} {Level2PatternFill} ifelse
%
/Symbol-Oblique /Symbol findfont [1 0 .167 1 0 0] makefont
dup length dict begin {1 index /FID eq {pop pop} {def} ifelse} forall
currentdict end definefont pop
/MFshow {
   { dup 5 get 3 ge
     { 5 get 3 eq {gsave} {grestore} ifelse }
     {dup dup 0 get findfont exch 1 get scalefont setfont
     [ currentpoint ] exch dup 2 get 0 exch R dup 5 get 2 ne {dup dup 6
     get exch 4 get {Gshow} {stringwidth pop 0 R} ifelse }if dup 5 get 0 eq
     {dup 3 get {2 get neg 0 exch R pop} {pop aload pop M} ifelse} {dup 5
     get 1 eq {dup 2 get exch dup 3 get exch 6 get stringwidth pop -2 div
     dup 0 R} {dup 6 get stringwidth pop -2 div 0 R 6 get
     show 2 index {aload pop M neg 3 -1 roll neg R pop pop} {pop pop pop
     pop aload pop M} ifelse }ifelse }ifelse }
     ifelse }
   forall} def
/Gswidth {dup type /stringtype eq {stringwidth} {pop (n) stringwidth} ifelse} def
/MFwidth {0 exch { dup 5 get 3 ge { 5 get 3 eq { 0 } { pop } ifelse }
 {dup 3 get{dup dup 0 get findfont exch 1 get scalefont setfont
     6 get Gswidth pop add} {pop} ifelse} ifelse} forall} def
/MLshow { currentpoint stroke M
  0 exch R
  Blacktext {gsave 0 setgray MFshow grestore} {MFshow} ifelse } bind def
/MRshow { currentpoint stroke M
  exch dup MFwidth neg 3 -1 roll R
  Blacktext {gsave 0 setgray MFshow grestore} {MFshow} ifelse } bind def
/MCshow { currentpoint stroke M
  exch dup MFwidth -2 div 3 -1 roll R
  Blacktext {gsave 0 setgray MFshow grestore} {MFshow} ifelse } bind def
/XYsave    { [( ) 1 2 true false 3 ()] } bind def
/XYrestore { [( ) 1 2 true false 4 ()] } bind def
Level1 SuppressPDFMark or 
{} {
/SDict 10 dict def
systemdict /pdfmark known not {
  userdict /pdfmark systemdict /cleartomark get put
} if
SDict begin [
  /Title (fig7.eps)
  /Subject (gnuplot plot)
  /Creator (gnuplot 4.6 patchlevel 5)
  /Author (yurchor)
%  /Producer (gnuplot)
%  /Keywords ()
  /CreationDate (Sun Aug 16 19:45:06 2015)
  /DOCINFO pdfmark
end
} ifelse
end
%%EndProlog
%%Page: 1 1
gnudict begin
gsave
doclip
50 50 translate
0.050 0.050 scale
0 setgray
newpath
(Helvetica) findfont 140 scalefont setfont
BackgroundColor 0 lt 3 1 roll 0 lt exch 0 lt or or not {BackgroundColor C 1.000 0 0 3400.00 2834.00 BoxColFill} if
1.000 UL
LTb
1.00 1.00 1.00 C 1.000 0 0 3399 2833 BoxColFill
1.000 UL
LTb
378 528 M
63 0 V
stroke
294 528 M
[ [(Helvetica) 140.0 0.0 true true 0 (-4)]
] -46.7 MRshow
1.000 UL
LTb
378 834 M
63 0 V
stroke
294 834 M
[ [(Helvetica) 140.0 0.0 true true 0 (-3)]
] -46.7 MRshow
1.000 UL
LTb
378 1139 M
63 0 V
stroke
294 1139 M
[ [(Helvetica) 140.0 0.0 true true 0 (-2)]
] -46.7 MRshow
1.000 UL
LTb
378 1444 M
63 0 V
stroke
294 1444 M
[ [(Helvetica) 140.0 0.0 true true 0 (-1)]
] -46.7 MRshow
1.000 UL
LTb
378 1749 M
63 0 V
stroke
294 1749 M
[ [(Helvetica) 140.0 0.0 true true 0 ( 0)]
] -46.7 MRshow
1.000 UL
LTb
378 2055 M
63 0 V
stroke
294 2055 M
[ [(Helvetica) 140.0 0.0 true true 0 ( 1)]
] -46.7 MRshow
1.000 UL
LTb
378 2360 M
63 0 V
stroke
294 2360 M
[ [(Helvetica) 140.0 0.0 true true 0 ( 2)]
] -46.7 MRshow
1.000 UL
LTb
378 2665 M
63 0 V
stroke
294 2665 M
[ [(Helvetica) 140.0 0.0 true true 0 ( 3)]
] -46.7 MRshow
1.000 UL
LTb
459 280 M
0 63 V
stroke
459 140 M
[ [(Helvetica) 140.0 0.0 true true 0 (-3)]
] -46.7 MCshow
1.000 UL
LTb
741 280 M
0 63 V
stroke
741 140 M
[ [(Helvetica) 140.0 0.0 true true 0 (-2)]
] -46.7 MCshow
1.000 UL
LTb
1023 280 M
0 63 V
stroke
1023 140 M
[ [(Helvetica) 140.0 0.0 true true 0 (-1)]
] -46.7 MCshow
1.000 UL
LTb
1305 280 M
0 63 V
stroke
1305 140 M
[ [(Helvetica) 140.0 0.0 true true 0 ( 0)]
] -46.7 MCshow
1.000 UL
LTb
1587 280 M
0 63 V
stroke
1587 140 M
[ [(Helvetica) 140.0 0.0 true true 0 ( 1)]
] -46.7 MCshow
1.000 UL
LTb
1869 280 M
0 63 V
stroke
1869 140 M
[ [(Helvetica) 140.0 0.0 true true 0 ( 2)]
] -46.7 MCshow
1.000 UL
LTb
2151 280 M
0 63 V
stroke
2151 140 M
[ [(Helvetica) 140.0 0.0 true true 0 ( 3)]
] -46.7 MCshow
1.000 UL
LTb
2433 280 M
0 63 V
stroke
2433 140 M
[ [(Helvetica) 140.0 0.0 true true 0 ( 4)]
] -46.7 MCshow
1.000 UL
LTb
2715 280 M
0 63 V
stroke
2715 140 M
[ [(Helvetica) 140.0 0.0 true true 0 ( 5)]
] -46.7 MCshow
1.000 UL
LTb
2997 280 M
0 63 V
stroke
2997 140 M
[ [(Helvetica) 140.0 0.0 true true 0 ( 6)]
] -46.7 MCshow
1.000 UL
LTb
1.000 UL
LTa
0.00 0.00 0.00 C 378 1749 M
2699 0 V
stroke
LTb
378 2665 N
378 280 L
2699 0 V
0 2385 V
-2699 0 V
Z stroke
LCb setrgbcolor
LTb
LCb setrgbcolor
LTb
LCb setrgbcolor
LTb
LCb setrgbcolor
LTb
1.000 UP
1.000 UL
LTb
% Begin plot #1
1.000 UL
LT0
0.00 0.00 1.00 C 2997 1749 M
-2 58 V
-5 58 V
-8 57 V
-12 56 V
-15 56 V
-18 54 V
-21 53 V
-25 52 V
-27 49 V
-30 48 V
-33 45 V
-35 44 V
-38 40 V
-40 38 V
-43 36 V
-44 32 V
-46 29 V
-48 26 V
-49 23 V
-51 19 V
-51 16 V
-52 12 V
-53 9 V
-53 5 V
-54 1 V
-53 -2 V
-53 -6 V
-53 -10 V
-52 -13 V
-51 -17 V
-50 -20 V
-49 -23 V
-47 -27 V
-46 -30 V
-44 -33 V
-41 -36 V
-40 -39 V
-37 -41 V
-35 -44 V
-32 -46 V
-30 -48 V
-27 -50 V
-23 -52 V
-21 -53 V
-17 -55 V
-14 -56 V
-11 -56 V
-8 -58 V
-4 -57 V
-1 -58 V
3 -58 V
6 -57 V
9 -57 V
12 -56 V
16 -56 V
19 -54 V
22 -52 V
25 -51 V
28 -50 V
31 -47 V
34 -45 V
36 -42 V
38 -40 V
41 -38 V
43 -34 V
45 -32 V
46 -28 V
48 -25 V
50 -22 V
51 -19 V
51 -14 V
53 -12 V
52 -7 V
54 -5 V
53 0 V
54 3 V
53 7 V
52 10 V
52 14 V
51 18 V
50 21 V
48 24 V
47 28 V
45 31 V
44 33 V
41 37 V
39 39 V
37 42 V
34 45 V
31 46 V
29 49 V
26 51 V
23 52 V
20 54 V
16 55 V
14 56 V
10 56 V
6 58 V
4 57 V
0 58 V
-4 58 V
-6 57 V
-10 57 V
-14 56 V
stroke 2963 2006 M
-16 55 V
-20 54 V
-23 52 V
-26 51 V
-29 48 V
-31 47 V
-34 44 V
-37 42 V
-39 40 V
-41 36 V
-44 34 V
-45 31 V
-47 28 V
-48 24 V
-50 21 V
-51 17 V
-52 14 V
-52 11 V
-53 7 V
-54 3 V
-53 -1 V
-54 -4 V
-52 -8 V
-53 -11 V
-51 -15 V
-51 -18 V
-50 -22 V
-48 -25 V
-46 -28 V
-45 -32 V
-43 -34 V
-41 -38 V
-38 -40 V
-36 -42 V
-34 -45 V
-31 -48 V
-28 -49 V
-25 -51 V
-22 -53 V
-19 -54 V
-16 -55 V
-12 -56 V
-9 -57 V
-6 -57 V
-3 -58 V
1 -58 V
4 -58 V
8 -57 V
11 -56 V
14 -56 V
17 -55 V
21 -53 V
23 -52 V
27 -50 V
30 -48 V
32 -47 V
35 -43 V
37 -42 V
40 -38 V
41 -36 V
44 -33 V
46 -30 V
47 -27 V
49 -24 V
50 -20 V
51 -16 V
52 -14 V
53 -9 V
53 -6 V
53 -2 V
54 1 V
53 5 V
53 9 V
52 12 V
51 16 V
51 19 V
49 23 V
48 26 V
46 29 V
44 32 V
43 35 V
40 38 V
38 41 V
35 43 V
33 46 V
30 48 V
27 49 V
25 52 V
21 53 V
18 54 V
15 56 V
12 56 V
8 57 V
5 58 V
2 57 V
% End plot #1
% Begin plot #2
stroke
LT0
0.00 0.00 1.00 C 1305 1749 M
9 1 V
9 1 V
9 1 V
9 2 V
8 3 V
9 3 V
8 4 V
8 5 V
8 5 V
8 5 V
7 6 V
7 7 V
7 7 V
7 8 V
6 8 V
6 9 V
5 9 V
5 10 V
5 10 V
4 10 V
4 11 V
3 11 V
2 12 V
2 11 V
2 12 V
1 13 V
0 12 V
0 13 V
-1 13 V
-1 13 V
-2 13 V
-2 14 V
-4 13 V
-3 13 V
-5 14 V
-5 13 V
-6 13 V
-6 14 V
-7 13 V
-8 13 V
-8 12 V
-9 13 V
-10 12 V
-10 12 V
-11 12 V
-11 12 V
-13 11 V
-12 10 V
-13 10 V
-14 10 V
-15 9 V
-15 9 V
-15 8 V
-16 8 V
-17 7 V
-17 7 V
-17 5 V
-18 5 V
-18 5 V
-19 4 V
-19 3 V
-19 2 V
-20 1 V
-20 1 V
-20 0 V
-20 -1 V
-21 -2 V
-21 -3 V
-21 -4 V
-21 -4 V
-21 -6 V
-21 -6 V
-21 -7 V
-21 -9 V
-22 -9 V
-21 -10 V
-21 -11 V
-20 -12 V
-21 -13 V
-20 -13 V
-20 -15 V
-20 -16 V
-20 -17 V
-19 -17 V
-19 -19 V
-18 -19 V
-18 -20 V
-17 -21 V
-17 -22 V
-16 -23 V
-16 -24 V
-15 -25 V
-14 -25 V
-14 -26 V
-13 -27 V
-12 -28 V
-12 -28 V
-10 -29 V
-10 -30 V
-9 -30 V
-8 -31 V
-7 -31 V
-6 -32 V
-5 -33 V
stroke 389 1607 M
-5 -32 V
-3 -34 V
-2 -34 V
-1 -34 V
0 -34 V
1 -35 V
2 -35 V
4 -35 V
4 -35 V
6 -35 V
6 -36 V
8 -35 V
9 -35 V
11 -36 V
11 -35 V
13 -35 V
14 -35 V
15 -34 V
16 -35 V
17 -34 V
19 -33 V
20 -33 V
21 -33 V
22 -32 V
23 -31 V
24 -31 V
26 -30 V
26 -30 V
28 -28 V
29 -28 V
29 -27 V
31 -26 V
32 -25 V
33 -25 V
34 -23 V
34 -22 V
36 -21 V
36 -19 V
38 -19 V
38 -17 V
38 -16 V
40 -15 V
40 -14 V
41 -12 V
42 -11 V
42 -9 V
42 -8 V
44 -6 V
43 -5 V
44 -3 V
44 -2 V
45 0 V
45 1 V
45 3 V
45 5 V
45 6 V
46 8 V
45 10 V
46 11 V
45 13 V
45 15 V
45 16 V
45 18 V
44 20 V
44 21 V
43 23 V
43 25 V
43 26 V
42 28 V
41 30 V
41 31 V
40 33 V
39 35 V
38 35 V
38 38 V
36 39 V
35 41 V
35 41 V
33 44 V
32 45 V
31 46 V
30 47 V
28 49 V
27 50 V
26 51 V
24 52 V
23 53 V
21 55 V
20 55 V
18 56 V
17 58 V
14 58 V
14 59 V
11 59 V
10 60 V
% End plot #2
% Begin plot #3
stroke
LT0
0.00 0.00 1.00 C 1305 1749 M
18 1 V
18 2 V
17 3 V
18 4 V
17 5 V
16 7 V
17 8 V
16 8 V
15 10 V
15 11 V
14 12 V
13 13 V
13 14 V
11 14 V
11 15 V
10 16 V
9 17 V
8 17 V
7 18 V
6 18 V
5 19 V
4 18 V
2 20 V
2 19 V
0 19 V
-1 19 V
-1 19 V
-3 19 V
-4 19 V
-5 19 V
-7 18 V
-7 17 V
-8 17 V
-9 17 V
-11 16 V
-11 15 V
-12 14 V
-12 14 V
-14 12 V
-14 12 V
-15 10 V
-15 10 V
-16 8 V
-17 8 V
-17 6 V
-17 5 V
-17 4 V
-18 3 V
-17 1 V
-18 1 V
-18 -1 V
-18 -2 V
-17 -4 V
-18 -4 V
-17 -6 V
-16 -7 V
-16 -8 V
-16 -9 V
-15 -10 V
-15 -11 V
-14 -12 V
-13 -13 V
-12 -14 V
-12 -15 V
-10 -15 V
-10 -16 V
-9 -17 V
-8 -17 V
-6 -18 V
-6 -19 V
-4 -18 V
-4 -19 V
-2 -19 V
-2 -19 V
0 -20 V
1 -19 V
2 -19 V
4 -19 V
4 -19 V
5 -18 V
7 -18 V
7 -17 V
9 -17 V
9 -17 V
11 -15 V
11 -15 V
12 -14 V
13 -14 V
14 -12 V
14 -11 V
15 -11 V
16 -9 V
16 -8 V
16 -7 V
17 -6 V
17 -5 V
18 -4 V
18 -2 V
17 -1 V
18 0 V
18 1 V
18 2 V
17 4 V
17 5 V
stroke 1384 1762 M
17 6 V
17 7 V
16 8 V
15 9 V
15 11 V
15 11 V
13 12 V
13 14 V
12 14 V
12 15 V
10 15 V
10 17 V
8 17 V
8 17 V
6 18 V
5 18 V
5 19 V
3 19 V
2 19 V
1 19 V
0 20 V
-1 19 V
-3 19 V
-3 19 V
-5 18 V
-5 19 V
-7 18 V
-8 17 V
-9 17 V
-9 16 V
-11 15 V
-11 15 V
-13 14 V
-13 13 V
-14 12 V
-14 11 V
-15 10 V
-16 9 V
-16 8 V
-17 7 V
-17 6 V
-17 4 V
-18 4 V
-18 2 V
-17 1 V
-18 -1 V
-18 -1 V
-18 -3 V
-17 -4 V
-17 -5 V
-17 -6 V
-16 -8 V
-16 -8 V
-16 -10 V
-15 -10 V
-14 -12 V
-13 -12 V
-13 -14 V
-12 -14 V
-11 -15 V
-10 -16 V
-10 -17 V
-8 -17 V
-7 -17 V
-6 -18 V
-5 -19 V
-4 -19 V
-3 -19 V
-2 -19 V
-1 -19 V
1 -19 V
1 -19 V
3 -20 V
4 -18 V
4 -19 V
6 -18 V
7 -18 V
8 -17 V
9 -17 V
10 -16 V
11 -15 V
12 -14 V
12 -14 V
14 -13 V
14 -12 V
14 -11 V
16 -10 V
16 -8 V
16 -8 V
17 -7 V
17 -5 V
17 -4 V
18 -3 V
17 -2 V
18 -1 V
% End plot #3
stroke
LTb
378 2665 N
378 280 L
2699 0 V
0 2385 V
-2699 0 V
Z stroke
1.000 UP
1.000 UL
LTb
stroke
grestore
end
showpage
%%Trailer
%%DocumentFonts: Helvetica
