%!PS-Adobe-2.0 EPSF-2.0
%%Title: figdraw6.eps
%%Creator: gnuplot 4.6 patchlevel 5
%%CreationDate: Sat Sep 19 20:41:42 2015
%%DocumentFonts: (atend)
%%BoundingBox: 50 50 220 191
%%EndComments
%%BeginProlog
/gnudict 256 dict def
gnudict begin
%
% The following true/false flags may be edited by hand if desired.
% The unit line width and grayscale image gamma correction may also be changed.
%
/Color false def
/Blacktext false def
/Solid false def
/Dashlength 1 def
/Landscape false def
/Level1 false def
/Rounded false def
/ClipToBoundingBox false def
/SuppressPDFMark false def
/TransparentPatterns false def
/gnulinewidth 5.000 def
/userlinewidth gnulinewidth def
/Gamma 1.0 def
/BackgroundColor {-1.000 -1.000 -1.000} def
%
/vshift -46 def
/dl1 {
  10.0 Dashlength mul mul
  Rounded { currentlinewidth 0.75 mul sub dup 0 le { pop 0.01 } if } if
} def
/dl2 {
  10.0 Dashlength mul mul
  Rounded { currentlinewidth 0.75 mul add } if
} def
/hpt_ 31.5 def
/vpt_ 31.5 def
/hpt hpt_ def
/vpt vpt_ def
/doclip {
  ClipToBoundingBox {
    newpath 50 50 moveto 220 50 lineto 220 191 lineto 50 191 lineto closepath
    clip
  } if
} def
%
% Gnuplot Prolog Version 4.6 (September 2012)
%
%/SuppressPDFMark true def
%
/M {moveto} bind def
/L {lineto} bind def
/R {rmoveto} bind def
/V {rlineto} bind def
/N {newpath moveto} bind def
/Z {closepath} bind def
/C {setrgbcolor} bind def
/f {rlineto fill} bind def
/g {setgray} bind def
/Gshow {show} def   % May be redefined later in the file to support UTF-8
/vpt2 vpt 2 mul def
/hpt2 hpt 2 mul def
/Lshow {currentpoint stroke M 0 vshift R 
	Blacktext {gsave 0 setgray show grestore} {show} ifelse} def
/Rshow {currentpoint stroke M dup stringwidth pop neg vshift R
	Blacktext {gsave 0 setgray show grestore} {show} ifelse} def
/Cshow {currentpoint stroke M dup stringwidth pop -2 div vshift R 
	Blacktext {gsave 0 setgray show grestore} {show} ifelse} def
/UP {dup vpt_ mul /vpt exch def hpt_ mul /hpt exch def
  /hpt2 hpt 2 mul def /vpt2 vpt 2 mul def} def
/DL {Color {setrgbcolor Solid {pop []} if 0 setdash}
 {pop pop pop 0 setgray Solid {pop []} if 0 setdash} ifelse} def
/BL {stroke userlinewidth 2 mul setlinewidth
	Rounded {1 setlinejoin 1 setlinecap} if} def
/AL {stroke userlinewidth 2 div setlinewidth
	Rounded {1 setlinejoin 1 setlinecap} if} def
/UL {dup gnulinewidth mul /userlinewidth exch def
	dup 1 lt {pop 1} if 10 mul /udl exch def} def
/PL {stroke userlinewidth setlinewidth
	Rounded {1 setlinejoin 1 setlinecap} if} def
3.8 setmiterlimit
% Default Line colors
/LCw {1 1 1} def
/LCb {0 0 0} def
/LCa {0 0 0} def
/LC0 {1 0 0} def
/LC1 {0 1 0} def
/LC2 {0 0 1} def
/LC3 {1 0 1} def
/LC4 {0 1 1} def
/LC5 {1 1 0} def
/LC6 {0 0 0} def
/LC7 {1 0.3 0} def
/LC8 {0.5 0.5 0.5} def
% Default Line Types
/LTw {PL [] 1 setgray} def
/LTb {BL [] LCb DL} def
/LTa {AL [1 udl mul 2 udl mul] 0 setdash LCa setrgbcolor} def
/LT0 {PL [] LC0 DL} def
/LT1 {PL [4 dl1 2 dl2] LC1 DL} def
/LT2 {PL [2 dl1 3 dl2] LC2 DL} def
/LT3 {PL [1 dl1 1.5 dl2] LC3 DL} def
/LT4 {PL [6 dl1 2 dl2 1 dl1 2 dl2] LC4 DL} def
/LT5 {PL [3 dl1 3 dl2 1 dl1 3 dl2] LC5 DL} def
/LT6 {PL [2 dl1 2 dl2 2 dl1 6 dl2] LC6 DL} def
/LT7 {PL [1 dl1 2 dl2 6 dl1 2 dl2 1 dl1 2 dl2] LC7 DL} def
/LT8 {PL [2 dl1 2 dl2 2 dl1 2 dl2 2 dl1 2 dl2 2 dl1 4 dl2] LC8 DL} def
/Pnt {stroke [] 0 setdash gsave 1 setlinecap M 0 0 V stroke grestore} def
/Dia {stroke [] 0 setdash 2 copy vpt add M
  hpt neg vpt neg V hpt vpt neg V
  hpt vpt V hpt neg vpt V closepath stroke
  Pnt} def
/Pls {stroke [] 0 setdash vpt sub M 0 vpt2 V
  currentpoint stroke M
  hpt neg vpt neg R hpt2 0 V stroke
 } def
/Box {stroke [] 0 setdash 2 copy exch hpt sub exch vpt add M
  0 vpt2 neg V hpt2 0 V 0 vpt2 V
  hpt2 neg 0 V closepath stroke
  Pnt} def
/Crs {stroke [] 0 setdash exch hpt sub exch vpt add M
  hpt2 vpt2 neg V currentpoint stroke M
  hpt2 neg 0 R hpt2 vpt2 V stroke} def
/TriU {stroke [] 0 setdash 2 copy vpt 1.12 mul add M
  hpt neg vpt -1.62 mul V
  hpt 2 mul 0 V
  hpt neg vpt 1.62 mul V closepath stroke
  Pnt} def
/Star {2 copy Pls Crs} def
/BoxF {stroke [] 0 setdash exch hpt sub exch vpt add M
  0 vpt2 neg V hpt2 0 V 0 vpt2 V
  hpt2 neg 0 V closepath fill} def
/TriUF {stroke [] 0 setdash vpt 1.12 mul add M
  hpt neg vpt -1.62 mul V
  hpt 2 mul 0 V
  hpt neg vpt 1.62 mul V closepath fill} def
/TriD {stroke [] 0 setdash 2 copy vpt 1.12 mul sub M
  hpt neg vpt 1.62 mul V
  hpt 2 mul 0 V
  hpt neg vpt -1.62 mul V closepath stroke
  Pnt} def
/TriDF {stroke [] 0 setdash vpt 1.12 mul sub M
  hpt neg vpt 1.62 mul V
  hpt 2 mul 0 V
  hpt neg vpt -1.62 mul V closepath fill} def
/DiaF {stroke [] 0 setdash vpt add M
  hpt neg vpt neg V hpt vpt neg V
  hpt vpt V hpt neg vpt V closepath fill} def
/Pent {stroke [] 0 setdash 2 copy gsave
  translate 0 hpt M 4 {72 rotate 0 hpt L} repeat
  closepath stroke grestore Pnt} def
/PentF {stroke [] 0 setdash gsave
  translate 0 hpt M 4 {72 rotate 0 hpt L} repeat
  closepath fill grestore} def
/Circle {stroke [] 0 setdash 2 copy
  hpt 0 360 arc stroke Pnt} def
/CircleF {stroke [] 0 setdash hpt 0 360 arc fill} def
/C0 {BL [] 0 setdash 2 copy moveto vpt 90 450 arc} bind def
/C1 {BL [] 0 setdash 2 copy moveto
	2 copy vpt 0 90 arc closepath fill
	vpt 0 360 arc closepath} bind def
/C2 {BL [] 0 setdash 2 copy moveto
	2 copy vpt 90 180 arc closepath fill
	vpt 0 360 arc closepath} bind def
/C3 {BL [] 0 setdash 2 copy moveto
	2 copy vpt 0 180 arc closepath fill
	vpt 0 360 arc closepath} bind def
/C4 {BL [] 0 setdash 2 copy moveto
	2 copy vpt 180 270 arc closepath fill
	vpt 0 360 arc closepath} bind def
/C5 {BL [] 0 setdash 2 copy moveto
	2 copy vpt 0 90 arc
	2 copy moveto
	2 copy vpt 180 270 arc closepath fill
	vpt 0 360 arc} bind def
/C6 {BL [] 0 setdash 2 copy moveto
	2 copy vpt 90 270 arc closepath fill
	vpt 0 360 arc closepath} bind def
/C7 {BL [] 0 setdash 2 copy moveto
	2 copy vpt 0 270 arc closepath fill
	vpt 0 360 arc closepath} bind def
/C8 {BL [] 0 setdash 2 copy moveto
	2 copy vpt 270 360 arc closepath fill
	vpt 0 360 arc closepath} bind def
/C9 {BL [] 0 setdash 2 copy moveto
	2 copy vpt 270 450 arc closepath fill
	vpt 0 360 arc closepath} bind def
/C10 {BL [] 0 setdash 2 copy 2 copy moveto vpt 270 360 arc closepath fill
	2 copy moveto
	2 copy vpt 90 180 arc closepath fill
	vpt 0 360 arc closepath} bind def
/C11 {BL [] 0 setdash 2 copy moveto
	2 copy vpt 0 180 arc closepath fill
	2 copy moveto
	2 copy vpt 270 360 arc closepath fill
	vpt 0 360 arc closepath} bind def
/C12 {BL [] 0 setdash 2 copy moveto
	2 copy vpt 180 360 arc closepath fill
	vpt 0 360 arc closepath} bind def
/C13 {BL [] 0 setdash 2 copy moveto
	2 copy vpt 0 90 arc closepath fill
	2 copy moveto
	2 copy vpt 180 360 arc closepath fill
	vpt 0 360 arc closepath} bind def
/C14 {BL [] 0 setdash 2 copy moveto
	2 copy vpt 90 360 arc closepath fill
	vpt 0 360 arc} bind def
/C15 {BL [] 0 setdash 2 copy vpt 0 360 arc closepath fill
	vpt 0 360 arc closepath} bind def
/Rec {newpath 4 2 roll moveto 1 index 0 rlineto 0 exch rlineto
	neg 0 rlineto closepath} bind def
/Square {dup Rec} bind def
/Bsquare {vpt sub exch vpt sub exch vpt2 Square} bind def
/S0 {BL [] 0 setdash 2 copy moveto 0 vpt rlineto BL Bsquare} bind def
/S1 {BL [] 0 setdash 2 copy vpt Square fill Bsquare} bind def
/S2 {BL [] 0 setdash 2 copy exch vpt sub exch vpt Square fill Bsquare} bind def
/S3 {BL [] 0 setdash 2 copy exch vpt sub exch vpt2 vpt Rec fill Bsquare} bind def
/S4 {BL [] 0 setdash 2 copy exch vpt sub exch vpt sub vpt Square fill Bsquare} bind def
/S5 {BL [] 0 setdash 2 copy 2 copy vpt Square fill
	exch vpt sub exch vpt sub vpt Square fill Bsquare} bind def
/S6 {BL [] 0 setdash 2 copy exch vpt sub exch vpt sub vpt vpt2 Rec fill Bsquare} bind def
/S7 {BL [] 0 setdash 2 copy exch vpt sub exch vpt sub vpt vpt2 Rec fill
	2 copy vpt Square fill Bsquare} bind def
/S8 {BL [] 0 setdash 2 copy vpt sub vpt Square fill Bsquare} bind def
/S9 {BL [] 0 setdash 2 copy vpt sub vpt vpt2 Rec fill Bsquare} bind def
/S10 {BL [] 0 setdash 2 copy vpt sub vpt Square fill 2 copy exch vpt sub exch vpt Square fill
	Bsquare} bind def
/S11 {BL [] 0 setdash 2 copy vpt sub vpt Square fill 2 copy exch vpt sub exch vpt2 vpt Rec fill
	Bsquare} bind def
/S12 {BL [] 0 setdash 2 copy exch vpt sub exch vpt sub vpt2 vpt Rec fill Bsquare} bind def
/S13 {BL [] 0 setdash 2 copy exch vpt sub exch vpt sub vpt2 vpt Rec fill
	2 copy vpt Square fill Bsquare} bind def
/S14 {BL [] 0 setdash 2 copy exch vpt sub exch vpt sub vpt2 vpt Rec fill
	2 copy exch vpt sub exch vpt Square fill Bsquare} bind def
/S15 {BL [] 0 setdash 2 copy Bsquare fill Bsquare} bind def
/D0 {gsave translate 45 rotate 0 0 S0 stroke grestore} bind def
/D1 {gsave translate 45 rotate 0 0 S1 stroke grestore} bind def
/D2 {gsave translate 45 rotate 0 0 S2 stroke grestore} bind def
/D3 {gsave translate 45 rotate 0 0 S3 stroke grestore} bind def
/D4 {gsave translate 45 rotate 0 0 S4 stroke grestore} bind def
/D5 {gsave translate 45 rotate 0 0 S5 stroke grestore} bind def
/D6 {gsave translate 45 rotate 0 0 S6 stroke grestore} bind def
/D7 {gsave translate 45 rotate 0 0 S7 stroke grestore} bind def
/D8 {gsave translate 45 rotate 0 0 S8 stroke grestore} bind def
/D9 {gsave translate 45 rotate 0 0 S9 stroke grestore} bind def
/D10 {gsave translate 45 rotate 0 0 S10 stroke grestore} bind def
/D11 {gsave translate 45 rotate 0 0 S11 stroke grestore} bind def
/D12 {gsave translate 45 rotate 0 0 S12 stroke grestore} bind def
/D13 {gsave translate 45 rotate 0 0 S13 stroke grestore} bind def
/D14 {gsave translate 45 rotate 0 0 S14 stroke grestore} bind def
/D15 {gsave translate 45 rotate 0 0 S15 stroke grestore} bind def
/DiaE {stroke [] 0 setdash vpt add M
  hpt neg vpt neg V hpt vpt neg V
  hpt vpt V hpt neg vpt V closepath stroke} def
/BoxE {stroke [] 0 setdash exch hpt sub exch vpt add M
  0 vpt2 neg V hpt2 0 V 0 vpt2 V
  hpt2 neg 0 V closepath stroke} def
/TriUE {stroke [] 0 setdash vpt 1.12 mul add M
  hpt neg vpt -1.62 mul V
  hpt 2 mul 0 V
  hpt neg vpt 1.62 mul V closepath stroke} def
/TriDE {stroke [] 0 setdash vpt 1.12 mul sub M
  hpt neg vpt 1.62 mul V
  hpt 2 mul 0 V
  hpt neg vpt -1.62 mul V closepath stroke} def
/PentE {stroke [] 0 setdash gsave
  translate 0 hpt M 4 {72 rotate 0 hpt L} repeat
  closepath stroke grestore} def
/CircE {stroke [] 0 setdash 
  hpt 0 360 arc stroke} def
/Opaque {gsave closepath 1 setgray fill grestore 0 setgray closepath} def
/DiaW {stroke [] 0 setdash vpt add M
  hpt neg vpt neg V hpt vpt neg V
  hpt vpt V hpt neg vpt V Opaque stroke} def
/BoxW {stroke [] 0 setdash exch hpt sub exch vpt add M
  0 vpt2 neg V hpt2 0 V 0 vpt2 V
  hpt2 neg 0 V Opaque stroke} def
/TriUW {stroke [] 0 setdash vpt 1.12 mul add M
  hpt neg vpt -1.62 mul V
  hpt 2 mul 0 V
  hpt neg vpt 1.62 mul V Opaque stroke} def
/TriDW {stroke [] 0 setdash vpt 1.12 mul sub M
  hpt neg vpt 1.62 mul V
  hpt 2 mul 0 V
  hpt neg vpt -1.62 mul V Opaque stroke} def
/PentW {stroke [] 0 setdash gsave
  translate 0 hpt M 4 {72 rotate 0 hpt L} repeat
  Opaque stroke grestore} def
/CircW {stroke [] 0 setdash 
  hpt 0 360 arc Opaque stroke} def
/BoxFill {gsave Rec 1 setgray fill grestore} def
/Density {
  /Fillden exch def
  currentrgbcolor
  /ColB exch def /ColG exch def /ColR exch def
  /ColR ColR Fillden mul Fillden sub 1 add def
  /ColG ColG Fillden mul Fillden sub 1 add def
  /ColB ColB Fillden mul Fillden sub 1 add def
  ColR ColG ColB setrgbcolor} def
/BoxColFill {gsave Rec PolyFill} def
/PolyFill {gsave Density fill grestore grestore} def
/h {rlineto rlineto rlineto gsave closepath fill grestore} bind def
%
% PostScript Level 1 Pattern Fill routine for rectangles
% Usage: x y w h s a XX PatternFill
%	x,y = lower left corner of box to be filled
%	w,h = width and height of box
%	  a = angle in degrees between lines and x-axis
%	 XX = 0/1 for no/yes cross-hatch
%
/PatternFill {gsave /PFa [ 9 2 roll ] def
  PFa 0 get PFa 2 get 2 div add PFa 1 get PFa 3 get 2 div add translate
  PFa 2 get -2 div PFa 3 get -2 div PFa 2 get PFa 3 get Rec
  TransparentPatterns {} {gsave 1 setgray fill grestore} ifelse
  clip
  currentlinewidth 0.5 mul setlinewidth
  /PFs PFa 2 get dup mul PFa 3 get dup mul add sqrt def
  0 0 M PFa 5 get rotate PFs -2 div dup translate
  0 1 PFs PFa 4 get div 1 add floor cvi
	{PFa 4 get mul 0 M 0 PFs V} for
  0 PFa 6 get ne {
	0 1 PFs PFa 4 get div 1 add floor cvi
	{PFa 4 get mul 0 2 1 roll M PFs 0 V} for
 } if
  stroke grestore} def
%
/languagelevel where
 {pop languagelevel} {1} ifelse
 2 lt
	{/InterpretLevel1 true def}
	{/InterpretLevel1 Level1 def}
 ifelse
%
% PostScript level 2 pattern fill definitions
%
/Level2PatternFill {
/Tile8x8 {/PaintType 2 /PatternType 1 /TilingType 1 /BBox [0 0 8 8] /XStep 8 /YStep 8}
	bind def
/KeepColor {currentrgbcolor [/Pattern /DeviceRGB] setcolorspace} bind def
<< Tile8x8
 /PaintProc {0.5 setlinewidth pop 0 0 M 8 8 L 0 8 M 8 0 L stroke} 
>> matrix makepattern
/Pat1 exch def
<< Tile8x8
 /PaintProc {0.5 setlinewidth pop 0 0 M 8 8 L 0 8 M 8 0 L stroke
	0 4 M 4 8 L 8 4 L 4 0 L 0 4 L stroke}
>> matrix makepattern
/Pat2 exch def
<< Tile8x8
 /PaintProc {0.5 setlinewidth pop 0 0 M 0 8 L
	8 8 L 8 0 L 0 0 L fill}
>> matrix makepattern
/Pat3 exch def
<< Tile8x8
 /PaintProc {0.5 setlinewidth pop -4 8 M 8 -4 L
	0 12 M 12 0 L stroke}
>> matrix makepattern
/Pat4 exch def
<< Tile8x8
 /PaintProc {0.5 setlinewidth pop -4 0 M 8 12 L
	0 -4 M 12 8 L stroke}
>> matrix makepattern
/Pat5 exch def
<< Tile8x8
 /PaintProc {0.5 setlinewidth pop -2 8 M 4 -4 L
	0 12 M 8 -4 L 4 12 M 10 0 L stroke}
>> matrix makepattern
/Pat6 exch def
<< Tile8x8
 /PaintProc {0.5 setlinewidth pop -2 0 M 4 12 L
	0 -4 M 8 12 L 4 -4 M 10 8 L stroke}
>> matrix makepattern
/Pat7 exch def
<< Tile8x8
 /PaintProc {0.5 setlinewidth pop 8 -2 M -4 4 L
	12 0 M -4 8 L 12 4 M 0 10 L stroke}
>> matrix makepattern
/Pat8 exch def
<< Tile8x8
 /PaintProc {0.5 setlinewidth pop 0 -2 M 12 4 L
	-4 0 M 12 8 L -4 4 M 8 10 L stroke}
>> matrix makepattern
/Pat9 exch def
/Pattern1 {PatternBgnd KeepColor Pat1 setpattern} bind def
/Pattern2 {PatternBgnd KeepColor Pat2 setpattern} bind def
/Pattern3 {PatternBgnd KeepColor Pat3 setpattern} bind def
/Pattern4 {PatternBgnd KeepColor Landscape {Pat5} {Pat4} ifelse setpattern} bind def
/Pattern5 {PatternBgnd KeepColor Landscape {Pat4} {Pat5} ifelse setpattern} bind def
/Pattern6 {PatternBgnd KeepColor Landscape {Pat9} {Pat6} ifelse setpattern} bind def
/Pattern7 {PatternBgnd KeepColor Landscape {Pat8} {Pat7} ifelse setpattern} bind def
} def
%
%
%End of PostScript Level 2 code
%
/PatternBgnd {
  TransparentPatterns {} {gsave 1 setgray fill grestore} ifelse
} def
%
% Substitute for Level 2 pattern fill codes with
% grayscale if Level 2 support is not selected.
%
/Level1PatternFill {
/Pattern1 {0.250 Density} bind def
/Pattern2 {0.500 Density} bind def
/Pattern3 {0.750 Density} bind def
/Pattern4 {0.125 Density} bind def
/Pattern5 {0.375 Density} bind def
/Pattern6 {0.625 Density} bind def
/Pattern7 {0.875 Density} bind def
} def
%
% Now test for support of Level 2 code
%
Level1 {Level1PatternFill} {Level2PatternFill} ifelse
%
/Symbol-Oblique /Symbol findfont [1 0 .167 1 0 0] makefont
dup length dict begin {1 index /FID eq {pop pop} {def} ifelse} forall
currentdict end definefont pop
/MFshow {
   { dup 5 get 3 ge
     { 5 get 3 eq {gsave} {grestore} ifelse }
     {dup dup 0 get findfont exch 1 get scalefont setfont
     [ currentpoint ] exch dup 2 get 0 exch R dup 5 get 2 ne {dup dup 6
     get exch 4 get {Gshow} {stringwidth pop 0 R} ifelse }if dup 5 get 0 eq
     {dup 3 get {2 get neg 0 exch R pop} {pop aload pop M} ifelse} {dup 5
     get 1 eq {dup 2 get exch dup 3 get exch 6 get stringwidth pop -2 div
     dup 0 R} {dup 6 get stringwidth pop -2 div 0 R 6 get
     show 2 index {aload pop M neg 3 -1 roll neg R pop pop} {pop pop pop
     pop aload pop M} ifelse }ifelse }ifelse }
     ifelse }
   forall} def
/Gswidth {dup type /stringtype eq {stringwidth} {pop (n) stringwidth} ifelse} def
/MFwidth {0 exch { dup 5 get 3 ge { 5 get 3 eq { 0 } { pop } ifelse }
 {dup 3 get{dup dup 0 get findfont exch 1 get scalefont setfont
     6 get Gswidth pop add} {pop} ifelse} ifelse} forall} def
/MLshow { currentpoint stroke M
  0 exch R
  Blacktext {gsave 0 setgray MFshow grestore} {MFshow} ifelse } bind def
/MRshow { currentpoint stroke M
  exch dup MFwidth neg 3 -1 roll R
  Blacktext {gsave 0 setgray MFshow grestore} {MFshow} ifelse } bind def
/MCshow { currentpoint stroke M
  exch dup MFwidth -2 div 3 -1 roll R
  Blacktext {gsave 0 setgray MFshow grestore} {MFshow} ifelse } bind def
/XYsave    { [( ) 1 2 true false 3 ()] } bind def
/XYrestore { [( ) 1 2 true false 4 ()] } bind def
Level1 SuppressPDFMark or 
{} {
/SDict 10 dict def
systemdict /pdfmark known not {
  userdict /pdfmark systemdict /cleartomark get put
} if
SDict begin [
  /Title (figdraw6.eps)
  /Subject (gnuplot plot)
  /Creator (gnuplot 4.6 patchlevel 5)
  /Author (yurchor)
%  /Producer (gnuplot)
%  /Keywords ()
  /CreationDate (Sat Sep 19 20:41:42 2015)
  /DOCINFO pdfmark
end
} ifelse
end
%%EndProlog
%%Page: 1 1
gnudict begin
gsave
doclip
50 50 translate
0.050 0.050 scale
0 setgray
newpath
(Helvetica) findfont 140 scalefont setfont
BackgroundColor 0 lt 3 1 roll 0 lt exch 0 lt or or not {BackgroundColor C 1.000 0 0 3400.00 2834.00 BoxColFill} if
gsave % colour palette begin
/maxcolors 0 def
/HSV2RGB {  exch dup 0.0 eq {pop exch pop dup dup} % achromatic gray
  { /HSVs exch def /HSVv exch def 6.0 mul dup floor dup 3 1 roll sub
     /HSVf exch def /HSVi exch cvi def /HSVp HSVv 1.0 HSVs sub mul def
	 /HSVq HSVv 1.0 HSVs HSVf mul sub mul def 
	 /HSVt HSVv 1.0 HSVs 1.0 HSVf sub mul sub mul def
	 /HSVi HSVi 6 mod def 0 HSVi eq {HSVv HSVt HSVp}
	 {1 HSVi eq {HSVq HSVv HSVp}{2 HSVi eq {HSVp HSVv HSVt}
	 {3 HSVi eq {HSVp HSVq HSVv}{4 HSVi eq {HSVt HSVp HSVv}
	 {HSVv HSVp HSVq} ifelse} ifelse} ifelse} ifelse} ifelse
  } ifelse} def
/Constrain {
  dup 0 lt {0 exch pop}{dup 1 gt {1 exch pop} if} ifelse} def
/YIQ2RGB {
  3 copy -1.702 mul exch -1.105 mul add add Constrain 4 1 roll
  3 copy -0.647 mul exch -0.272 mul add add Constrain 5 1 roll
  0.621 mul exch -0.956 mul add add Constrain 3 1 roll } def
/CMY2RGB {  1 exch sub exch 1 exch sub 3 2 roll 1 exch sub 3 1 roll exch } def
/XYZ2RGB {  3 copy -0.9017 mul exch -0.1187 mul add exch 0.0585 mul exch add
  Constrain 4 1 roll 3 copy -0.0279 mul exch 1.999 mul add exch
  -0.9844 mul add Constrain 5 1 roll -0.2891 mul exch -0.5338 mul add
  exch 1.91 mul exch add Constrain 3 1 roll} def
/SelectSpace {ColorSpace (HSV) eq {HSV2RGB}{ColorSpace (XYZ) eq {
  XYZ2RGB}{ColorSpace (CMY) eq {CMY2RGB}{ColorSpace (YIQ) eq {YIQ2RGB}
  if} ifelse} ifelse} ifelse} def
/InterpolatedColor false def
/pm3dround {maxcolors 0 gt {dup 1 ge
	{pop 1} {maxcolors mul floor maxcolors 1 sub div} ifelse} if} def
/pm3dGamma 1.0 1.5 Gamma mul div def
/ColorSpace (RGB) def
false { % COLOUR vs. GRAY map
  InterpolatedColor { %% Interpolation vs. RGB-Formula
    /g {stroke pm3dround /grayv exch def interpolate
        SelectSpace setrgbcolor} bind def
  }{
  /g {stroke pm3dround dup cF7 Constrain exch dup cF5 Constrain exch cF15 Constrain 
       SelectSpace setrgbcolor} bind def
  } ifelse
}{
  /g {stroke pm3dround pm3dGamma exp setgray} bind def
} ifelse
1.000 UL
LTb
1.00 1.00 1.00 C 1.000 0 0 3399 2833 BoxColFill
1.000 UL
LTb
1.000 UP
% Begin plot #1
% End plot #1
% Begin plot #2
1.000 UL
LT0
1.00 1.00 0.98 C 1.000 UL
LT0
1.00 1.00 0.98 C % End plot #2
0 g 1365 1639 N 28 18 49 -10 -28 -18 h
0 g 1414 1629 N 28 18 48 -10 -28 -18 h
0 g 1337 1621 N 28 17 48 -10 -27 -17 h
0 g 1462 1619 N 28 18 49 -10 -28 -18 h
0 g 1386 1611 N 28 17 48 -10 -28 -17 h
0 g 1511 1609 N 28 17 48 -10 -28 -18 h
0 g 1310 1604 N 28 18 48 -10 -28 -18 h
0 g 1434 1601 N 28 18 49 -11 -28 -17 h
0 g 1559 1598 N 28 17 49 -10 -28 -17 h
0 g 1358 1594 N 28 18 48 -10 -28 -18 h
0 g 1483 1591 N 28 18 48 -10 -28 -18 h
0 g 1608 1588 N 28 17 48 -10 -28 -17 h
0 g 1282 1586 N 28 17 48 -10 -28 -17 h
0 g 1406 1584 N 28 17 49 -10 -28 -18 h
0 g 1531 1581 N 28 18 49 -10 -28 -18 h
0 g 1656 1578 N 27 17 49 -10 -28 -17 h
0 g 1330 1576 N 28 18 48 -11 -28 -17 h
0 g 1455 1573 N 28 17 48 -10 -28 -17 h
.0001 g 1580 1571 N 28 18 48 -10 -28 -18 h
0 g 1254 1569 N 28 18 48 -10 -28 -18 h
.0001 g 1704 1568 N 28 18 47 -11 -27 -17 h
0 g 1378 1566 N 28 18 49 -10 -28 -18 h
.0001 g 1503 1563 N 28 17 49 -10 -28 -17 h
.0001 g 1628 1561 N 28 18 49 -10 -28 -18 h
0 g 1302 1559 N 28 17 48 -10 -28 -18 h
.0001 g 1752 1558 N 28 18 48 -10 -28 -18 h
.0001 g 1427 1556 N 28 18 48 -10 -28 -18 h
.0002 g 1552 1553 N 28 17 48 -10 -28 -17 h
0 g 1226 1551 N 28 18 48 -11 -28 -17 h
.0002 g 1677 1551 N 27 17 48 -10 -28 -18 h
.0001 g 1350 1548 N 28 17 49 -10 -28 -17 h
.0002 g 1800 1548 N 28 18 49 -10 -28 -18 h
.0002 g 1475 1546 N 28 18 49 -10 -28 -18 h
.0003 g 1600 1543 N 28 17 49 -10 -28 -17 h
0 g 1274 1541 N 27 18 49 -10 -28 -18 h
.0004 g 1724 1540 N 28 17 47 -10 -27 -17 h
.0002 g 1399 1538 N 28 17 48 -10 -28 -17 h
.0003 g 1849 1538 N 28 18 48 -10 -28 -18 h
.0004 g 1524 1536 N 28 18 48 -10 -28 -18 h
0 g 1198 1534 N 28 17 48 -10 -28 -18 h
.0006 g 1649 1533 N 28 17 48 -10 -28 -17 h
.0001 g 1322 1531 N 28 18 48 -10 -27 -18 h
.0007 g 1772 1530 N 28 17 49 -10 -28 -17 h
.0004 g 1447 1528 N 28 17 49 -10 -28 -17 h
.0005 g 1897 1528 N 28 17 49 -10 -28 -18 h
.0008 g 1572 1526 N 28 17 49 -9 -28 -18 h
.0001 g 1246 1523 N 28 17 49 -10 -28 -17 h
.001 g 1697 1523 N 28 17 47 -10 -28 -17 h
.0003 g 1371 1521 N 28 18 48 -10 -28 -18 h
.001 g 1821 1520 N 28 17 48 -10 -28 -17 h
.0008 g 1496 1518 N 28 17 48 -10 -28 -17 h
.0006 g 1946 1517 N 28 17 48 -10 -28 -17 h
0 g 1170 1516 N 28 18 48 -10 -28 -18 h
.0014 g 1621 1516 N 28 17 48 -10 -28 -17 h
.0002 g 1295 1513 N 28 17 48 -10 -28 -17 h
.0017 g 1744 1513 N 28 16 49 -9 -28 -17 h
.0008 g 1419 1511 N 28 17 49 -9 -28 -18 h
.0013 g 1869 1510 N 28 16 49 -9 -28 -17 h
.0017 g 1544 1508 N 28 17 49 -9 -28 -17 h
.0007 g 1994 1507 N 28 17 49 -10 -28 -17 h
.0001 g 1218 1506 N 28 18 49 -10 -28 -18 h
.0025 g 1669 1506 N 26 16 49 -9 -28 -17 h
.0006 g 1343 1503 N 28 17 48 -10 -28 -17 h
.0025 g 1793 1503 N 28 15 48 -9 -28 -16 h
.0017 g 1468 1501 N 28 16 48 -9 -28 -17 h
.0017 g 1918 1500 N 28 16 48 -10 -28 -16 h
.0001 g 1142 1498 N 28 17 48 -10 -28 -17 h
.0008 g 2043 1497 N 28 17 48 -10 -28 -17 h
.0031 g 1593 1499 N 28 15 48 -8 -28 -17 h
.0004 g 1267 1496 N 28 17 48 -9 -28 -18 h
.004 g 1716 1496 N 28 15 47 -8 -26 -16 h
.0014 g 1391 1493 N 28 17 49 -9 -28 -17 h
.0034 g 1841 1493 N 28 16 49 -10 -28 -15 h
.0034 g 1516 1491 N 28 15 49 -8 -28 -16 h
.002 g 1966 1490 N 28 16 49 -10 -28 -16 h
.0002 g 1190 1488 N 28 17 49 -10 -28 -17 h
.0008 g 2091 1487 N 27 17 49 -10 -28 -17 h
.0054 g 1641 1489 N 28 14 49 -8 -28 -15 h
.001 g 1315 1486 N 28 17 48 -10 -28 -17 h
.0059 g 1765 1487 N 28 14 48 -8 -28 -15 h
.0031 g 1440 1484 N 28 16 48 -8 -28 -17 h
.0001 g 1114 1481 N 28 18 48 -10 -28 -18 h
.0043 g 1890 1484 N 28 15 48 -9 -28 -16 h
.0021 g 2015 1480 N 28 16 48 -10 -28 -16 h
.0007 g 1239 1478 N 28 18 48 -10 -28 -17 h
.0064 g 1565 1482 N 28 14 48 -7 -28 -15 h
.0007 g 2139 1477 N 28 17 48 -10 -27 -17 h
.0025 g 1363 1476 N 28 16 49 -8 -28 -17 h
.0087 g 1690 1480 N 28 12 47 -6 -28 -14 h
.008 g 1813 1478 N 28 12 49 -8 -28 -14 h
.0003 g 1162 1471 N 28 18 49 -10 -28 -18 h
.005 g 1938 1474 N 28 14 49 -9 -28 -15 h
.0064 g 1488 1475 N 28 14 49 -6 -28 -16 h
.0021 g 2063 1470 N 28 16 49 -10 -28 -16 h
.0017 g 1287 1469 N 28 17 48 -9 -28 -18 h
.0006 g 2188 1467 N 28 18 48 -11 -28 -17 h
.011 g 1613 1474 N 28 11 49 -5 -28 -14 h
.0002 g 1086 1463 N 28 17 48 -10 -28 -17 h
.0054 g 1412 1467 N 28 15 48 -7 -28 -16 h
.0129 g 1737 1472 N 28 10 48 -6 -28 -12 h
.0102 g 1862 1468 N 28 11 48 -8 -28 -12 h
.001 g 1211 1461 N 28 17 48 -9 -28 -18 h
.0054 g 1987 1464 N 28 14 48 -10 -28 -14 h
.002 g 2112 1460 N 28 17 48 -11 -28 -16 h
.0119 g 1537 1467 N 28 11 48 -4 -28 -14 h
.004 g 1335 1459 N 28 16 49 -7 -28 -17 h
.0005 g 2236 1457 N 28 17 49 -10 -28 -18 h
.0176 g 1662 1466 N 27 8 48 -3 -28 -11 h
.0005 g 1134 1453 N 28 17 49 -10 -28 -17 h
.011 g 1460 1459 N 28 13 49 -4 -28 -15 h
.0176 g 1785 1464 N 28 7 49 -5 -28 -10 h
.0119 g 1910 1459 N 28 11 49 -9 -28 -11 h
.0054 g 2035 1454 N 28 15 49 -11 -28 -14 h
.0025 g 1259 1451 N 27 16 49 -8 -28 -17 h
.0017 g 2160 1450 N 28 16 48 -10 -28 -17 h
.0003 g 2285 1446 N 28 17 48 -10 -28 -17 h
.0002 g 1058 1446 N 28 18 48 -10 -28 -18 h
.0206 g 1585 1460 N 28 7 49 -1 -28 -11 h
.0087 g 1384 1451 N 28 14 48 -5 -28 -16 h
.0013 g 1183 1443 N 28 17 48 -9 -28 -17 h
.0261 g 1709 1460 N 28 3 47 -1 -27 -8 h
.0129 g 1959 1450 N 28 11 48 -10 -28 -11 h
.005 g 2084 1444 N 28 14 48 -10 -28 -15 h
.0223 g 1834 1456 N 28 5 48 -6 -28 -7 h
.0013 g 2208 1439 N 28 16 49 -10 -28 -16 h
.0059 g 1307 1442 N 28 16 48 -7 -27 -16 h
.0206 g 1509 1453 N 28 8 48 1 -28 -13 h
.0002 g 2333 1436 N 28 16 49 -9 -28 -17 h
.0006 g 1106 1436 N 28 16 49 -8 -28 -18 h
.0034 g 1231 1434 N 28 16 49 -7 -28 -17 h
.0176 g 1432 1444 N 28 10 49 0 -28 -14 h
.033 g 1634 1455 N 28 1 48 3 -28 -7 h
.0043 g 2132 1433 N 28 14 48 -10 -28 -14 h
.0129 g 2007 1440 N 28 10 49 -10 -28 -11 h
.001 g 2257 1429 N 28 16 48 -10 -28 -16 h
.0002 g 1030 1428 N 28 16 48 -10 -28 -16 h
.0261 g 1882 1448 N 28 3 49 -7 -28 -5 h
.0357 g 1757 1454 N 28 -1 49 -1 -28 -3 h
.0001 g 2382 1426 N 28 18 48 -11 -28 -16 h
.0129 g 1356 1435 N 28 13 48 -2 -28 -16 h
.0017 g 1155 1426 N 28 16 48 -9 -28 -16 h
.0357 g 1557 1449 N 28 1 49 6 -28 -8 h
.0119 g 2056 1429 N 28 11 48 -11 -28 -10 h
.0034 g 2180 1423 N 28 16 49 -12 -28 -14 h
.008 g 1280 1426 N 28 14 48 -5 -28 -16 h
.0007 g 2305 1419 N 28 18 49 -11 -28 -16 h
.0007 g 1078 1418 N 28 18 49 -10 -28 -16 h
.0282 g 1931 1439 N 28 3 48 -10 -28 -3 h
.0001 g 2430 1417 N 28 18 49 -10 -28 -18 h
.033 g 1481 1440 N 28 5 48 6 -28 -10 h
.0488 g 1682 1452 N 27 -6 48 6 -28 -1 h
.0451 g 1806 1449 N 28 -5 48 -2 -28 1 h
.0043 g 1203 1417 N 28 17 49 -8 -28 -16 h
.0102 g 2104 1419 N 28 13 48 -12 -28 -11 h
.0003 g 1002 1412 N 28 18 48 -10 -28 -18 h
.0261 g 1404 1430 N 28 9 49 4 -28 -13 h
.0025 g 2229 1413 N 28 17 48 -11 -28 -16 h
.0004 g 2354 1410 N 28 17 48 -10 -28 -18 h
.0282 g 1979 1429 N 28 3 49 -10 -28 -3 h
.002 g 1127 1410 N 28 18 48 -9 -28 -18 h
.0176 g 1328 1419 N 28 12 48 0 -28 -14 h
0 g 2479 1407 N 28 17 48 -10 -28 -18 h
.0571 g 1606 1448 N 28 -7 48 11 -28 -1 h
.0528 g 1854 1443 N 28 -8 49 -4 -28 5 h
.0102 g 1252 1410 N 28 16 48 -4 -28 -17 h
.008 g 2152 1409 N 28 13 49 -12 -28 -13 h
.0017 g 2277 1403 N 28 17 49 -11 -28 -17 h
.0008 g 1050 1402 N 28 18 49 -10 -28 -18 h
.0668 g 1729 1451 N 28 -13 48 6 -27 6 h
.0261 g 2028 1419 N 28 5 48 -13 -28 -3 h
.0002 g 2402 1399 N 28 17 49 -10 -28 -17 h
.0571 g 1529 1441 N 28 -4 49 15 -28 -5 h
.005 g 1175 1401 N 28 17 49 -7 -28 -18 h
0 g 2527 1396 N 28 17 48 -10 -28 -17 h
.0003 g 974 1394 N 28 18 48 -10 -28 -18 h
.0488 g 1453 1430 N 28 2 48 13 -28 -9 h
.0059 g 2201 1397 N 28 15 48 -13 -28 -13 h
.0571 g 1903 1436 N 28 -10 48 -8 -28 8 h
.001 g 2326 1392 N 28 17 48 -10 -28 -17 h
.0223 g 2076 1408 N 27 7 49 -14 -28 -5 h
.0357 g 1376 1417 N 28 7 49 9 -28 -12 h
.0021 g 1099 1392 N 28 17 48 -8 -28 -18 h
.0001 g 2451 1389 N 28 18 48 -11 -28 -17 h
.0223 g 1300 1405 N 28 13 48 3 -28 -16 h
0 g 2575 1386 N 28 17 49 -10 -28 -17 h
.0845 g 1654 1451 N 27 -18 49 17 -28 7 h
.0845 g 1778 1450 N 28 -20 48 5 -28 13 h
.0119 g 1224 1393 N 28 16 48 -3 -28 -17 h
.0008 g 1022 1384 N 28 17 49 -9 -28 -18 h
.004 g 2249 1386 N 28 15 49 -11 -28 -15 h
.0571 g 1951 1426 N 28 -7 49 -13 -28 10 h
.0176 g 2124 1396 N 28 10 48 -15 -27 -7 h
.0006 g 2374 1382 N 28 18 49 -11 -28 -17 h
.0054 g 1147 1383 N 28 17 49 -7 -28 -17 h
.0001 g 2499 1379 N 28 18 48 -10 -28 -18 h
.0914 g 1578 1447 N 28 -17 48 24 -28 4 h
.0002 g 946 1376 N 28 17 48 -10 -28 -17 h
0 g 2624 1376 N 28 18 48 -11 -28 -17 h
.0528 g 2000 1416 N 28 -5 48 -15 -28 7 h
.0025 g 2298 1375 N 28 17 48 -12 -28 -15 h
.0129 g 2173 1384 N 28 12 48 -15 -28 -10 h
.0021 g 1071 1374 N 28 18 48 -9 -28 -17 h
.0003 g 2423 1372 N 28 17 48 -10 -28 -18 h
.0845 g 1501 1436 N 28 -9 49 26 -28 -2 h
.0989 g 1826 1448 N 28 -25 49 1 -28 20 h
.0451 g 1348 1405 N 28 10 49 12 -28 -13 h
.0668 g 1425 1421 N 28 0 48 20 -28 -7 h
.0261 g 1272 1389 N 27 15 49 4 -28 -16 h
0 g 2547 1369 N 28 18 49 -10 -28 -18 h
.0451 g 2048 1403 N 28 -1 49 -18 -28 5 h
.0129 g 1196 1376 N 28 17 48 -3 -28 -17 h
.1157 g 1702 1457 N 28 -30 47 18 -27 18 h
0 g 2672 1366 N 28 18 49 -10 -28 -18 h
.0007 g 994 1366 N 28 18 49 -10 -28 -17 h
.0087 g 2221 1371 N 28 14 49 -13 -28 -12 h
.0014 g 2346 1365 N 28 17 49 -11 -28 -17 h
.0054 g 1119 1366 N 28 18 49 -7 -28 -18 h
.0002 g 2471 1361 N 27 17 49 -10 -28 -17 h
.0357 g 2097 1389 N 28 4 48 -20 -28 1 h
.1069 g 1875 1444 N 28 -27 48 -6 -28 25 h
.0002 g 918 1359 N 28 18 48 -10 -28 -18 h
0 g 2596 1359 N 28 17 48 -10 -28 -18 h
0 g 2721 1356 N 28 18 48 -10 -28 -18 h
.002 g 1043 1357 N 28 18 48 -9 -28 -18 h
.0054 g 2270 1360 N 28 15 48 -13 -28 -14 h
.0008 g 2395 1354 N 28 17 48 -10 -28 -17 h
.0261 g 2145 1374 N 28 7 48 -18 -28 -4 h
.1354 g 1626 1458 N 28 -31 49 31 -28 17 h
.0282 g 1244 1373 N 28 16 49 5 -28 -17 h
.0001 g 2519 1351 N 28 18 48 -11 -27 -17 h
.0528 g 1320 1392 N 28 11 48 16 -27 -15 h
.1069 g 1923 1436 N 28 -26 49 -14 -28 27 h
.0129 g 1168 1359 N 28 18 48 -3 -28 -18 h
.0006 g 966 1349 N 28 18 49 -10 -28 -18 h
0 g 2644 1348 N 28 17 49 -10 -28 -17 h
.1464 g 1750 1463 N 28 -40 48 15 -28 30 h
.0845 g 1397 1414 N 28 3 48 27 -28 -10 h
.0031 g 2318 1348 N 28 16 49 -12 -28 -15 h
.1354 g 1550 1451 N 28 -23 48 38 -28 9 h
.0176 g 2193 1359 N 28 12 49 -18 -28 -7 h
.005 g 1091 1348 N 28 18 49 -7 -28 -18 h
.1157 g 1473 1434 N 28 -11 49 37 -28 0 h
.0989 g 1972 1423 N 28 -20 48 -21 -28 26 h
.0004 g 2443 1344 N 28 18 49 -11 -28 -17 h
.0002 g 890 1341 N 28 17 48 -10 -28 -17 h
0 g 2568 1341 N 28 18 48 -10 -28 -18 h
.0845 g 2020 1408 N 28 -13 49 -25 -28 20 h
0 g 2693 1338 N 28 17 48 -10 -28 -17 h
.0017 g 1015 1339 N 28 18 48 -9 -28 -18 h
.011 g 2242 1346 N 28 14 48 -15 -28 -12 h
.0017 g 2367 1337 N 28 17 48 -11 -28 -16 h
.0668 g 2069 1390 N 28 -6 48 -27 -28 13 h
.0282 g 1216 1356 N 28 19 49 4 -28 -18 h
.0002 g 2492 1334 N 28 17 48 -10 -28 -18 h
.0571 g 1293 1377 N 28 16 48 16 -28 -16 h
.0119 g 1140 1341 N 28 19 48 -4 -28 -18 h
.1712 g 1798 1468 N 28 -47 49 8 -28 40 h
.0005 g 938 1331 N 28 17 49 -10 -28 -17 h
0 g 2616 1331 N 28 18 49 -10 -28 -18 h
.0488 g 2117 1370 N 28 2 48 -26 -28 6 h
.1852 g 1675 1475 N 27 -47 48 34 -28 31 h
.0064 g 2290 1333 N 28 16 49 -14 -28 -14 h
.0043 g 1063 1330 N 28 19 49 -8 -28 -18 h
.0989 g 1369 1404 N 28 7 48 31 -28 -11 h
.0008 g 2415 1327 N 28 17 49 -11 -28 -17 h
.033 g 2165 1352 N 28 7 49 -23 -28 -2 h
.0001 g 862 1324 N 27 18 49 -10 -28 -18 h
.0001 g 2540 1323 N 28 17 48 -10 -28 -17 h
0 g 2665 1321 N 28 18 48 -10 -28 -18 h
.0013 g 987 1321 N 28 18 48 -10 -28 -17 h
.1852 g 1847 1469 N 28 -50 48 -3 -28 47 h
.1464 g 1445 1434 N 28 -8 49 48 -28 -3 h
.0034 g 2339 1321 N 28 17 48 -12 -28 -16 h
.0261 g 1188 1338 N 28 21 49 2 -28 -19 h
.0206 g 2214 1334 N 28 11 48 -19 -28 -7 h
.0004 g 2464 1316 N 28 18 48 -11 -28 -17 h
.0571 g 1265 1361 N 28 19 48 16 -28 -19 h
.0102 g 1112 1323 N 28 20 48 -5 -28 -19 h
.2003 g 1598 1475 N 28 -41 49 49 -28 23 h
.0003 g 910 1314 N 28 18 48 -10 -27 -18 h
0 g 2588 1313 N 28 17 49 -10 -28 -17 h
.1852 g 1522 1460 N 28 -27 48 54 -28 11 h
.1852 g 1895 1463 N 28 -47 49 -17 -28 50 h
.0034 g 1035 1312 N 28 18 49 -8 -28 -18 h
.0119 g 2262 1319 N 28 14 49 -17 -28 -11 h
.0017 g 2387 1310 N 28 17 49 -11 -28 -17 h
.1069 g 1341 1393 N 28 12 48 35 -28 -16 h
.1712 g 1944 1449 N 28 -40 48 -28 -28 47 h
.0001 g 834 1306 N 28 18 49 -10 -28 -18 h
.0002 g 2512 1306 N 28 18 48 -10 -28 -18 h
.1464 g 1992 1428 N 28 -29 49 -36 -28 40 h
.1157 g 2041 1403 N 28 -18 48 -38 -28 29 h
.2343 g 1722 1493 N 28 -61 47 29 -27 47 h
.0845 g 2089 1376 N 28 -8 48 -36 -28 18 h
0 g 2637 1303 N 28 18 48 -11 -28 -17 h
.001 g 959 1304 N 28 18 48 -10 -28 -18 h
.0223 g 1160 1319 N 28 21 49 1 -28 -20 h
.0571 g 2137 1350 N 28 1 49 -32 -28 8 h
.0528 g 1237 1342 N 28 24 48 13 -28 -21 h
.0064 g 2311 1305 N 28 16 48 -14 -28 -14 h
.008 g 1084 1304 N 28 19 48 -6 -28 -18 h
.0008 g 2436 1299 N 28 17 48 -11 -28 -17 h
.0357 g 2186 1327 N 28 8 48 -26 -28 -1 h
.0002 g 883 1296 N 28 18 48 -10 -28 -18 h
.0001 g 2560 1296 N 28 18 49 -10 -28 -18 h
.1712 g 1417 1431 N 28 0 49 55 -28 -7 h
.0025 g 1007 1294 N 28 19 49 -9 -28 -18 h
.1069 g 1313 1377 N 28 22 48 32 -28 -19 h
.0031 g 2359 1293 N 28 17 49 -12 -28 -16 h
.0206 g 2234 1308 N 28 12 49 -21 -28 -8 h
0 g 806 1288 N 28 17 49 -10 -28 -17 h
.0003 g 2484 1288 N 27 17 49 -10 -28 -17 h
.0176 g 1132 1299 N 28 23 49 -3 -28 -19 h
.0007 g 931 1286 N 28 17 48 -9 -28 -18 h
0 g 2609 1286 N 28 17 48 -10 -28 -18 h
.0451 g 1209 1321 N 28 26 48 8 -28 -21 h
.2741 g 1770 1508 N 28 -71 49 18 -28 61 h
.2741 g 1647 1506 N 28 -60 48 53 -28 41 h
.2343 g 1494 1471 N 28 -22 48 68 -28 8 h
.0059 g 1056 1286 N 28 20 48 -7 -28 -19 h
.011 g 2283 1291 N 28 15 48 -17 -28 -12 h
.0014 g 2408 1282 N 28 17 48 -11 -28 -17 h
.0001 g 855 1278 N 28 17 48 -10 -28 -17 h
.0001 g 2532 1278 N 28 18 48 -11 -27 -17 h
.0989 g 1285 1358 N 28 28 48 28 -28 -24 h
.2741 g 1570 1498 N 28 -46 49 68 -28 27 h
.0017 g 979 1276 N 28 18 49 -10 -28 -17 h
.0914 g 2109 1358 N 28 -4 48 -44 -27 16 h
.1852 g 1389 1424 N 28 11 49 56 -28 -12 h
.0571 g 2158 1326 N 28 5 48 -35 -28 4 h
.0054 g 2331 1277 N 28 16 49 -13 -28 -15 h
.1354 g 2061 1394 N 27 -16 49 -50 -28 30 h
.2965 g 1819 1516 N 28 -74 48 0 -28 71 h
0 g 778 1271 N 28 18 49 -10 -28 -18 h
.0357 g 1181 1300 N 28 27 48 4 -28 -23 h
.0006 g 2456 1271 N 28 18 49 -11 -28 -17 h
.0129 g 1104 1280 N 28 22 49 -5 -28 -20 h
.033 g 2206 1300 N 28 11 49 -27 -28 -5 h
.0004 g 903 1268 N 28 18 48 -10 -28 -17 h
0 g 2581 1268 N 28 18 48 -10 -28 -18 h
.1852 g 2013 1432 N 28 -30 48 -55 -28 47 h
.0845 g 1257 1334 N 27 33 49 21 -28 -26 h
.004 g 1028 1267 N 28 19 48 -8 -28 -18 h
.2965 g 1867 1513 N 28 -71 49 -20 -28 74 h
.2741 g 1916 1496 N 28 -61 48 -38 -28 71 h
.2343 g 1964 1468 N 28 -47 49 -50 -28 61 h
.0025 g 2380 1265 N 28 17 48 -12 -28 -16 h
.0176 g 2255 1279 N 28 14 48 -20 -28 -11 h
.0001 g 827 1261 N 28 18 48 -10 -28 -18 h
.0002 g 2505 1261 N 28 17 48 -10 -28 -18 h
.1852 g 1361 1412 N 28 24 49 54 -28 -22 h
.001 g 951 1259 N 28 18 49 -10 -28 -18 h
.0261 g 1153 1277 N 28 26 48 0 -28 -22 h
.2741 g 1466 1479 N 28 -11 48 79 -28 0 h
.3468 g 1695 1540 N 28 -78 47 47 -28 60 h
.0087 g 2303 1262 N 28 16 49 -15 -28 -14 h
0 g 750 1253 N 28 17 49 -10 -28 -17 h
.0087 g 1076 1260 N 28 21 49 -7 -28 -19 h
.001 g 2428 1254 N 28 17 49 -11 -28 -17 h
.0668 g 1229 1308 N 28 34 49 14 -28 -27 h
.0002 g 875 1251 N 28 18 48 -10 -28 -18 h
.0001 g 2553 1250 N 28 17 48 -10 -28 -17 h
.0845 g 2130 1330 N 28 2 48 -46 -28 9 h
.0488 g 2178 1295 N 28 9 49 -34 -28 -2 h
.1712 g 1333 1390 N 28 35 49 47 -28 -28 h
.0025 g 1000 1249 N 28 19 48 -9 -28 -18 h
.004 g 2352 1249 N 28 17 48 -13 -28 -16 h
.0261 g 2227 1268 N 28 13 48 -24 -28 -9 h
.1354 g 2082 1374 N 28 -9 48 -59 -28 24 h
0 g 799 1243 N 28 18 48 -11 -28 -17 h
.0004 g 2477 1243 N 28 18 48 -11 -28 -17 h
.0176 g 1125 1255 N 28 25 48 -4 -28 -21 h
.0488 g 1201 1281 N 28 34 49 6 -28 -26 h
.0006 g 923 1241 N 28 18 49 -10 -28 -18 h
.3468 g 1542 1525 N 28 -39 49 85 -28 22 h
.1464 g 1305 1362 N 28 43 48 37 -27 -33 h
.3751 g 1619 1547 N 28 -66 48 73 -28 46 h
.0054 g 1048 1241 N 28 20 49 -8 -28 -19 h
.0129 g 2275 1248 N 28 16 49 -18 -28 -13 h
0 g 722 1236 N 28 18 49 -10 -28 -18 h
.0017 g 2400 1237 N 28 17 49 -11 -28 -17 h
.2003 g 2033 1424 N 28 -24 49 -68 -28 42 h
.2965 g 1438 1479 N 28 8 48 82 -28 -11 h
.0001 g 847 1233 N 27 18 49 -10 -28 -18 h
.0001 g 2525 1233 N 28 18 48 -10 -28 -18 h
.4057 g 1742 1569 N 28 -90 49 30 -28 78 h
.1157 g 1278 1329 N 28 46 48 25 -28 -34 h
.0014 g 972 1231 N 28 18 48 -9 -28 -18 h
.0668 g 2150 1293 N 28 8 49 -41 -28 -1 h
.033 g 1173 1255 N 28 30 49 1 -28 -25 h
.0059 g 2324 1233 N 28 17 48 -14 -28 -16 h
0 g 771 1226 N 28 17 48 -10 -28 -18 h
.0007 g 2449 1226 N 28 17 48 -11 -28 -17 h
.011 g 1097 1234 N 28 23 48 -7 -28 -20 h
.0357 g 2199 1259 N 28 13 48 -29 -28 -8 h
.2741 g 1985 1479 N 28 -42 48 -73 -28 60 h
.0003 g 895 1223 N 28 18 48 -10 -27 -18 h
.1157 g 2102 1339 N 28 1 48 -58 -28 11 h
.0845 g 1250 1295 N 28 44 48 15 -28 -34 h
.2965 g 1410 1468 N 28 28 48 78 -28 -24 h
.0031 g 1020 1222 N 28 19 49 -9 -28 -18 h
0 g 694 1218 N 28 18 49 -11 -28 -17 h
.0176 g 2247 1235 N 28 15 49 -20 -28 -13 h
.0025 g 2372 1220 N 28 18 49 -12 -28 -17 h
.4388 g 1791 1587 N 28 -95 48 5 -28 90 h
.0001 g 819 1215 N 28 17 49 -10 -28 -17 h
.0002 g 2497 1215 N 28 17 48 -10 -28 -17 h
.3468 g 1936 1529 N 28 -60 49 -68 -28 78 h
.0206 g 1145 1230 N 28 27 49 -3 -28 -23 h
.0008 g 944 1213 N 28 19 48 -10 -28 -18 h
.0571 g 1222 1261 N 28 39 48 6 -28 -30 h
.2741 g 1382 1444 N 28 45 48 68 -28 -35 h
.1852 g 2054 1398 N 28 -11 48 -73 -28 25 h
.4388 g 1839 1587 N 28 -90 49 -25 -28 95 h
.4057 g 1888 1567 N 28 -78 48 -50 -28 90 h
.008 g 2296 1217 N 28 16 48 -15 -28 -15 h
.4057 g 1514 1547 N 28 -23 49 97 -28 11 h
.0064 g 1069 1214 N 28 21 48 -9 -28 -19 h
0 g 743 1208 N 28 18 48 -10 -28 -18 h
.001 g 2421 1209 N 28 18 48 -11 -28 -18 h
.2343 g 1354 1409 N 28 58 48 53 -28 -43 h
.0451 g 2171 1251 N 28 13 48 -33 -28 -9 h
.0845 g 2122 1292 N 28 9 48 -48 -27 -2 h
.0002 g 868 1205 N 28 17 48 -10 -28 -17 h
.1852 g 1326 1366 N 28 60 48 39 -28 -46 h
.4746 g 1667 1600 N 26 -85 49 66 -28 66 h
.0017 g 992 1204 N 28 19 49 -9 -28 -19 h
0 g 666 1201 N 28 17 49 -10 -28 -18 h
.1354 g 1298 1320 N 28 59 48 24 -28 -44 h
.0034 g 2344 1203 N 28 17 49 -13 -28 -16 h
.0357 g 1194 1231 N 28 34 48 -1 -28 -27 h
.0223 g 2219 1222 N 28 16 49 -23 -28 -13 h
0 g 791 1198 N 28 18 49 -10 -28 -18 h
.0003 g 2469 1198 N 27 18 49 -10 -28 -18 h
.0119 g 1117 1207 N 28 24 49 -6 -28 -21 h
.1464 g 2074 1350 N 27 2 49 -68 -28 8 h
.4746 g 1591 1593 N 28 -58 48 92 -28 39 h
.2741 g 2005 1466 N 28 -25 49 -89 -28 46 h
.0004 g 916 1195 N 28 17 48 -10 -28 -17 h
.0914 g 1270 1276 N 27 52 49 11 -28 -39 h
.0034 g 1041 1195 N 28 19 48 -9 -28 -19 h
.0102 g 2268 1202 N 28 17 48 -16 -28 -16 h
0 g 715 1190 N 28 17 48 -10 -28 -17 h
.0013 g 2393 1191 N 28 17 48 -11 -28 -17 h
.0001 g 840 1188 N 28 18 48 -10 -28 -18 h
.0528 g 2143 1242 N 28 15 48 -36 -28 -12 h
.4388 g 1486 1558 N 28 3 49 102 -28 -8 h
.0206 g 1166 1204 N 28 28 48 -5 -28 -24 h
.0571 g 1242 1237 N 28 42 49 3 -28 -34 h
.0008 g 964 1185 N 28 18 49 -10 -28 -17 h
.0989 g 2095 1290 N 28 12 48 -53 -28 -7 h
0 g 638 1183 N 28 18 49 -10 -28 -18 h
.0043 g 2316 1187 N 28 17 49 -13 -28 -17 h
.0261 g 2191 1209 N 28 16 49 -24 -28 -15 h
.0064 g 1089 1186 N 28 22 49 -9 -28 -19 h
.2343 g 2026 1423 N 28 -8 48 -88 -28 23 h
0 g 763 1180 N 28 17 49 -10 -28 -17 h
.0005 g 2441 1180 N 28 17 49 -10 -28 -17 h
.3751 g 1957 1539 N 28 -46 48 -93 -28 66 h
.0002 g 888 1178 N 28 18 48 -10 -28 -18 h
.1354 g 1318 1300 N 28 66 48 17 -27 -52 h
.5552 g 1714 1647 N 28 -98 47 43 -26 85 h
.2003 g 1346 1359 N 28 76 49 31 -28 -59 h
.0017 g 1013 1176 N 28 19 48 -10 -28 -18 h
.4388 g 1458 1550 N 28 32 49 98 -28 -28 h
.0119 g 2240 1186 N 28 17 48 -17 -28 -16 h
.033 g 1214 1203 N 28 34 49 -3 -28 -28 h
0 g 687 1173 N 28 18 48 -10 -28 -18 h
.1712 g 2046 1358 N 28 7 49 -75 -28 0 h
.0017 g 2365 1174 N 28 17 48 -11 -28 -17 h
.2741 g 1374 1419 N 28 80 49 48 -28 -60 h
0 g 812 1170 N 28 18 48 -11 -28 -17 h
.011 g 1138 1180 N 28 24 48 -7 -28 -22 h
.0845 g 1291 1248 N 28 54 48 5 -28 -42 h
.4057 g 1430 1522 N 28 58 49 85 -28 -45 h
.3468 g 1402 1477 N 28 75 49 68 -28 -58 h
.0571 g 2115 1230 N 28 16 48 -37 -28 -15 h
.0004 g 936 1168 N 28 18 49 -10 -28 -18 h
0 g 610 1165 N 28 17 49 -10 -28 -17 h
.1069 g 2067 1283 N 28 15 48 -55 -28 -13 h
.005 g 2288 1170 N 28 17 49 -13 -28 -17 h
.0031 g 1061 1167 N 28 19 49 -9 -28 -19 h
.0282 g 2163 1194 N 28 17 49 -25 -28 -16 h
0 g 735 1163 N 28 18 49 -10 -28 -18 h
.4746 g 1908 1607 N 28 -66 49 -86 -28 84 h
.0006 g 2413 1163 N 28 18 49 -11 -28 -17 h
.5552 g 1563 1632 N 28 -36 48 105 -28 23 h
.0001 g 860 1160 N 27 18 49 -10 -28 -18 h
.0488 g 1263 1206 N 28 41 48 -2 -28 -34 h
.3468 g 1977 1512 N 28 -23 49 -105 -28 39 h
.6005 g 1763 1677 N 28 -102 48 9 -28 98 h
.0176 g 1186 1175 N 28 28 49 -7 -28 -24 h
.0008 g 985 1158 N 28 18 48 -10 -28 -18 h
.0129 g 2212 1170 N 28 17 48 -17 -28 -17 h
0 g 659 1155 N 28 17 48 -10 -28 -17 h
.6005 g 1811 1682 N 28 -98 49 -29 -28 102 h
.5552 g 1860 1657 N 28 -84 48 -64 -28 98 h
.002 g 2337 1157 N 28 18 48 -12 -28 -17 h
.6005 g 1639 1666 N 28 -75 49 83 -28 58 h
.1157 g 1339 1265 N 28 65 48 7 -28 -54 h
.0054 g 1110 1158 N 28 21 48 -9 -28 -19 h
.2741 g 1998 1446 N 28 0 48 -98 -28 10 h
.1852 g 2018 1358 N 28 13 49 -77 -28 -11 h
0 g 784 1153 N 28 17 48 -10 -28 -18 h
.1852 g 1367 1331 N 28 82 48 18 -28 -66 h
.0571 g 2087 1215 N 28 19 48 -36 -28 -20 h
.0002 g 908 1150 N 28 18 48 -10 -27 -18 h
.1069 g 2039 1270 N 28 20 48 -53 -28 -22 h
0 g 582 1148 N 28 18 49 -10 -28 -18 h
.0261 g 1235 1172 N 28 31 48 -5 -28 -28 h
.0054 g 2260 1153 N 28 18 49 -14 -28 -17 h
.0014 g 1033 1148 N 28 19 49 -10 -28 -18 h
.0668 g 1311 1211 N 28 49 48 -1 -28 -41 h
.0282 g 2135 1178 N 28 18 49 -24 -28 -19 h
0 g 707 1145 N 28 18 49 -11 -28 -17 h
.0007 g 2385 1146 N 28 18 49 -11 -28 -18 h
.2741 g 1395 1407 N 28 95 48 34 -28 -76 h
.0087 g 1158 1151 N 28 23 49 -9 -28 -21 h
0 g 832 1142 N 28 17 49 -10 -28 -17 h
.0003 g 957 1140 N 28 18 48 -10 -28 -18 h
.0129 g 2184 1153 N 28 18 48 -17 -28 -18 h
0 g 631 1138 N 28 18 48 -10 -28 -18 h
.1852 g 1990 1347 N 28 22 49 -75 -28 -24 h
.0021 g 2309 1140 N 28 17 48 -11 -28 -18 h
.1464 g 1387 1283 N 28 75 49 5 -28 -65 h
.0025 g 1082 1139 N 28 19 48 -9 -28 -19 h
.6005 g 1535 1655 N 28 -2 48 110 -28 -3 h
.0357 g 1283 1170 N 28 36 48 -6 -28 -31 h
.0528 g 2059 1195 N 27 20 49 -33 -28 -23 h
.0989 g 2011 1248 N 28 23 48 -48 -28 -28 h
0 g 756 1135 N 28 18 48 -10 -28 -18 h
.4746 g 1929 1605 N 28 -39 48 -112 -28 58 h
.0845 g 1359 1218 N 28 55 49 -1 -28 -49 h
.3751 g 1423 1487 N 28 101 48 53 -28 -80 h
.2965 g 1970 1456 N 28 11 48 -102 -28 -7 h
.0001 g 881 1132 N 28 17 48 -10 -28 -17 h
.0129 g 1207 1144 N 28 26 48 -8 -28 -23 h
.0006 g 1005 1130 N 28 18 49 -10 -28 -18 h
.0054 g 2232 1136 N 28 18 49 -14 -28 -18 h
.0261 g 2107 1159 N 28 19 48 -23 -27 -20 h
.2343 g 1415 1365 N 28 97 49 15 -28 -82 h
.4057 g 1949 1551 N 28 -10 49 -118 -28 23 h
0 g 679 1128 N 28 17 49 -10 -28 -18 h
.0008 g 2357 1128 N 28 17 49 -11 -28 -17 h
.004 g 1130 1130 N 28 20 49 -10 -28 -19 h
.1712 g 1962 1323 N 28 28 49 -68 -28 -35 h
.4746 g 1451 1562 N 28 93 48 74 -28 -75 h
.6005 g 1507 1652 N 28 37 48 105 -28 -32 h
.5552 g 1479 1620 N 28 71 48 92 -28 -58 h
0 g 804 1125 N 28 18 49 -10 -28 -18 h
.0451 g 1331 1169 N 28 41 49 -6 -28 -36 h
.7024 g 1688 1732 N 28 -87 47 55 -28 75 h
.0845 g 1983 1220 N 28 26 48 -41 -28 -33 h
.0001 g 929 1122 N 28 18 48 -11 -28 -17 h
.0989 g 1408 1223 N 28 61 48 -5 -28 -55 h
.0176 g 1255 1139 N 27 28 49 -8 -28 -26 h
.0119 g 2156 1135 N 28 18 48 -16 -28 -19 h
.1712 g 1436 1298 N 28 82 48 1 -28 -75 h
.0021 g 2281 1122 N 28 18 48 -11 -28 -18 h
.001 g 1054 1120 N 28 19 48 -10 -28 -18 h
.0451 g 2031 1172 N 28 22 49 -29 -28 -26 h
.2965 g 1942 1449 N 28 24 48 -98 -28 -28 h
0 g 728 1117 N 28 17 48 -10 -28 -17 h
.1464 g 1934 1288 N 28 33 49 -57 -28 -44 h
.0059 g 1179 1121 N 28 21 48 -9 -28 -20 h
.7024 g 1611 1724 N 28 -47 49 94 -28 36 h
0 g 853 1115 N 28 18 48 -10 -28 -18 h
.3468 g 1443 1460 N 28 112 49 30 -28 -95 h
.6005 g 1880 1691 N 28 -58 49 -103 -28 75 h
.0528 g 1380 1168 N 28 43 48 -7 -28 -41 h
.0223 g 2080 1139 N 28 20 48 -21 -28 -22 h
.0002 g 977 1112 N 28 18 49 -10 -28 -18 h
.005 g 2204 1118 N 28 17 49 -13 -28 -18 h
.1069 g 1456 1224 N 28 63 49 -8 -28 -61 h
.0223 g 1303 1133 N 28 30 48 -8 -27 -28 h
.2741 g 1914 1421 N 28 35 48 -88 -28 -45 h
.0008 g 2329 1111 N 28 18 49 -11 -28 -18 h
.0017 g 1102 1111 N 28 19 49 -10 -28 -19 h
.1157 g 1906 1244 N 28 34 49 -45 -28 -46 h
.2741 g 1464 1395 N 28 106 48 8 -28 -97 h
.1852 g 1484 1306 N 28 85 49 -6 -28 -82 h
.0668 g 1955 1187 N 28 27 48 -34 -28 -34 h
0 g 776 1107 N 28 18 49 -11 -28 -17 h
.2343 g 1886 1376 N 28 44 48 -75 -28 -57 h
.4388 g 1921 1574 N 28 7 49 -122 -28 -3 h
.008 g 1227 1113 N 28 22 49 -9 -28 -21 h
.7597 g 1735 1775 N 28 -91 48 13 -28 87 h
0 g 901 1105 N 28 17 48 -10 -28 -18 h
.0102 g 2128 1116 N 28 19 48 -15 -28 -20 h
.0357 g 2003 1146 N 28 22 49 -24 -28 -27 h
.1852 g 1858 1319 N 28 46 48 -59 -28 -62 h
.7597 g 1783 1784 N 28 -86 49 -34 -28 91 h
.7024 g 1832 1755 N 28 -75 48 -75 -28 86 h
.002 g 2253 1104 N 28 18 48 -12 -28 -17 h
.0571 g 1428 1163 N 28 44 49 -9 -28 -43 h
.0004 g 1026 1102 N 28 18 48 -10 -28 -18 h
.1069 g 1505 1218 N 28 61 48 -12 -28 -63 h
.1852 g 1533 1303 N 28 82 48 -14 -28 -85 h
.0261 g 1352 1127 N 28 32 48 -9 -28 -30 h
.5552 g 1901 1663 N 28 -23 48 -125 -28 36 h
.1354 g 1830 1257 N 28 44 48 -44 -28 -59 h
.0025 g 1151 1101 N 28 19 48 -9 -28 -19 h
.0845 g 1878 1198 N 28 34 49 -35 -28 -44 h
.4746 g 1471 1561 N 28 119 49 47 -28 -101 h
0 g 825 1097 N 28 18 48 -10 -28 -18 h
.1712 g 1581 1286 N 28 75 49 -21 -28 -82 h
.0176 g 2052 1117 N 28 19 48 -18 -28 -22 h
.2965 g 1512 1412 N 28 109 49 -3 -28 -106 h
.0102 g 1276 1105 N 28 24 48 -10 -28 -22 h
.0043 g 2176 1100 N 28 18 49 -12 -28 -19 h
.0001 g 949 1094 N 28 17 49 -10 -28 -17 h
.0488 g 1927 1153 N 28 26 48 -26 -28 -34 h
.2003 g 1781 1326 N 28 59 49 -52 -28 -76 h
.0989 g 1553 1204 N 28 56 49 -16 -28 -61 h
.1464 g 1630 1258 N 28 65 48 -26 -28 -75 h
.1354 g 1753 1250 N 28 51 49 -36 -28 -67 h
.4388 g 1893 1571 N 28 28 49 -118 -28 -32 h
.0571 g 1477 1155 N 28 43 48 -11 -28 -44 h
.0007 g 2301 1093 N 28 17 49 -10 -28 -18 h
.0007 g 1074 1092 N 28 18 49 -10 -28 -18 h
.1852 g 1705 1304 N 28 67 47 -39 -27 -82 h
.4057 g 1492 1507 N 28 125 48 17 -28 -112 h
.7597 g 1583 1760 N 28 -6 49 98 -28 2 h
.0914 g 1802 1198 N 28 39 48 -32 -28 -51 h
.2741 g 1809 1407 N 28 62 49 -69 -28 -81 h
.0282 g 1400 1120 N 28 32 49 -9 -28 -32 h
.2965 g 1561 1412 N 28 106 48 -17 -28 -109 h
.0034 g 1199 1092 N 28 20 49 -10 -28 -19 h
.1157 g 1678 1222 N 27 53 48 -27 -28 -65 h
.4057 g 1865 1539 N 28 45 49 -105 -28 -58 h
.3468 g 1837 1481 N 28 57 49 -88 -28 -74 h
.2741 g 1609 1392 N 28 96 49 -28 -28 -106 h
.2343 g 1658 1354 N 27 82 48 -36 -28 -96 h
0 g 873 1087 N 28 18 48 -10 -28 -18 h
.0261 g 1975 1119 N 28 22 49 -20 -28 -26 h
.008 g 2100 1096 N 28 18 48 -14 -28 -19 h
.0845 g 1602 1183 N 28 48 48 -18 -28 -56 h
.0571 g 1850 1154 N 28 30 49 -26 -28 -39 h
.0017 g 2225 1087 N 28 17 48 -11 -28 -18 h
.0119 g 1324 1097 N 28 24 48 -9 -28 -24 h
.6005 g 1499 1654 N 28 110 49 65 -28 -93 h
.0001 g 998 1084 N 28 17 48 -10 -28 -17 h
.0845 g 1725 1183 N 28 43 48 -26 -27 -53 h
.0528 g 1525 1143 N 28 40 49 -13 -28 -43 h
.2741 g 1733 1400 N 28 76 48 -54 -28 -96 h
.001 g 1123 1082 N 28 19 48 -10 -28 -18 h
.8217 g 1660 1807 N 27 -56 48 64 -28 47 h
.7597 g 1555 1762 N 28 41 49 94 -28 -37 h
.7024 g 1527 1725 N 28 83 49 82 -28 -71 h
.0282 g 1449 1111 N 28 32 48 -11 -28 -32 h
.0668 g 1650 1157 N 27 41 49 -20 -28 -48 h
.033 g 1899 1119 N 28 25 48 -21 -28 -30 h
.0129 g 2024 1095 N 28 20 48 -16 -28 -22 h
.0043 g 1248 1083 N 28 20 48 -10 -28 -20 h
.0571 g 1774 1147 N 28 34 48 -23 -28 -43 h
.0034 g 2148 1081 N 28 18 49 -12 -28 -18 h
0 g 921 1077 N 28 18 49 -10 -28 -18 h
.4388 g 1540 1537 N 28 129 49 0 -28 -125 h
.6005 g 1873 1699 N 28 3 48 -130 -28 2 h
.7024 g 1852 1766 N 28 -36 49 -115 -28 48 h
.0006 g 2273 1075 N 28 18 49 -11 -28 -17 h
.0451 g 1574 1127 N 28 37 48 -15 -28 -40 h
.0129 g 1372 1088 N 28 25 49 -10 -28 -24 h
.0002 g 1046 1074 N 28 18 49 -11 -28 -17 h
.3468 g 1686 1466 N 28 96 47 -50 -28 -112 h
.3751 g 1761 1500 N 28 81 48 -74 -28 -100 h
.0488 g 1698 1130 N 28 34 47 -19 -27 -41 h
.0013 g 1171 1073 N 28 19 49 -10 -28 -19 h
.0357 g 1822 1115 N 28 27 49 -19 -28 -34 h
.0176 g 1947 1093 N 28 22 49 -17 -28 -25 h
.4388 g 1589 1541 N 28 124 48 -20 -28 -129 h
.4057 g 1637 1516 N 28 112 49 -38 -28 -124 h
.5552 g 1520 1626 N 28 132 48 30 -28 -119 h
.0261 g 1497 1100 N 28 30 49 -11 -28 -32 h
.0059 g 2072 1077 N 27 19 49 -13 -28 -20 h
.005 g 1296 1073 N 28 21 48 -10 -28 -20 h
.0013 g 2197 1069 N 28 18 48 -11 -28 -18 h
0 g 970 1067 N 28 18 48 -10 -28 -18 h
.0357 g 1622 1109 N 28 32 49 -15 -28 -37 h
.4746 g 1789 1593 N 28 74 48 -93 -28 -93 h
.6005 g 1845 1701 N 28 32 48 -125 -28 -37 h
.5552 g 1817 1664 N 28 58 48 -112 -28 -71 h
.0129 g 1421 1079 N 28 24 48 -10 -28 -25 h
.0003 g 1095 1064 N 28 18 48 -10 -28 -18 h
.033 g 1746 1104 N 28 28 48 -17 -28 -34 h
.0206 g 1871 1089 N 28 23 48 -17 -28 -27 h
.8887 g 1707 1862 N 28 -59 47 16 -27 56 h
.0087 g 1996 1073 N 28 19 48 -13 -28 -22 h
.0017 g 1220 1063 N 28 19 48 -10 -28 -19 h
.8887 g 1755 1875 N 28 -56 49 -37 -28 59 h
.8217 g 1804 1841 N 28 -48 48 -83 -28 56 h
.0223 g 1546 1087 N 28 28 48 -13 -28 -30 h
.0025 g 2120 1063 N 28 18 48 -11 -27 -19 h
.0054 g 1344 1064 N 28 21 49 -10 -28 -21 h
.0261 g 1671 1089 N 27 27 48 -14 -28 -32 h
.4746 g 1712 1586 N 28 100 47 -66 -26 -120 h
.0005 g 2245 1058 N 28 18 49 -11 -28 -18 h
.0001 g 1018 1057 N 28 17 49 -10 -28 -18 h
.0206 g 1794 1081 N 28 24 49 -15 -28 -28 h
.8887 g 1632 1854 N 28 -8 48 66 -28 6 h
.0119 g 1469 1068 N 28 24 49 -11 -28 -24 h
.011 g 1919 1068 N 28 20 49 -14 -28 -23 h
.0005 g 1143 1054 N 28 18 49 -10 -28 -18 h
.6005 g 1568 1669 N 28 138 49 4 -28 -132 h
.7024 g 1548 1736 N 28 122 48 43 -28 -110 h
.004 g 2044 1057 N 28 18 49 -12 -28 -19 h
.002 g 1268 1053 N 28 19 48 -10 -28 -19 h
.0176 g 1594 1072 N 28 25 49 -12 -28 -28 h
.001 g 2169 1051 N 28 18 48 -11 -28 -18 h
.6005 g 1617 1679 N 28 133 48 -25 -28 -138 h
.5552 g 1665 1649 N 26 120 49 -50 -28 -133 h
.7597 g 1824 1814 N 28 -2 49 -119 -28 6 h
.0176 g 1718 1070 N 28 24 47 -14 -27 -27 h
.0054 g 1393 1054 N 28 21 48 -10 -28 -21 h
.0001 g 1067 1046 N 28 17 48 -10 -28 -17 h
.0119 g 1843 1062 N 28 21 48 -14 -28 -24 h
.8887 g 1604 1860 N 28 44 48 63 -28 -41 h
.8217 g 1576 1819 N 28 91 48 55 -28 -83 h
.0102 g 1518 1057 N 28 22 48 -11 -28 -24 h
.0054 g 1968 1051 N 28 19 48 -12 -28 -20 h
.6005 g 1740 1696 N 28 93 49 -86 -28 -110 h
.0006 g 1192 1044 N 28 18 48 -10 -28 -18 h
.0017 g 2093 1044 N 28 18 48 -11 -28 -18 h
.0129 g 1643 1057 N 28 23 48 -12 -28 -25 h
.0021 g 1316 1043 N 28 19 49 -10 -28 -19 h
.7597 g 1796 1820 N 28 37 49 -115 -28 -41 h
.7024 g 1768 1779 N 28 71 49 -103 -28 -83 h
.0003 g 2217 1040 N 28 17 49 -10 -28 -18 h
.011 g 1766 1053 N 28 22 49 -13 -28 -24 h
.005 g 1441 1044 N 28 21 49 -11 -28 -21 h
.0064 g 1891 1045 N 28 19 49 -12 -28 -21 h
.0002 g 1115 1036 N 28 17 49 -10 -28 -17 h
.9612 g 1680 1918 N 27 -10 48 18 -28 8 h
.7597 g 1596 1791 N 28 126 49 10 -28 -122 h
.008 g 1566 1044 N 28 21 49 -11 -28 -22 h
.0025 g 2016 1038 N 28 18 49 -11 -28 -19 h
.9612 g 1727 1934 N 28 -9 48 -38 -27 10 h
.8887 g 1776 1897 N 28 -6 48 -86 -28 9 h
.0007 g 1240 1034 N 27 18 49 -10 -28 -18 h
.7597 g 1645 1805 N 28 122 48 -30 -28 -126 h
.7024 g 1693 1771 N 28 110 47 -63 -28 -122 h
.0007 g 2141 1033 N 28 18 48 -11 -28 -18 h
.0087 g 1691 1043 N 28 21 47 -12 -28 -23 h
.0021 g 1365 1033 N 28 19 48 -10 -28 -19 h
.0064 g 1815 1038 N 28 20 48 -12 -28 -22 h
.0043 g 1490 1033 N 28 20 48 -10 -28 -21 h
.0031 g 1940 1031 N 28 18 48 -11 -28 -19 h
.9612 g 1652 1926 N 27 45 49 17 -28 -44 h
.8887 g 1624 1882 N 28 94 49 14 -28 -91 h
.0002 g 1164 1026 N 28 18 48 -11 -28 -17 h
.9612 g 1700 1944 N 28 44 47 -37 -27 -45 h
.8887 g 1748 1906 N 28 41 48 -83 -28 -44 h
.8887 g 1673 1899 N 27 91 48 -34 -28 -94 h
.8217 g 1720 1862 N 28 83 47 -75 -27 -91 h
.0059 g 1615 1032 N 28 20 48 -11 -28 -21 h
.001 g 2065 1026 N 28 18 48 -11 -28 -18 h
.0008 g 1288 1024 N 28 18 48 -10 -27 -18 h
.0054 g 1738 1029 N 28 19 49 -11 -28 -21 h
.0002 g 2189 1022 N 28 18 49 -10 -28 -18 h
.002 g 1413 1023 N 28 18 49 -10 -28 -19 h
.0034 g 1863 1024 N 28 19 49 -11 -28 -20 h
.0034 g 1538 1022 N 28 20 49 -11 -28 -20 h
.0014 g 1988 1019 N 28 18 49 -11 -28 -18 h
.0002 g 1212 1016 N 28 18 49 -10 -28 -18 h
.004 g 1663 1020 N 26 19 49 -11 -28 -20 h
.0004 g 2113 1015 N 28 17 48 -10 -28 -18 h
.0008 g 1337 1014 N 28 18 48 -10 -28 -18 h
.0031 g 1787 1016 N 28 18 48 -11 -28 -19 h
.0017 g 1462 1012 N 28 19 48 -11 -28 -18 h
.0017 g 1912 1012 N 28 19 48 -11 -28 -19 h
.0025 g 1587 1011 N 28 19 48 -10 -28 -20 h
.0006 g 2037 1008 N 28 18 48 -11 -28 -18 h
.0003 g 1261 1006 N 28 18 48 -10 -28 -18 h
.0025 g 1710 1008 N 28 19 47 -11 -26 -19 h
.0001 g 2161 1004 N 28 17 49 -10 -28 -17 h
.0007 g 1385 1004 N 28 18 49 -10 -28 -18 h
.0017 g 1835 1004 N 28 18 49 -11 -28 -18 h
.0013 g 1510 1002 N 28 18 49 -10 -28 -19 h
.0008 g 1960 1001 N 28 18 49 -10 -28 -19 h
.0017 g 1635 1000 N 28 19 49 -11 -28 -19 h
.0002 g 2085 997 N 28 18 48 -10 -28 -18 h
.0003 g 1309 996 N 28 18 48 -10 -28 -18 h
.0014 g 1759 997 N 28 18 48 -10 -28 -19 h
.0006 g 1434 994 N 28 18 48 -11 -28 -18 h
.0008 g 1884 993 N 28 17 48 -10 -28 -18 h
.001 g 1559 991 N 28 18 48 -10 -28 -18 h
.0003 g 2009 990 N 28 17 48 -10 -28 -18 h
.001 g 1684 989 N 28 18 47 -10 -28 -19 h
.0001 g 2133 987 N 28 18 49 -10 -28 -18 h
.0002 g 1357 986 N 28 18 49 -10 -28 -18 h
.0008 g 1807 986 N 28 18 49 -11 -28 -18 h
.0005 g 1482 983 N 28 18 49 -10 -28 -18 h
.0004 g 1932 982 N 28 18 49 -11 -28 -17 h
.0007 g 1607 981 N 28 18 49 -11 -28 -18 h
.0001 g 2057 979 N 27 17 49 -10 -28 -17 h
.0006 g 1731 978 N 28 18 48 -10 -28 -18 h
.0002 g 1406 976 N 28 17 48 -10 -28 -18 h
.0004 g 1856 975 N 28 18 48 -10 -28 -18 h
.0003 g 1531 973 N 28 18 48 -10 -28 -18 h
.0002 g 1981 972 N 28 18 48 -10 -28 -18 h
.0004 g 1656 970 N 27 18 48 -10 -28 -18 h
0 g 2105 969 N 28 18 48 -11 -27 -17 h
.0003 g 1779 968 N 28 18 49 -11 -28 -18 h
.0002 g 1454 965 N 28 18 49 -11 -28 -17 h
.0002 g 1904 965 N 28 17 49 -10 -28 -18 h
.0002 g 1579 963 N 28 17 49 -10 -28 -18 h
.0001 g 2029 962 N 28 18 49 -10 -28 -18 h
.0002 g 1703 960 N 28 18 47 -10 -27 -18 h
.0002 g 1828 957 N 28 18 48 -10 -28 -18 h
.0001 g 1503 955 N 28 18 48 -10 -28 -18 h
.0001 g 1953 954 N 28 17 48 -10 -28 -17 h
.0001 g 1628 952 N 28 17 48 -10 -28 -17 h
0 g 2078 952 N 28 17 48 -10 -28 -18 h
.0001 g 1751 950 N 28 17 49 -10 -28 -18 h
.0001 g 1876 947 N 28 18 49 -10 -28 -18 h
.0001 g 1551 945 N 28 18 49 -10 -28 -18 h
0 g 2001 944 N 28 18 49 -11 -28 -17 h
.0001 g 1676 942 N 27 18 48 -11 -28 -17 h
.0001 g 1800 939 N 28 17 48 -10 -28 -17 h
0 g 1925 937 N 28 18 48 -10 -28 -18 h
0 g 1600 935 N 28 18 48 -10 -28 -18 h
0 g 2050 934 N 28 18 48 -10 -28 -18 h
0 g 1723 932 N 28 18 48 -10 -27 -18 h
0 g 1848 929 N 28 17 49 -10 -28 -17 h
0 g 1973 927 N 28 17 49 -10 -28 -18 h
0 g 1648 925 N 27 17 49 -10 -28 -18 h
0 g 1772 922 N 28 18 48 -10 -28 -18 h
0 g 1897 919 N 28 18 48 -11 -28 -17 h
0 g 2022 916 N 28 17 48 -10 -28 -17 h
0 g 1696 914 N 28 17 47 -10 -27 -17 h
0 g 1820 912 N 28 18 49 -10 -28 -18 h
0 g 1945 909 N 28 18 49 -10 -28 -18 h
0 g 1744 904 N 28 18 48 -11 -28 -17 h
0 g 1869 902 N 28 17 48 -10 -28 -18 h
0 g 1994 899 N 28 18 48 -10 -28 -18 h
0 g 1792 894 N 28 18 49 -10 -28 -18 h
0 g 1917 891 N 28 17 49 -10 -28 -17 h
0 g 1841 884 N 28 18 48 -10 -28 -18 h
0 g 1966 881 N 28 18 48 -11 -28 -17 h
0 g 1889 874 N 28 18 49 -10 -28 -18 h
0 g 1938 864 N 28 17 48 -10 -28 -18 h
1.000 UL
LTb
2007 474 M
839 528 V
2007 474 M
554 779 L
420 263 V
1872 -40 R
-469 98 V
554 1832 M
554 779 L
44 27 V
stroke
497 718 M
[ [(Helvetica) 140.0 0.0 true true 0 (-3)]
] -46.7 MCshow
1.000 UL
LTb
1.000 UL
LTb
797 728 M
43 27 V
stroke
739 667 M
[ [(Helvetica) 140.0 0.0 true true 0 (-2)]
] -46.7 MCshow
1.000 UL
LTb
1.000 UL
LTb
1039 677 M
43 27 V
stroke
981 617 M
[ [(Helvetica) 140.0 0.0 true true 0 (-1)]
] -46.7 MCshow
1.000 UL
LTb
1.000 UL
LTb
1281 626 M
43 28 V
stroke
1223 566 M
[ [(Helvetica) 140.0 0.0 true true 0 ( 0)]
] -46.7 MCshow
1.000 UL
LTb
1.000 UL
LTb
1523 576 M
44 27 V
stroke
1465 515 M
[ [(Helvetica) 140.0 0.0 true true 0 ( 1)]
] -46.7 MCshow
1.000 UL
LTb
1.000 UL
LTb
1764 525 M
44 27 V
stroke
1707 464 M
[ [(Helvetica) 140.0 0.0 true true 0 ( 2)]
] -46.7 MCshow
1.000 UL
LTb
1.000 UL
LTb
2560 1025 M
43 27 V
2007 474 M
43 27 V
stroke
1949 414 M
[ [(Helvetica) 140.0 0.0 true true 0 ( 3)]
] -46.7 MCshow
1.000 UL
LTb
1.000 UL
LTb
2802 974 M
44 28 V
stroke
LCb setrgbcolor
LTb
1.000 UL
LTb
2007 474 M
-55 12 V
stroke
2079 449 M
[ [(Helvetica) 140.0 0.0 true true 0 (-3)]
] -46.7 MCshow
1.000 UL
LTb
1.000 UL
LTb
609 767 M
-55 12 V
2146 562 M
-54 11 V
stroke
2219 537 M
[ [(Helvetica) 140.0 0.0 true true 0 (-2)]
] -46.7 MCshow
1.000 UL
LTb
1.000 UL
LTb
749 855 M
-55 12 V
2286 650 M
-54 11 V
stroke
2359 625 M
[ [(Helvetica) 140.0 0.0 true true 0 (-1)]
] -46.7 MCshow
1.000 UL
LTb
1.000 UL
LTb
889 943 M
-55 11 V
2426 738 M
-54 11 V
stroke
2499 712 M
[ [(Helvetica) 140.0 0.0 true true 0 ( 0)]
] -46.7 MCshow
1.000 UL
LTb
1.000 UL
LTb
2566 826 M
-55 11 V
stroke
2639 800 M
[ [(Helvetica) 140.0 0.0 true true 0 ( 1)]
] -46.7 MCshow
1.000 UL
LTb
1.000 UL
LTb
2706 914 M
-55 11 V
stroke
2779 888 M
[ [(Helvetica) 140.0 0.0 true true 0 ( 2)]
] -46.7 MCshow
1.000 UL
LTb
1.000 UL
LTb
2846 1002 M
-55 11 V
stroke
2918 976 M
[ [(Helvetica) 140.0 0.0 true true 0 ( 3)]
] -46.7 MCshow
1.000 UL
LTb
LCb setrgbcolor
LTb
1.000 UL
LTb
617 1130 M
-63 0 V
stroke
428 1130 M
[ [(Helvetica) 140.0 0.0 true true 0 (-10)]
] -46.7 MRshow
1.000 UL
LTb
1.000 UL
LTb
617 1201 M
-63 0 V
stroke
428 1201 M
[ [(Helvetica) 140.0 0.0 true true 0 (-8)]
] -46.7 MRshow
1.000 UL
LTb
1.000 UL
LTb
617 1271 M
-63 0 V
stroke
428 1271 M
[ [(Helvetica) 140.0 0.0 true true 0 (-6)]
] -46.7 MRshow
1.000 UL
LTb
1.000 UL
LTb
617 1341 M
-63 0 V
stroke
428 1341 M
[ [(Helvetica) 140.0 0.0 true true 0 (-4)]
] -46.7 MRshow
1.000 UL
LTb
1.000 UL
LTb
617 1412 M
-63 0 V
stroke
428 1412 M
[ [(Helvetica) 140.0 0.0 true true 0 (-2)]
] -46.7 MRshow
1.000 UL
LTb
1.000 UL
LTb
617 1481 M
-63 0 V
stroke
428 1481 M
[ [(Helvetica) 140.0 0.0 true true 0 ( 0)]
] -46.7 MRshow
1.000 UL
LTb
1.000 UL
LTb
617 1551 M
-63 0 V
stroke
428 1551 M
[ [(Helvetica) 140.0 0.0 true true 0 ( 2)]
] -46.7 MRshow
1.000 UL
LTb
1.000 UL
LTb
617 1621 M
-63 0 V
stroke
428 1621 M
[ [(Helvetica) 140.0 0.0 true true 0 ( 4)]
] -46.7 MRshow
1.000 UL
LTb
1.000 UL
LTb
617 1692 M
-63 0 V
stroke
428 1692 M
[ [(Helvetica) 140.0 0.0 true true 0 ( 6)]
] -46.7 MRshow
1.000 UL
LTb
1.000 UL
LTb
617 1762 M
-63 0 V
stroke
428 1762 M
[ [(Helvetica) 140.0 0.0 true true 0 ( 8)]
] -46.7 MRshow
1.000 UL
LTb
1.000 UL
LTb
617 1832 M
-63 0 V
stroke
428 1832 M
[ [(Helvetica) 140.0 0.0 true true 0 ( 10)]
] -46.7 MRshow
1.000 UL
LTb
LCb setrgbcolor
LTb
stroke gsave	%% draw gray scale smooth box
maxcolors 0 gt {/imax maxcolors def} {/imax 1024 def} ifelse
2889 1237 translate 116 785 scale 0 setlinewidth
/ystep 1 imax div def /y0 0 def /ii 0 def
{ y0 g 0 y0 N 1 0 V 0 ystep V -1 0 f
/y0 y0 ystep add def /ii ii 1 add def
ii imax ge {exit} if } loop
grestore 0 setgray
1.000 UL
LTb
2889 1237 N
116 0 V
0 785 V
-116 0 V
0 -785 V
Z stroke
1.000 UL
LTb
1.000 UL
LTb
3005 1237 M
-63 0 V
stroke
3089 1237 M
[ [(Helvetica) 140.0 0.0 true true 0 (-10)]
] -46.7 MLshow
1.000 UL
LTb
2889 1237 M
63 0 V
53 78 R
-63 0 V
stroke
3089 1315 M
[ [(Helvetica) 140.0 0.0 true true 0 (-8)]
] -46.7 MLshow
1.000 UL
LTb
2889 1315 M
63 0 V
53 79 R
-63 0 V
stroke
3089 1394 M
[ [(Helvetica) 140.0 0.0 true true 0 (-6)]
] -46.7 MLshow
1.000 UL
LTb
2889 1394 M
63 0 V
53 78 R
-63 0 V
stroke
3089 1472 M
[ [(Helvetica) 140.0 0.0 true true 0 (-4)]
] -46.7 MLshow
1.000 UL
LTb
2889 1472 M
63 0 V
53 79 R
-63 0 V
stroke
3089 1551 M
[ [(Helvetica) 140.0 0.0 true true 0 (-2)]
] -46.7 MLshow
1.000 UL
LTb
2889 1551 M
63 0 V
53 78 R
-63 0 V
stroke
3089 1629 M
[ [(Helvetica) 140.0 0.0 true true 0 ( 0)]
] -46.7 MLshow
1.000 UL
LTb
2889 1629 M
63 0 V
53 79 R
-63 0 V
stroke
3089 1708 M
[ [(Helvetica) 140.0 0.0 true true 0 ( 2)]
] -46.7 MLshow
1.000 UL
LTb
2889 1708 M
63 0 V
53 78 R
-63 0 V
stroke
3089 1786 M
[ [(Helvetica) 140.0 0.0 true true 0 ( 4)]
] -46.7 MLshow
1.000 UL
LTb
2889 1786 M
63 0 V
53 79 R
-63 0 V
stroke
3089 1865 M
[ [(Helvetica) 140.0 0.0 true true 0 ( 6)]
] -46.7 MLshow
1.000 UL
LTb
2889 1865 M
63 0 V
53 78 R
-63 0 V
stroke
3089 1943 M
[ [(Helvetica) 140.0 0.0 true true 0 ( 8)]
] -46.7 MLshow
1.000 UL
LTb
2889 1943 M
63 0 V
53 79 R
-63 0 V
stroke
3089 2022 M
[ [(Helvetica) 140.0 0.0 true true 0 ( 10)]
] -46.7 MLshow
1.000 UL
LTb
2889 2022 M
63 0 V
stroke
LCb setrgbcolor
LTb
1.000 UP
grestore % colour palette end
stroke
grestore
end
showpage
%%Trailer
%%DocumentFonts: Helvetica
