%!PS-Adobe-2.0 EPSF-2.0
%%Title: figdraw3.eps
%%Creator: gnuplot 4.6 patchlevel 5
%%CreationDate: Sat Sep 19 20:23:56 2015
%%DocumentFonts: (atend)
%%BoundingBox: 50 50 220 191
%%EndComments
%%BeginProlog
/gnudict 256 dict def
gnudict begin
%
% The following true/false flags may be edited by hand if desired.
% The unit line width and grayscale image gamma correction may also be changed.
%
/Color false def
/Blacktext false def
/Solid false def
/Dashlength 1 def
/Landscape false def
/Level1 false def
/Rounded false def
/ClipToBoundingBox false def
/SuppressPDFMark false def
/TransparentPatterns false def
/gnulinewidth 5.000 def
/userlinewidth gnulinewidth def
/Gamma 1.0 def
/BackgroundColor {-1.000 -1.000 -1.000} def
%
/vshift -46 def
/dl1 {
  10.0 Dashlength mul mul
  Rounded { currentlinewidth 0.75 mul sub dup 0 le { pop 0.01 } if } if
} def
/dl2 {
  10.0 Dashlength mul mul
  Rounded { currentlinewidth 0.75 mul add } if
} def
/hpt_ 31.5 def
/vpt_ 31.5 def
/hpt hpt_ def
/vpt vpt_ def
/doclip {
  ClipToBoundingBox {
    newpath 50 50 moveto 220 50 lineto 220 191 lineto 50 191 lineto closepath
    clip
  } if
} def
%
% Gnuplot Prolog Version 4.6 (September 2012)
%
%/SuppressPDFMark true def
%
/M {moveto} bind def
/L {lineto} bind def
/R {rmoveto} bind def
/V {rlineto} bind def
/N {newpath moveto} bind def
/Z {closepath} bind def
/C {setrgbcolor} bind def
/f {rlineto fill} bind def
/g {setgray} bind def
/Gshow {show} def   % May be redefined later in the file to support UTF-8
/vpt2 vpt 2 mul def
/hpt2 hpt 2 mul def
/Lshow {currentpoint stroke M 0 vshift R 
	Blacktext {gsave 0 setgray show grestore} {show} ifelse} def
/Rshow {currentpoint stroke M dup stringwidth pop neg vshift R
	Blacktext {gsave 0 setgray show grestore} {show} ifelse} def
/Cshow {currentpoint stroke M dup stringwidth pop -2 div vshift R 
	Blacktext {gsave 0 setgray show grestore} {show} ifelse} def
/UP {dup vpt_ mul /vpt exch def hpt_ mul /hpt exch def
  /hpt2 hpt 2 mul def /vpt2 vpt 2 mul def} def
/DL {Color {setrgbcolor Solid {pop []} if 0 setdash}
 {pop pop pop 0 setgray Solid {pop []} if 0 setdash} ifelse} def
/BL {stroke userlinewidth 2 mul setlinewidth
	Rounded {1 setlinejoin 1 setlinecap} if} def
/AL {stroke userlinewidth 2 div setlinewidth
	Rounded {1 setlinejoin 1 setlinecap} if} def
/UL {dup gnulinewidth mul /userlinewidth exch def
	dup 1 lt {pop 1} if 10 mul /udl exch def} def
/PL {stroke userlinewidth setlinewidth
	Rounded {1 setlinejoin 1 setlinecap} if} def
3.8 setmiterlimit
% Default Line colors
/LCw {1 1 1} def
/LCb {0 0 0} def
/LCa {0 0 0} def
/LC0 {1 0 0} def
/LC1 {0 1 0} def
/LC2 {0 0 1} def
/LC3 {1 0 1} def
/LC4 {0 1 1} def
/LC5 {1 1 0} def
/LC6 {0 0 0} def
/LC7 {1 0.3 0} def
/LC8 {0.5 0.5 0.5} def
% Default Line Types
/LTw {PL [] 1 setgray} def
/LTb {BL [] LCb DL} def
/LTa {AL [1 udl mul 2 udl mul] 0 setdash LCa setrgbcolor} def
/LT0 {PL [] LC0 DL} def
/LT1 {PL [4 dl1 2 dl2] LC1 DL} def
/LT2 {PL [2 dl1 3 dl2] LC2 DL} def
/LT3 {PL [1 dl1 1.5 dl2] LC3 DL} def
/LT4 {PL [6 dl1 2 dl2 1 dl1 2 dl2] LC4 DL} def
/LT5 {PL [3 dl1 3 dl2 1 dl1 3 dl2] LC5 DL} def
/LT6 {PL [2 dl1 2 dl2 2 dl1 6 dl2] LC6 DL} def
/LT7 {PL [1 dl1 2 dl2 6 dl1 2 dl2 1 dl1 2 dl2] LC7 DL} def
/LT8 {PL [2 dl1 2 dl2 2 dl1 2 dl2 2 dl1 2 dl2 2 dl1 4 dl2] LC8 DL} def
/Pnt {stroke [] 0 setdash gsave 1 setlinecap M 0 0 V stroke grestore} def
/Dia {stroke [] 0 setdash 2 copy vpt add M
  hpt neg vpt neg V hpt vpt neg V
  hpt vpt V hpt neg vpt V closepath stroke
  Pnt} def
/Pls {stroke [] 0 setdash vpt sub M 0 vpt2 V
  currentpoint stroke M
  hpt neg vpt neg R hpt2 0 V stroke
 } def
/Box {stroke [] 0 setdash 2 copy exch hpt sub exch vpt add M
  0 vpt2 neg V hpt2 0 V 0 vpt2 V
  hpt2 neg 0 V closepath stroke
  Pnt} def
/Crs {stroke [] 0 setdash exch hpt sub exch vpt add M
  hpt2 vpt2 neg V currentpoint stroke M
  hpt2 neg 0 R hpt2 vpt2 V stroke} def
/TriU {stroke [] 0 setdash 2 copy vpt 1.12 mul add M
  hpt neg vpt -1.62 mul V
  hpt 2 mul 0 V
  hpt neg vpt 1.62 mul V closepath stroke
  Pnt} def
/Star {2 copy Pls Crs} def
/BoxF {stroke [] 0 setdash exch hpt sub exch vpt add M
  0 vpt2 neg V hpt2 0 V 0 vpt2 V
  hpt2 neg 0 V closepath fill} def
/TriUF {stroke [] 0 setdash vpt 1.12 mul add M
  hpt neg vpt -1.62 mul V
  hpt 2 mul 0 V
  hpt neg vpt 1.62 mul V closepath fill} def
/TriD {stroke [] 0 setdash 2 copy vpt 1.12 mul sub M
  hpt neg vpt 1.62 mul V
  hpt 2 mul 0 V
  hpt neg vpt -1.62 mul V closepath stroke
  Pnt} def
/TriDF {stroke [] 0 setdash vpt 1.12 mul sub M
  hpt neg vpt 1.62 mul V
  hpt 2 mul 0 V
  hpt neg vpt -1.62 mul V closepath fill} def
/DiaF {stroke [] 0 setdash vpt add M
  hpt neg vpt neg V hpt vpt neg V
  hpt vpt V hpt neg vpt V closepath fill} def
/Pent {stroke [] 0 setdash 2 copy gsave
  translate 0 hpt M 4 {72 rotate 0 hpt L} repeat
  closepath stroke grestore Pnt} def
/PentF {stroke [] 0 setdash gsave
  translate 0 hpt M 4 {72 rotate 0 hpt L} repeat
  closepath fill grestore} def
/Circle {stroke [] 0 setdash 2 copy
  hpt 0 360 arc stroke Pnt} def
/CircleF {stroke [] 0 setdash hpt 0 360 arc fill} def
/C0 {BL [] 0 setdash 2 copy moveto vpt 90 450 arc} bind def
/C1 {BL [] 0 setdash 2 copy moveto
	2 copy vpt 0 90 arc closepath fill
	vpt 0 360 arc closepath} bind def
/C2 {BL [] 0 setdash 2 copy moveto
	2 copy vpt 90 180 arc closepath fill
	vpt 0 360 arc closepath} bind def
/C3 {BL [] 0 setdash 2 copy moveto
	2 copy vpt 0 180 arc closepath fill
	vpt 0 360 arc closepath} bind def
/C4 {BL [] 0 setdash 2 copy moveto
	2 copy vpt 180 270 arc closepath fill
	vpt 0 360 arc closepath} bind def
/C5 {BL [] 0 setdash 2 copy moveto
	2 copy vpt 0 90 arc
	2 copy moveto
	2 copy vpt 180 270 arc closepath fill
	vpt 0 360 arc} bind def
/C6 {BL [] 0 setdash 2 copy moveto
	2 copy vpt 90 270 arc closepath fill
	vpt 0 360 arc closepath} bind def
/C7 {BL [] 0 setdash 2 copy moveto
	2 copy vpt 0 270 arc closepath fill
	vpt 0 360 arc closepath} bind def
/C8 {BL [] 0 setdash 2 copy moveto
	2 copy vpt 270 360 arc closepath fill
	vpt 0 360 arc closepath} bind def
/C9 {BL [] 0 setdash 2 copy moveto
	2 copy vpt 270 450 arc closepath fill
	vpt 0 360 arc closepath} bind def
/C10 {BL [] 0 setdash 2 copy 2 copy moveto vpt 270 360 arc closepath fill
	2 copy moveto
	2 copy vpt 90 180 arc closepath fill
	vpt 0 360 arc closepath} bind def
/C11 {BL [] 0 setdash 2 copy moveto
	2 copy vpt 0 180 arc closepath fill
	2 copy moveto
	2 copy vpt 270 360 arc closepath fill
	vpt 0 360 arc closepath} bind def
/C12 {BL [] 0 setdash 2 copy moveto
	2 copy vpt 180 360 arc closepath fill
	vpt 0 360 arc closepath} bind def
/C13 {BL [] 0 setdash 2 copy moveto
	2 copy vpt 0 90 arc closepath fill
	2 copy moveto
	2 copy vpt 180 360 arc closepath fill
	vpt 0 360 arc closepath} bind def
/C14 {BL [] 0 setdash 2 copy moveto
	2 copy vpt 90 360 arc closepath fill
	vpt 0 360 arc} bind def
/C15 {BL [] 0 setdash 2 copy vpt 0 360 arc closepath fill
	vpt 0 360 arc closepath} bind def
/Rec {newpath 4 2 roll moveto 1 index 0 rlineto 0 exch rlineto
	neg 0 rlineto closepath} bind def
/Square {dup Rec} bind def
/Bsquare {vpt sub exch vpt sub exch vpt2 Square} bind def
/S0 {BL [] 0 setdash 2 copy moveto 0 vpt rlineto BL Bsquare} bind def
/S1 {BL [] 0 setdash 2 copy vpt Square fill Bsquare} bind def
/S2 {BL [] 0 setdash 2 copy exch vpt sub exch vpt Square fill Bsquare} bind def
/S3 {BL [] 0 setdash 2 copy exch vpt sub exch vpt2 vpt Rec fill Bsquare} bind def
/S4 {BL [] 0 setdash 2 copy exch vpt sub exch vpt sub vpt Square fill Bsquare} bind def
/S5 {BL [] 0 setdash 2 copy 2 copy vpt Square fill
	exch vpt sub exch vpt sub vpt Square fill Bsquare} bind def
/S6 {BL [] 0 setdash 2 copy exch vpt sub exch vpt sub vpt vpt2 Rec fill Bsquare} bind def
/S7 {BL [] 0 setdash 2 copy exch vpt sub exch vpt sub vpt vpt2 Rec fill
	2 copy vpt Square fill Bsquare} bind def
/S8 {BL [] 0 setdash 2 copy vpt sub vpt Square fill Bsquare} bind def
/S9 {BL [] 0 setdash 2 copy vpt sub vpt vpt2 Rec fill Bsquare} bind def
/S10 {BL [] 0 setdash 2 copy vpt sub vpt Square fill 2 copy exch vpt sub exch vpt Square fill
	Bsquare} bind def
/S11 {BL [] 0 setdash 2 copy vpt sub vpt Square fill 2 copy exch vpt sub exch vpt2 vpt Rec fill
	Bsquare} bind def
/S12 {BL [] 0 setdash 2 copy exch vpt sub exch vpt sub vpt2 vpt Rec fill Bsquare} bind def
/S13 {BL [] 0 setdash 2 copy exch vpt sub exch vpt sub vpt2 vpt Rec fill
	2 copy vpt Square fill Bsquare} bind def
/S14 {BL [] 0 setdash 2 copy exch vpt sub exch vpt sub vpt2 vpt Rec fill
	2 copy exch vpt sub exch vpt Square fill Bsquare} bind def
/S15 {BL [] 0 setdash 2 copy Bsquare fill Bsquare} bind def
/D0 {gsave translate 45 rotate 0 0 S0 stroke grestore} bind def
/D1 {gsave translate 45 rotate 0 0 S1 stroke grestore} bind def
/D2 {gsave translate 45 rotate 0 0 S2 stroke grestore} bind def
/D3 {gsave translate 45 rotate 0 0 S3 stroke grestore} bind def
/D4 {gsave translate 45 rotate 0 0 S4 stroke grestore} bind def
/D5 {gsave translate 45 rotate 0 0 S5 stroke grestore} bind def
/D6 {gsave translate 45 rotate 0 0 S6 stroke grestore} bind def
/D7 {gsave translate 45 rotate 0 0 S7 stroke grestore} bind def
/D8 {gsave translate 45 rotate 0 0 S8 stroke grestore} bind def
/D9 {gsave translate 45 rotate 0 0 S9 stroke grestore} bind def
/D10 {gsave translate 45 rotate 0 0 S10 stroke grestore} bind def
/D11 {gsave translate 45 rotate 0 0 S11 stroke grestore} bind def
/D12 {gsave translate 45 rotate 0 0 S12 stroke grestore} bind def
/D13 {gsave translate 45 rotate 0 0 S13 stroke grestore} bind def
/D14 {gsave translate 45 rotate 0 0 S14 stroke grestore} bind def
/D15 {gsave translate 45 rotate 0 0 S15 stroke grestore} bind def
/DiaE {stroke [] 0 setdash vpt add M
  hpt neg vpt neg V hpt vpt neg V
  hpt vpt V hpt neg vpt V closepath stroke} def
/BoxE {stroke [] 0 setdash exch hpt sub exch vpt add M
  0 vpt2 neg V hpt2 0 V 0 vpt2 V
  hpt2 neg 0 V closepath stroke} def
/TriUE {stroke [] 0 setdash vpt 1.12 mul add M
  hpt neg vpt -1.62 mul V
  hpt 2 mul 0 V
  hpt neg vpt 1.62 mul V closepath stroke} def
/TriDE {stroke [] 0 setdash vpt 1.12 mul sub M
  hpt neg vpt 1.62 mul V
  hpt 2 mul 0 V
  hpt neg vpt -1.62 mul V closepath stroke} def
/PentE {stroke [] 0 setdash gsave
  translate 0 hpt M 4 {72 rotate 0 hpt L} repeat
  closepath stroke grestore} def
/CircE {stroke [] 0 setdash 
  hpt 0 360 arc stroke} def
/Opaque {gsave closepath 1 setgray fill grestore 0 setgray closepath} def
/DiaW {stroke [] 0 setdash vpt add M
  hpt neg vpt neg V hpt vpt neg V
  hpt vpt V hpt neg vpt V Opaque stroke} def
/BoxW {stroke [] 0 setdash exch hpt sub exch vpt add M
  0 vpt2 neg V hpt2 0 V 0 vpt2 V
  hpt2 neg 0 V Opaque stroke} def
/TriUW {stroke [] 0 setdash vpt 1.12 mul add M
  hpt neg vpt -1.62 mul V
  hpt 2 mul 0 V
  hpt neg vpt 1.62 mul V Opaque stroke} def
/TriDW {stroke [] 0 setdash vpt 1.12 mul sub M
  hpt neg vpt 1.62 mul V
  hpt 2 mul 0 V
  hpt neg vpt -1.62 mul V Opaque stroke} def
/PentW {stroke [] 0 setdash gsave
  translate 0 hpt M 4 {72 rotate 0 hpt L} repeat
  Opaque stroke grestore} def
/CircW {stroke [] 0 setdash 
  hpt 0 360 arc Opaque stroke} def
/BoxFill {gsave Rec 1 setgray fill grestore} def
/Density {
  /Fillden exch def
  currentrgbcolor
  /ColB exch def /ColG exch def /ColR exch def
  /ColR ColR Fillden mul Fillden sub 1 add def
  /ColG ColG Fillden mul Fillden sub 1 add def
  /ColB ColB Fillden mul Fillden sub 1 add def
  ColR ColG ColB setrgbcolor} def
/BoxColFill {gsave Rec PolyFill} def
/PolyFill {gsave Density fill grestore grestore} def
/h {rlineto rlineto rlineto gsave closepath fill grestore} bind def
%
% PostScript Level 1 Pattern Fill routine for rectangles
% Usage: x y w h s a XX PatternFill
%	x,y = lower left corner of box to be filled
%	w,h = width and height of box
%	  a = angle in degrees between lines and x-axis
%	 XX = 0/1 for no/yes cross-hatch
%
/PatternFill {gsave /PFa [ 9 2 roll ] def
  PFa 0 get PFa 2 get 2 div add PFa 1 get PFa 3 get 2 div add translate
  PFa 2 get -2 div PFa 3 get -2 div PFa 2 get PFa 3 get Rec
  TransparentPatterns {} {gsave 1 setgray fill grestore} ifelse
  clip
  currentlinewidth 0.5 mul setlinewidth
  /PFs PFa 2 get dup mul PFa 3 get dup mul add sqrt def
  0 0 M PFa 5 get rotate PFs -2 div dup translate
  0 1 PFs PFa 4 get div 1 add floor cvi
	{PFa 4 get mul 0 M 0 PFs V} for
  0 PFa 6 get ne {
	0 1 PFs PFa 4 get div 1 add floor cvi
	{PFa 4 get mul 0 2 1 roll M PFs 0 V} for
 } if
  stroke grestore} def
%
/languagelevel where
 {pop languagelevel} {1} ifelse
 2 lt
	{/InterpretLevel1 true def}
	{/InterpretLevel1 Level1 def}
 ifelse
%
% PostScript level 2 pattern fill definitions
%
/Level2PatternFill {
/Tile8x8 {/PaintType 2 /PatternType 1 /TilingType 1 /BBox [0 0 8 8] /XStep 8 /YStep 8}
	bind def
/KeepColor {currentrgbcolor [/Pattern /DeviceRGB] setcolorspace} bind def
<< Tile8x8
 /PaintProc {0.5 setlinewidth pop 0 0 M 8 8 L 0 8 M 8 0 L stroke} 
>> matrix makepattern
/Pat1 exch def
<< Tile8x8
 /PaintProc {0.5 setlinewidth pop 0 0 M 8 8 L 0 8 M 8 0 L stroke
	0 4 M 4 8 L 8 4 L 4 0 L 0 4 L stroke}
>> matrix makepattern
/Pat2 exch def
<< Tile8x8
 /PaintProc {0.5 setlinewidth pop 0 0 M 0 8 L
	8 8 L 8 0 L 0 0 L fill}
>> matrix makepattern
/Pat3 exch def
<< Tile8x8
 /PaintProc {0.5 setlinewidth pop -4 8 M 8 -4 L
	0 12 M 12 0 L stroke}
>> matrix makepattern
/Pat4 exch def
<< Tile8x8
 /PaintProc {0.5 setlinewidth pop -4 0 M 8 12 L
	0 -4 M 12 8 L stroke}
>> matrix makepattern
/Pat5 exch def
<< Tile8x8
 /PaintProc {0.5 setlinewidth pop -2 8 M 4 -4 L
	0 12 M 8 -4 L 4 12 M 10 0 L stroke}
>> matrix makepattern
/Pat6 exch def
<< Tile8x8
 /PaintProc {0.5 setlinewidth pop -2 0 M 4 12 L
	0 -4 M 8 12 L 4 -4 M 10 8 L stroke}
>> matrix makepattern
/Pat7 exch def
<< Tile8x8
 /PaintProc {0.5 setlinewidth pop 8 -2 M -4 4 L
	12 0 M -4 8 L 12 4 M 0 10 L stroke}
>> matrix makepattern
/Pat8 exch def
<< Tile8x8
 /PaintProc {0.5 setlinewidth pop 0 -2 M 12 4 L
	-4 0 M 12 8 L -4 4 M 8 10 L stroke}
>> matrix makepattern
/Pat9 exch def
/Pattern1 {PatternBgnd KeepColor Pat1 setpattern} bind def
/Pattern2 {PatternBgnd KeepColor Pat2 setpattern} bind def
/Pattern3 {PatternBgnd KeepColor Pat3 setpattern} bind def
/Pattern4 {PatternBgnd KeepColor Landscape {Pat5} {Pat4} ifelse setpattern} bind def
/Pattern5 {PatternBgnd KeepColor Landscape {Pat4} {Pat5} ifelse setpattern} bind def
/Pattern6 {PatternBgnd KeepColor Landscape {Pat9} {Pat6} ifelse setpattern} bind def
/Pattern7 {PatternBgnd KeepColor Landscape {Pat8} {Pat7} ifelse setpattern} bind def
} def
%
%
%End of PostScript Level 2 code
%
/PatternBgnd {
  TransparentPatterns {} {gsave 1 setgray fill grestore} ifelse
} def
%
% Substitute for Level 2 pattern fill codes with
% grayscale if Level 2 support is not selected.
%
/Level1PatternFill {
/Pattern1 {0.250 Density} bind def
/Pattern2 {0.500 Density} bind def
/Pattern3 {0.750 Density} bind def
/Pattern4 {0.125 Density} bind def
/Pattern5 {0.375 Density} bind def
/Pattern6 {0.625 Density} bind def
/Pattern7 {0.875 Density} bind def
} def
%
% Now test for support of Level 2 code
%
Level1 {Level1PatternFill} {Level2PatternFill} ifelse
%
/Symbol-Oblique /Symbol findfont [1 0 .167 1 0 0] makefont
dup length dict begin {1 index /FID eq {pop pop} {def} ifelse} forall
currentdict end definefont pop
/MFshow {
   { dup 5 get 3 ge
     { 5 get 3 eq {gsave} {grestore} ifelse }
     {dup dup 0 get findfont exch 1 get scalefont setfont
     [ currentpoint ] exch dup 2 get 0 exch R dup 5 get 2 ne {dup dup 6
     get exch 4 get {Gshow} {stringwidth pop 0 R} ifelse }if dup 5 get 0 eq
     {dup 3 get {2 get neg 0 exch R pop} {pop aload pop M} ifelse} {dup 5
     get 1 eq {dup 2 get exch dup 3 get exch 6 get stringwidth pop -2 div
     dup 0 R} {dup 6 get stringwidth pop -2 div 0 R 6 get
     show 2 index {aload pop M neg 3 -1 roll neg R pop pop} {pop pop pop
     pop aload pop M} ifelse }ifelse }ifelse }
     ifelse }
   forall} def
/Gswidth {dup type /stringtype eq {stringwidth} {pop (n) stringwidth} ifelse} def
/MFwidth {0 exch { dup 5 get 3 ge { 5 get 3 eq { 0 } { pop } ifelse }
 {dup 3 get{dup dup 0 get findfont exch 1 get scalefont setfont
     6 get Gswidth pop add} {pop} ifelse} ifelse} forall} def
/MLshow { currentpoint stroke M
  0 exch R
  Blacktext {gsave 0 setgray MFshow grestore} {MFshow} ifelse } bind def
/MRshow { currentpoint stroke M
  exch dup MFwidth neg 3 -1 roll R
  Blacktext {gsave 0 setgray MFshow grestore} {MFshow} ifelse } bind def
/MCshow { currentpoint stroke M
  exch dup MFwidth -2 div 3 -1 roll R
  Blacktext {gsave 0 setgray MFshow grestore} {MFshow} ifelse } bind def
/XYsave    { [( ) 1 2 true false 3 ()] } bind def
/XYrestore { [( ) 1 2 true false 4 ()] } bind def
Level1 SuppressPDFMark or 
{} {
/SDict 10 dict def
systemdict /pdfmark known not {
  userdict /pdfmark systemdict /cleartomark get put
} if
SDict begin [
  /Title (figdraw3.eps)
  /Subject (gnuplot plot)
  /Creator (gnuplot 4.6 patchlevel 5)
  /Author (yurchor)
%  /Producer (gnuplot)
%  /Keywords ()
  /CreationDate (Sat Sep 19 20:23:56 2015)
  /DOCINFO pdfmark
end
} ifelse
end
%%EndProlog
%%Page: 1 1
gnudict begin
gsave
doclip
50 50 translate
0.050 0.050 scale
0 setgray
newpath
(Helvetica) findfont 140 scalefont setfont
BackgroundColor 0 lt 3 1 roll 0 lt exch 0 lt or or not {BackgroundColor C 1.000 0 0 3400.00 2834.00 BoxColFill} if
1.000 UL
LTb
1.00 1.00 1.00 C 1.000 0 0 3399 2833 BoxColFill
1.000 UL
LTb
1.000 UL
LTa
378 280 M
2699 0 V
stroke
LTb
378 280 M
63 0 V
stroke
294 280 M
[ [(Helvetica) 140.0 0.0 true true 0 (-4)]
] -46.7 MRshow
1.000 UL
LTb
1.000 UL
LTa
378 547 M
2699 0 V
stroke
LTb
378 547 M
63 0 V
stroke
294 547 M
[ [(Helvetica) 140.0 0.0 true true 0 (-3)]
] -46.7 MRshow
1.000 UL
LTb
1.000 UL
LTa
378 813 M
2699 0 V
stroke
LTb
378 813 M
63 0 V
stroke
294 813 M
[ [(Helvetica) 140.0 0.0 true true 0 (-2)]
] -46.7 MRshow
1.000 UL
LTb
1.000 UL
LTa
378 1080 M
2699 0 V
stroke
LTb
378 1080 M
63 0 V
stroke
294 1080 M
[ [(Helvetica) 140.0 0.0 true true 0 (-1)]
] -46.7 MRshow
1.000 UL
LTb
1.000 UL
LTa
378 1347 M
2699 0 V
stroke
LTb
378 1347 M
63 0 V
stroke
294 1347 M
[ [(Helvetica) 140.0 0.0 true true 0 ( 0)]
] -46.7 MRshow
1.000 UL
LTb
1.000 UL
LTa
378 1613 M
2699 0 V
stroke
LTb
378 1613 M
63 0 V
stroke
294 1613 M
[ [(Helvetica) 140.0 0.0 true true 0 ( 1)]
] -46.7 MRshow
1.000 UL
LTb
1.000 UL
LTa
378 1880 M
2699 0 V
stroke
LTb
378 1880 M
63 0 V
stroke
294 1880 M
[ [(Helvetica) 140.0 0.0 true true 0 ( 2)]
] -46.7 MRshow
1.000 UL
LTb
1.000 UL
LTa
378 2146 M
788 0 V
1827 0 R
84 0 V
stroke
LTb
378 2146 M
63 0 V
stroke
294 2146 M
[ [(Helvetica) 140.0 0.0 true true 0 ( 3)]
] -46.7 MRshow
1.000 UL
LTb
1.000 UL
LTa
378 2413 M
2699 0 V
stroke
LTb
378 2413 M
63 0 V
stroke
294 2413 M
[ [(Helvetica) 140.0 0.0 true true 0 ( 4)]
] -46.7 MRshow
1.000 UL
LTb
1.000 UL
LTa
378 280 M
0 2133 V
stroke
LTb
378 280 M
0 63 V
stroke
378 140 M
[ [(Helvetica) 140.0 0.0 true true 0 (-4)]
] -46.7 MCshow
1.000 UL
LTb
1.000 UL
LTa
715 280 M
0 2133 V
stroke
LTb
715 280 M
0 63 V
stroke
715 140 M
[ [(Helvetica) 140.0 0.0 true true 0 (-3)]
] -46.7 MCshow
1.000 UL
LTb
1.000 UL
LTa
1053 280 M
0 2133 V
stroke
LTb
1053 280 M
0 63 V
stroke
1053 140 M
[ [(Helvetica) 140.0 0.0 true true 0 (-2)]
] -46.7 MCshow
1.000 UL
LTb
1.000 UL
LTa
1390 280 M
0 1790 V
0 280 R
0 63 V
stroke
LTb
1390 280 M
0 63 V
stroke
1390 140 M
[ [(Helvetica) 140.0 0.0 true true 0 (-1)]
] -46.7 MCshow
1.000 UL
LTb
1.000 UL
LTa
1728 280 M
0 1790 V
0 280 R
0 63 V
stroke
LTb
1728 280 M
0 63 V
stroke
1728 140 M
[ [(Helvetica) 140.0 0.0 true true 0 ( 0)]
] -46.7 MCshow
1.000 UL
LTb
1.000 UL
LTa
2065 280 M
0 1790 V
0 280 R
0 63 V
stroke
LTb
2065 280 M
0 63 V
stroke
2065 140 M
[ [(Helvetica) 140.0 0.0 true true 0 ( 1)]
] -46.7 MCshow
1.000 UL
LTb
1.000 UL
LTa
2402 280 M
0 1790 V
0 280 R
0 63 V
stroke
LTb
2402 280 M
0 63 V
stroke
2402 140 M
[ [(Helvetica) 140.0 0.0 true true 0 ( 2)]
] -46.7 MCshow
1.000 UL
LTb
1.000 UL
LTa
2740 280 M
0 1790 V
0 280 R
0 63 V
stroke
LTb
2740 280 M
0 63 V
stroke
2740 140 M
[ [(Helvetica) 140.0 0.0 true true 0 ( 3)]
] -46.7 MCshow
1.000 UL
LTb
1.000 UL
LTa
3077 280 M
0 2133 V
stroke
LTb
3077 280 M
0 63 V
stroke
3077 140 M
[ [(Helvetica) 140.0 0.0 true true 0 ( 4)]
] -46.7 MCshow
1.000 UL
LTb
1.000 UL
LTb
378 2413 N
378 280 L
2699 0 V
0 2133 V
-2699 0 V
Z stroke
LCb setrgbcolor
LTb
LCb setrgbcolor
LTb
LCb setrgbcolor
LTb
1727 2623 M
[ [(Helvetica) 140.0 0.0 true true 0 (Two implicit functions)]
] -46.7 MCshow
LCb setrgbcolor
LTb
1.000 UP
1.000 UL
LTb
% Begin plot #1
1.000 UL
LT0
0.00 0.00 1.00 C LCb setrgbcolor
2426 2280 M
[ [(Helvetica) 140.0 0.0 true true 0 (y)]
[(Helvetica) 112.0 70.0 true true 0 (2)]
[(Helvetica) 140.0 0.0 true true 0 (=x)]
[(Helvetica) 112.0 70.0 true true 0 (3)]
[(Helvetica) 140.0 0.0 true true 0 (-2*x+1)]
] -60.7 MRshow
LT0
0.00 0.00 1.00 C 2510 2280 M
399 0 V
-258 133 R
0 -9 V
-6 -4 R
6 4 V
2645 293 M
6 -4 V
0 -9 V
-6 2120 R
-5 -4 V
0 -9 V
-6 -4 R
6 4 V
-6 -4 R
-5 -4 V
0 -9 V
0 -8 V
-5 -4 R
5 4 V
-5 -4 R
-6 -5 V
0 -8 V
-5 -5 R
5 5 V
-5 -5 R
-6 -4 V
0 -8 V
0 -9 V
-5 -4 R
5 4 V
-5 -4 R
-5 -4 V
0 -9 V
-6 -4 R
6 4 V
5 -1924 R
5 -4 V
0 -9 V
-16 30 R
6 -4 V
0 -9 V
5 -4 V
22 -43 R
5 -4 V
0 -8 V
-16 30 R
5 -5 V
0 -8 V
6 -5 V
-17 30 R
0 -8 V
6 -4 V
21 -43 R
6 -4 V
0 -9 V
5 -4 V
-16 30 R
0 -9 V
5 -4 V
-43 1988 R
-5 -4 V
0 -9 V
0 -9 V
-6 -4 R
6 4 V
-6 -4 R
-5 -4 V
0 -9 V
-5 -4 R
5 4 V
-5 -4 R
-6 -4 V
0 -9 V
0 -8 V
-5 -4 R
5 4 V
-5 -4 R
-6 -5 V
0 -8 V
-5 -5 R
5 5 V
-5 -5 R
-5 -4 V
0 -8 V
0 -9 V
-6 -4 R
6 4 V
2537 506 M
6 -4 V
0 -9 V
16 -30 R
5 -4 V
0 -8 V
-16 30 R
5 -5 V
0 -8 V
6 -5 V
-16 30 R
0 -8 V
5 -4 V
32 -60 R
6 -4 V
0 -9 V
-16 30 R
5 -4 V
stroke 2575 434 M
0 -9 V
5 -4 V
-16 30 R
0 -9 V
6 -4 V
16 -30 R
0 -9 V
5 -4 V
-54 1792 R
-5 -4 V
0 -9 V
-6 -4 R
6 4 V
-6 -4 R
-5 -4 V
0 -9 V
-5 -4 R
5 4 V
-5 -4 R
-6 -4 V
0 -9 V
0 -9 V
-5 -4 R
5 4 V
-5 -4 R
-6 -4 V
0 -9 V
-5 -4 R
5 4 V
-5 -4 R
-5 -4 V
0 -9 V
-6 -4 R
6 4 V
5 -1514 R
5 -4 V
-16 21 R
6 -4 V
0 -9 V
5 -4 V
22 -43 R
5 -4 V
-16 30 R
5 -4 V
0 -9 V
0 -9 V
6 -4 V
-17 39 R
0 -9 V
6 -4 V
21 -43 R
6 -4 V
0 -9 V
5 -4 V
-16 30 R
0 -9 V
5 -4 V
-43 1570 R
-5 -4 V
0 -9 V
0 -8 V
-6 -5 R
6 5 V
-6 -5 R
-5 -4 V
0 -8 V
-5 -5 R
5 5 V
-5 -5 R
-6 -4 V
0 -8 V
-5 -5 R
5 5 V
-5 -5 R
-6 -4 V
0 -8 V
0 -9 V
-5 -4 R
5 4 V
-5 -4 R
-5 -5 V
0 -8 V
-6 -4 R
6 4 V
5 -1310 R
5 -4 V
0 -9 V
0 -8 V
-16 38 R
6 -4 V
0 -8 V
5 -5 V
32 -59 R
6 -5 V
-16 22 R
5 -5 V
0 -8 V
5 -4 V
-21 34 R
5 -5 V
0 -8 V
6 -4 V
-17 21 R
6 -4 V
stroke 2451 660 M
27 -39 R
0 -8 V
0 -9 V
5 -4 V
-54 1391 R
-5 -5 V
0 -8 V
-6 -4 R
6 4 V
-6 -4 R
-5 -5 V
0 -8 V
0 -9 V
-5 -4 R
5 4 V
-5 -4 R
-6 -4 V
0 -9 V
-5 -4 R
5 4 V
-5 -4 R
-6 -4 V
0 -9 V
-5 -4 R
5 4 V
-5 -4 R
-5 -4 V
0 -9 V
-6 -4 R
6 4 V
2375 796 M
6 -4 V
16 -30 R
5 -4 V
0 -9 V
-16 30 R
5 -4 V
0 -9 V
6 -4 V
-16 30 R
0 -9 V
5 -4 V
32 -60 R
6 -4 V
0 -8 V
-16 38 R
5 -4 V
0 -9 V
0 -8 V
5 -5 V
-16 30 R
6 -4 V
16 -38 R
5 -5 V
-54 1195 R
-5 -4 V
0 -9 V
-6 -4 R
6 4 V
-6 -4 R
-5 -5 V
0 -8 V
0 -9 V
-5 -4 R
5 4 V
-5 -4 R
-6 -4 V
0 -9 V
-5 -4 R
5 4 V
-5 -4 R
-6 -4 V
0 -9 V
-5 -4 R
5 4 V
-5 -4 R
-5 -4 V
0 -9 V
-6 -4 R
6 4 V
-6 -917 R
6 -4 V
0 -9 V
27 -38 R
5 -4 V
-16 21 R
5 -4 V
0 -9 V
6 -4 V
-22 34 R
5 -4 V
0 -9 V
6 -4 V
-16 21 R
5 -4 V
32 -60 R
6 -4 V
0 -9 V
5 -4 V
-16 39 R
0 -9 V
0 -8 V
5 -5 V
-43 990 R
-5 -4 V
stroke 2316 1799 M
0 -9 V
-6 -4 R
6 4 V
-6 -4 R
-5 -4 V
0 -9 V
-5 -4 R
5 4 V
-5 -4 R
-6 -4 V
0 -9 V
-5 -4 R
5 4 V
-5 -4 R
-6 -4 V
0 -9 V
-5 -4 R
5 4 V
-5 -4 R
-5 -5 V
0 -8 V
-6 -4 R
6 4 V
-6 -747 R
6 -4 V
0 -8 V
27 -39 R
5 -4 V
-16 21 R
5 -4 V
0 -9 V
6 -4 V
-22 34 R
5 -4 V
0 -9 V
6 -4 V
-16 22 R
5 -5 V
32 -51 R
6 -4 V
0 -9 V
5 -4 V
-16 30 R
0 -9 V
5 -4 V
-43 811 R
-5 -5 V
0 -8 V
0 -9 V
-5 -4 R
5 4 V
-5 -4 R
-6 -4 V
0 -9 V
-5 -4 R
5 4 V
-5 -4 R
-6 -4 V
0 -9 V
-5 -4 R
5 4 V
-5 -4 R
-5 -4 V
0 -9 V
-6 -4 R
6 4 V
-6 -4 R
-5 -4 V
0 -9 V
-6 -4 R
6 4 V
5 -576 R
6 -4 V
-17 21 R
6 -4 V
0 -9 V
5 -4 V
22 -34 R
5 -4 V
0 -9 V
-16 30 R
5 -4 V
0 -9 V
6 -4 V
-16 30 R
0 -9 V
5 -4 V
22 -34 R
5 -4 V
0 -9 V
0 -8 V
5 -5 V
-16 30 R
6 -4 V
-44 623 R
-5 -4 V
0 -9 V
-5 -4 R
5 4 V
-5 -4 R
-6 -5 V
0 -8 V
-5 -4 R
5 4 V
stroke 2197 1594 M
-5 -4 R
-6 -5 V
0 -8 V
-5 -4 R
5 4 V
-5 -4 R
-5 -5 V
0 -8 V
-6 -4 R
6 4 V
-6 -4 R
-5 -5 V
0 -8 V
-6 -5 R
6 5 V
5 -406 R
6 -4 V
-17 22 R
6 -5 V
0 -8 V
5 -5 V
22 -34 R
5 -4 V
0 -8 V
-16 29 R
5 -4 V
0 -8 V
6 -5 V
-16 30 R
0 -8 V
5 -5 V
22 -34 R
5 -4 V
0 -9 V
5 -4 V
-16 22 R
6 -5 V
-44 452 R
-5 -4 V
0 -8 V
-5 -5 R
5 5 V
-5 -5 R
-6 -4 V
0 -8 V
-5 -5 R
5 5 V
-5 -5 R
-6 -4 V
0 -8 V
-5 -5 R
5 5 V
-5 -5 R
-5 -4 V
0 -9 V
-6 -4 R
6 4 V
-6 -4 R
-5 -4 V
0 -9 V
-6 -4 R
6 4 V
5 -234 R
6 -4 V
-17 21 R
6 -4 V
0 -9 V
5 -4 V
22 -34 R
5 -5 V
0 -8 V
-16 30 R
5 -5 V
0 -8 V
6 -4 V
-16 30 R
0 -9 V
5 -4 V
22 -34 R
5 -5 V
0 -8 V
5 -4 V
-16 21 R
6 -4 V
-44 281 R
-5 -4 V
0 -9 V
-5 -4 R
5 4 V
-5 -4 R
-6 -4 V
0 -9 V
-5 -4 R
5 4 V
-5 -4 R
-6 -4 V
0 -9 V
0 -8 V
-5 -5 R
5 5 V
-5 -5 R
-5 -4 V
0 -8 V
0 -9 V
stroke 2068 1372 M
0 -8 V
0 -9 V
0 -8 V
0 -9 V
0 -9 V
0 -8 V
0 -9 V
0 -8 V
16 -30 R
5 -4 V
0 -9 V
-16 39 R
5 -5 V
0 -8 V
0 -9 V
6 -4 V
-16 30 R
5 -4 V
22 -43 R
5 -4 V
0 -9 V
5 -4 V
-16 21 R
6 -4 V
-195 179 R
6 -4 V
-17 21 R
6 -4 V
0 -9 V
5 -4 V
22 -34 R
5 -4 V
0 -9 V
-16 30 R
5 -4 V
0 -9 V
6 -4 V
-16 30 R
0 -9 V
5 -4 V
22 -51 R
5 -4 V
0 -9 V
0 -8 V
-11 42 R
0 -8 V
0 -9 V
6 -4 V
5 -21 R
0 -9 V
0 -9 V
-5 -4 R
5 4 V
-5 -4 R
-6 -4 V
0 -9 V
0 -8 V
0 -9 V
-5 -4 R
5 4 V
-5 -4 R
-6 -4 V
0 -9 V
-5 -4 R
5 4 V
-5 -4 R
-5 -4 V
0 -9 V
-6 -4 R
6 4 V
-6 -4 R
-5 -4 V
0 -9 V
-6 -4 R
6 4 V
-27 235 R
5 -5 V
-16 13 R
5 -4 V
6 -4 V
-22 25 R
6 -4 V
0 -8 V
5 -5 V
-22 26 R
6 -4 V
5 -5 V
33 -42 R
5 -5 V
5 -4 V
-16 21 R
0 -8 V
6 -4 V
10 -222 R
-5 -4 V
-5 -5 R
5 5 V
-5 -5 R
-6 -4 V
0 -8 V
-5 -5 R
5 5 V
-5 -5 R
-6 -4 V
stroke 1862 1210 M
-5 -4 R
5 4 V
-5 -4 R
-5 -5 V
0 -8 V
-6 -4 R
6 4 V
-6 -4 R
-5 -5 V
-6 -4 R
6 4 V
-60 380 R
6 -4 V
38 -39 R
5 -4 V
-16 21 R
5 -4 V
0 -8 V
6 -5 V
-22 26 R
5 -4 V
6 -5 V
-22 18 R
6 -5 V
5 -4 V
-16 13 R
5 -4 V
38 -39 R
5 -4 V
0 -333 R
-5 -4 V
-5 -4 R
5 4 V
-5 -4 R
-6 -5 V
0 -8 V
-5 -4 R
5 4 V
-5 -4 R
-6 -5 V
-5 -4 R
5 4 V
-5 -4 R
-5 -4 V
-6 -5 R
6 5 V
-6 -5 R
-5 -4 V
-6 -4 R
6 4 V
-49 474 R
6 -5 V
-16 13 R
5 -4 V
5 -4 V
33 -34 R
5 -5 V
5 -4 V
-21 26 R
5 -5 V
0 -8 V
6 -4 V
-22 25 R
5 -4 V
6 -4 V
-16 12 R
5 -4 V
32 -469 R
-5 -4 V
-5 -5 R
5 5 V
-5 -5 R
-6 -4 V
0 -8 V
-5 -5 R
5 5 V
-5 -5 R
-6 -4 V
-5 -4 R
5 4 V
-5 -4 R
-5 -4 V
-6 -5 R
6 5 V
-6 -5 R
-5 -4 V
-5 -4 R
5 4 V
-59 567 R
5 -4 V
38 -21 R
5 -4 V
6 -5 V
-22 17 R
5 -4 V
6 -4 V
-22 17 R
6 -4 V
5 -5 V
-22 9 R
11 0 V
-16 4 R
5 -4 V
44 -563 R
-6 -5 V
stroke 1722 1073 M
-5 -4 R
5 4 V
-5 -4 R
-6 -4 V
-5 -4 R
5 4 V
-5 -4 R
-5 -5 V
-6 -4 R
6 4 V
-17 -4 R
11 0 V
-11 0 R
-5 -4 V
-5 -4 R
5 4 V
-16 610 R
5 -4 V
6 -5 V
-22 17 R
5 -4 V
6 -4 V
-22 17 R
6 -4 V
5 -5 V
-22 9 R
11 0 V
-21 9 R
5 -5 V
5 -4 V
44 -631 R
-6 -5 V
-5 -4 R
5 4 V
-5 -4 R
-6 -4 V
-5 -4 R
5 4 V
-5 -4 R
-5 -5 V
-6 -4 R
6 4 V
-17 -4 R
11 0 V
-11 0 R
-5 -4 V
-5 -5 R
5 5 V
-16 678 R
5 -4 V
-16 4 R
11 0 V
-22 9 R
6 -5 V
5 -4 V
-22 9 R
11 0 V
-21 8 R
5 -4 V
5 -4 V
38 -13 R
6 -4 V
0 -675 R
-6 -4 V
-5 -4 R
5 4 V
-16 -4 R
11 0 V
-11 0 R
-5 -4 V
-6 -5 R
6 5 V
-17 -5 R
11 0 V
-11 0 R
-5 -4 V
-5 -4 R
5 4 V
-16 721 R
11 0 V
-22 9 R
5 -5 V
6 -4 V
-22 9 R
11 0 V
-22 8 R
6 -4 V
5 -4 V
-21 8 R
10 0 V
33 -742 R
11 0 V
-11 0 R
-6 -4 V
-5 -5 R
5 5 V
-16 -5 R
11 0 V
-11 0 R
-5 -4 V
-6 -4 R
6 4 V
-16 -4 R
10 0 V
stroke 1522 967 M
-54 768 R
6 -5 V
-16 5 R
10 0 V
33 -9 R
11 0 V
-22 0 R
11 0 V
-22 0 R
11 0 V
-16 4 R
5 -4 V
22 -759 R
11 0 V
-22 0 R
11 0 V
-22 0 R
11 0 V
-11 0 R
-5 -4 V
-6 -5 R
6 5 V
-16 -5 R
10 0 V
-21 777 R
11 0 V
-22 0 R
11 0 V
-11 0 R
-5 -5 V
-6 -4 R
6 4 V
-17 -4 R
11 0 V
-21 0 R
10 0 V
11 -759 R
6 -4 V
-17 4 R
11 0 V
-21 0 R
10 0 V
33 -9 R
11 0 V
-22 0 R
11 0 V
-16 5 R
5 -5 V
-43 768 R
11 0 V
-11 0 R
-6 -4 V
-5 -4 R
5 4 V
-16 -4 R
11 0 V
-11 0 R
-5 -5 V
-6 -4 R
6 4 V
-16 -4 R
10 0 V
33 -742 R
11 0 V
-22 8 R
5 -4 V
6 -4 V
-22 8 R
11 0 V
-22 9 R
6 -4 V
5 -5 V
-21 9 R
10 0 V
-10 725 R
-6 -4 V
-5 -4 R
5 4 V
-5 -4 R
-6 -5 V
-5 -4 R
5 4 V
-5 -4 R
-5 -4 V
-6 -4 R
6 4 V
-6 -4 R
-5 -5 V
-6 -4 R
6 4 V
-6 -4 R
-5 -4 V
-5 -5 R
5 5 V
16 -662 R
6 -4 V
-17 13 R
6 -4 V
5 -5 V
-21 18 R
5 -5 V
5 -4 V
33 -26 R
5 -4 V
stroke 1344 988 M
6 -4 V
-22 17 R
5 -4 V
6 -5 V
-16 13 R
5 -4 V
-32 665 R
-6 -4 V
-5 -4 R
5 4 V
-5 -4 R
-6 -4 V
-5 -5 R
5 5 V
-5 -5 R
-5 -4 V
0 -8 V
-6 -5 R
6 5 V
-6 -5 R
-5 -4 V
0 -8 V
-6 -5 R
6 5 V
-6 -5 R
-5 -4 V
0 -9 V
-5 -4 R
5 4 V
-5 -507 R
5 -4 V
16 -30 R
6 -5 V
0 -8 V
-17 30 R
6 -5 V
0 -8 V
5 -4 V
-16 30 R
0 -9 V
5 -4 V
33 -43 R
5 -4 V
6 -4 V
-22 17 R
5 -5 V
6 -4 V
-16 13 R
5 -4 V
-32 554 R
-6 -4 V
0 -9 V
-5 -4 R
5 4 V
-5 -4 R
-6 -4 V
0 -9 V
0 -8 V
-5 -4 R
5 4 V
-5 -4 R
-5 -5 V
0 -8 V
0 -9 V
0 -8 V
-6 -5 R
6 5 V
-6 -5 R
-5 -4 V
0 -8 V
0 -9 V
0 -8 V
-6 -5 R
6 5 V
-6 -5 R
-5 -4 V
0 -9 V
0 -8 V
0 -9 V
0 -8 V
0 -9 V
-5 -4 R
5 4 V
-5 -183 R
5 -4 V
0 -9 V
0 -8 V
0 -9 V
0 -8 V
5 -13 R
6 -5 V
0 -8 V
0 -9 V
0 -8 V
-11 43 R
0 -9 V
5 -4 V
22 -69 R
5 -4 V
-16 39 R
6 -5 V
0 -8 V
0 -9 V
0 -8 V
stroke 1215 1142 M
5 -5 V
-16 39 R
5 -4 V
22 -60 R
5 -4 V
0 -9 V
6 -4 V
-17 38 R
0 -8 V
0 -9 V
6 -4 V
-43 324 R
-6 -4 V
0 -9 V
0 -8 V
0 -9 V
0 -8 V
0 -9 V
0 -8 V
0 -9 V
0 -8 V
0 -9 V
0 -8 V
0 -9 V
0 -9 V
0 -8 V
0 -9 V
0 -8 V
0 -9 V
0 -8 V
0 -9 V
0 -8 V
0 -9 V
6 -4 V
% End plot #1
% Begin plot #2
stroke
LTa
0.00 0.00 1.00 C LCb setrgbcolor
2426 2140 M
[ [(Helvetica) 140.0 0.0 true true 0 (x)]
[(Helvetica) 112.0 70.0 true true 0 (3)]
[(Helvetica) 140.0 0.0 true true 0 (+y)]
[(Helvetica) 112.0 70.0 true true 0 (3)]
[(Helvetica) 140.0 0.0 true true 0 (=3*x*y)]
[(Helvetica) 112.0 70.0 true true 0 (2)]
[(Helvetica) 140.0 0.0 true true 0 (-x-1)]
] -60.7 MRshow
LTa
0.00 0.00 1.00 C 2510 2140 M
399 0 V
168 -64 R
-5 -4 V
-6 -5 R
6 5 V
-17 -5 R
11 0 V
-11 0 R
-5 -4 V
-5 -4 R
5 4 V
-5 -4 R
-6 -4 V
-5 -5 R
5 5 V
-16 -5 R
11 0 V
3066 762 M
11 0 V
-22 9 R
6 -5 V
5 -4 V
-21 9 R
10 0 V
-21 8 R
5 -4 V
6 -4 V
-22 8 R
11 0 V
-11 1271 R
-5 -4 V
-6 -4 R
6 4 V
-6 -4 R
-5 -4 V
-6 -5 R
6 5 V
-16 -5 R
10 0 V
-10 0 R
-6 -4 V
-5 -4 R
5 4 V
-16 -4 R
11 0 V
2991 796 M
5 -4 V
-16 4 R
11 0 V
-22 9 R
5 -5 V
6 -4 V
32 -8 R
6 -5 V
5 -4 V
-22 9 R
11 0 V
-16 4 R
5 -4 V
-32 1237 R
-5 -4 V
-6 -5 R
6 5 V
-6 -5 R
-5 -4 V
-6 -4 R
6 4 V
-16 -4 R
10 0 V
-10 0 R
-6 -5 V
-5 -4 R
5 4 V
-16 -4 R
11 0 V
2958 805 M
11 0 V
-22 8 R
6 -4 V
5 -4 V
-21 8 R
10 0 V
-21 9 R
5 -4 V
6 -5 V
-22 9 R
11 0 V
-11 1177 R
-5 -4 V
-6 -4 R
6 4 V
-6 -4 R
-5 -5 V
-6 -4 R
6 4 V
-16 -4 R
10 0 V
-10 0 R
-6 -4 V
-5 -4 R
5 4 V
-16 -4 R
11 0 V
2883 839 M
5 -4 V
stroke 2888 835 M
-16 4 R
11 0 V
-22 8 R
5 -4 V
6 -4 V
32 -9 R
6 -4 V
5 -4 V
-22 8 R
11 0 V
-16 5 R
5 -5 V
-32 1144 R
-5 -5 V
-6 -4 R
6 4 V
-6 -4 R
-5 -4 V
-6 -4 R
6 4 V
-16 -4 R
10 0 V
-10 0 R
-6 -5 V
-5 -4 R
5 4 V
-16 -4 R
11 0 V
2850 847 M
11 0 V
-22 9 R
6 -4 V
5 -5 V
-21 9 R
10 0 V
-21 8 R
5 -4 V
6 -4 V
-22 8 R
11 0 V
-11 1084 R
-5 -4 V
-6 -5 R
6 5 V
-6 -5 R
-5 -4 V
-5 -4 R
5 4 V
-16 -4 R
11 0 V
-11 0 R
-6 -4 V
-5 -5 R
5 5 V
-16 -5 R
11 0 V
2775 882 M
5 -5 V
-16 5 R
11 0 V
-22 8 R
6 -4 V
5 -4 V
32 -9 R
6 -4 V
5 -5 V
-21 9 R
10 0 V
-16 4 R
6 -4 V
-33 1049 R
-5 -4 V
-6 -4 R
6 4 V
-6 -4 R
-5 -4 V
-5 -5 R
5 5 V
-16 -5 R
11 0 V
-11 0 R
-6 -4 V
-5 -4 R
5 4 V
-16 -4 R
11 0 V
2742 890 M
11 0 V
-21 9 R
5 -5 V
5 -4 V
-21 9 R
11 0 V
-22 8 R
5 -4 V
6 -4 V
-22 8 R
11 0 V
-11 990 R
-5 -4 V
-6 -5 R
6 5 V
-16 -5 R
10 0 V
stroke 2688 1888 M
-10 0 R
-6 -4 V
-5 -4 R
5 4 V
-5 -4 R
-6 -5 V
-5 -4 R
5 4 V
-16 -4 R
11 0 V
11 -947 R
5 -4 V
-16 4 R
11 0 V
-22 9 R
6 -5 V
5 -4 V
32 -8 R
6 -5 V
5 -4 V
-21 9 R
10 0 V
-16 4 R
6 -4 V
-33 955 R
-5 -4 V
-6 -4 R
6 4 V
-16 -4 R
10 0 V
-10 0 R
-6 -5 V
-5 -4 R
5 4 V
-16 -4 R
11 0 V
-11 0 R
-5 -4 V
-6 -4 R
6 4 V
37 -917 R
11 0 V
-21 8 R
5 -4 V
5 -4 V
-21 8 R
11 0 V
-22 0 R
11 0 V
-22 9 R
6 -5 V
5 -4 V
-11 905 R
-5 -5 V
-6 -4 R
6 4 V
-16 -4 R
10 0 V
-10 0 R
-6 -4 V
-5 -4 R
5 4 V
-16 -4 R
11 0 V
-11 0 R
-5 -5 V
-6 -4 R
6 4 V
5 -857 R
5 -4 V
-16 4 R
11 0 V
32 -17 R
11 0 V
-21 8 R
5 -4 V
5 -4 V
-21 8 R
11 0 V
-17 5 R
6 -5 V
-33 862 R
11 0 V
-11 0 R
-5 -4 V
-5 -5 R
5 5 V
-16 -5 R
11 0 V
-11 0 R
-6 -4 V
-5 -4 R
5 4 V
-16 -4 R
11 0 V
32 -828 R
6 -4 V
5 -4 V
-21 8 R
10 0 V
-21 9 R
5 -4 V
6 -5 V
-22 9 R
11 0 V
stroke 2505 984 M
-22 8 R
6 -4 V
5 -4 V
-11 819 R
-5 -4 V
-6 -5 R
6 5 V
-16 -5 R
10 0 V
-10 0 R
-6 -4 V
-5 -4 R
5 4 V
-16 -4 R
11 0 V
-11 0 R
-5 -4 V
-6 -5 R
6 5 V
-6 -773 R
6 -4 V
37 -13 R
11 0 V
-21 9 R
5 -4 V
5 -5 V
-21 9 R
11 0 V
-22 0 R
11 0 V
-16 4 R
5 -4 V
-22 776 R
11 0 V
-11 0 R
-5 -4 V
-5 -4 R
5 4 V
-16 -4 R
11 0 V
-11 0 R
-6 -4 V
-5 -5 R
5 5 V
-16 -5 R
11 0 V
32 -751 R
11 0 V
-21 9 R
5 -4 V
5 -5 V
-21 9 R
11 0 V
-22 9 R
5 -5 V
6 -4 V
-22 9 R
11 0 V
-11 733 R
-5 -4 V
-6 -4 R
6 4 V
-16 -4 R
10 0 V
-10 0 R
-6 -4 V
-5 -5 R
5 5 V
-16 -5 R
11 0 V
-11 0 R
-5 -4 V
-6 -4 R
6 4 V
37 -712 R
11 0 V
-21 8 R
5 -4 V
5 -4 V
-21 8 R
11 0 V
-22 9 R
5 -5 V
6 -4 V
-22 9 R
11 0 V
-22 691 R
11 0 V
-21 0 R
10 0 V
-10 0 R
-6 -5 V
-5 -4 R
5 4 V
-16 -4 R
11 0 V
-11 0 R
-5 -4 V
-6 -4 R
6 4 V
37 -670 R
6 -4 V
-16 4 R
10 0 V
stroke 2310 1052 M
-21 0 R
11 0 V
-22 9 R
5 -5 V
6 -4 V
-22 9 R
11 0 V
38 -13 R
5 -4 V
2213 2409 M
6 4 V
38 -695 R
10 0 V
-21 0 R
11 0 V
-11 0 R
-6 -5 V
-5 -4 R
5 4 V
-16 -4 R
11 0 V
-22 0 R
11 0 V
33 -640 R
5 -4 V
5 -4 V
-21 8 R
11 0 V
-22 0 R
11 0 V
-22 9 R
6 -5 V
5 -4 V
-22 9 R
11 0 V
-11 1331 R
-5 -5 V
0 -8 V
0 -9 V
-5 -4 R
5 4 V
-5 -4 R
-6 -4 V
0 -9 V
0 -8 V
-5 -4 R
5 4 V
-5 -4 R
-6 -5 V
0 -8 V
0 -9 V
0 -8 V
-5 -5 R
5 5 V
-5 -5 R
-5 -4 V
0 -8 V
0 -9 V
-6 -4 R
6 4 V
-6 -4 R
-5 -4 V
0 -9 V
0 -9 V
-6 -4 R
6 4 V
48 -567 R
-5 -4 V
-5 -4 R
5 4 V
-16 -4 R
11 0 V
-22 0 R
11 0 V
-22 0 R
11 0 V
-22 0 R
11 0 V
-11 -606 R
6 -4 V
38 -13 R
10 0 V
-21 8 R
5 -4 V
6 -4 V
-22 8 R
11 0 V
-22 0 R
11 0 V
-16 5 R
5 -5 V
-11 1186 R
-5 -4 V
0 -9 V
0 -8 V
-5 -4 R
5 4 V
-5 -4 R
-6 -5 V
0 -8 V
0 -9 V
-5 -4 R
5 4 V
-5 -4 R
-6 -4 V
stroke 2132 2217 M
0 -9 V
0 -8 V
-5 -5 R
5 5 V
-5 -5 R
-5 -4 V
0 -8 V
0 -9 V
0 -8 V
-6 -5 R
6 5 V
-6 -5 R
-5 -4 V
0 -8 V
0 -9 V
-6 -4 R
6 4 V
38 -439 R
10 0 V
-10 0 R
-6 -5 V
-5 -4 R
5 4 V
-16 -4 R
11 0 V
-22 0 R
11 0 V
-22 0 R
11 0 V
33 -597 R
10 0 V
-21 0 R
11 0 V
-22 8 R
5 -4 V
6 -4 V
-22 8 R
11 0 V
-22 0 R
11 0 V
-11 1033 R
-5 -5 V
0 -8 V
0 -9 V
0 -8 V
-5 -4 R
5 4 V
-5 -4 R
-6 -5 V
0 -8 V
0 -9 V
-5 -4 R
5 4 V
-5 -4 R
-6 -4 V
0 -9 V
0 -8 V
0 -9 V
-5 -4 R
5 4 V
-5 -4 R
-5 -4 V
0 -9 V
0 -8 V
-6 -5 R
6 5 V
-6 -5 R
-5 -4 V
0 -9 V
0 -8 V
0 -9 V
-6 -4 R
6 4 V
38 -285 R
5 -5 V
5 -4 V
-21 9 R
11 0 V
-22 0 R
11 0 V
-22 8 R
6 -4 V
5 -4 V
-22 8 R
11 0 V
33 -606 R
10 0 V
-21 9 R
5 -4 V
6 -5 V
-22 9 R
11 0 V
-22 0 R
11 0 V
-22 0 R
11 0 V
-11 870 R
-5 -4 V
0 -9 V
0 -8 V
0 -9 V
-5 -4 R
5 4 V
-5 -4 R
-6 -4 V
stroke 2035 1944 M
0 -9 V
0 -8 V
0 -9 V
0 -8 V
-5 -5 R
5 5 V
-5 -5 R
-6 -4 V
0 -8 V
0 -9 V
0 -9 V
0 -8 V
0 -9 V
-5 -4 R
5 4 V
-5 -4 R
-5 -4 V
0 -9 V
0 -8 V
0 -9 V
0 -8 V
0 -9 V
0 -8 V
0 -9 V
0 -8 V
0 -9 V
16 -38 R
5 -5 V
-16 30 R
5 -4 V
0 -8 V
0 -9 V
6 -4 V
-16 38 R
0 -8 V
5 -5 V
22 -42 R
5 -5 V
5 -4 V
-16 21 R
0 -8 V
6 -4 V
0 -606 R
10 0 V
-21 8 R
5 -4 V
6 -4 V
-22 8 R
11 0 V
-22 0 R
11 0 V
-22 0 R
11 0 V
-21 0 R
10 0 V
-21 0 R
11 0 V
-22 0 R
11 0 V
-22 0 R
11 0 V
-22 9 R
6 -4 V
5 -5 V
-21 9 R
10 0 V
-21 0 R
11 0 V
-22 0 R
11 0 V
-11 0 R
-5 -4 V
-6 -5 R
6 5 V
-17 -5 R
11 0 V
-21 0 R
10 0 V
-21 0 R
11 0 V
-22 0 R
11 0 V
-22 0 R
11 0 V
-22 0 R
11 0 V
-11 0 R
-5 -4 V
-5 -4 R
5 4 V
-16 -4 R
11 0 V
-22 0 R
11 0 V
-11 0 R
-5 -4 V
-6 -5 R
6 5 V
-17 -5 R
11 0 V
-11 0 R
-5 -4 V
-5 -4 R
5 4 V
stroke 1776 1099 M
-16 -4 R
11 0 V
-11 0 R
-6 -4 V
-5 -5 R
5 5 V
-16 -5 R
11 0 V
-11 0 R
-5 -4 V
-5 -4 R
5 4 V
-16 -4 R
11 0 V
-11 0 R
-6 -5 V
-5 -4 R
5 4 V
-5 -4 R
-5 -4 V
-6 -4 R
6 4 V
-6 -4 R
-5 -5 V
-6 -4 R
6 4 V
-6 -4 R
-5 -4 V
-5 -4 R
5 4 V
-5 -4 R
-6 -5 V
-5 -4 R
5 4 V
-5 -4 R
-6 -4 V
-5 -4 R
5 4 V
-5 -4 R
-5 -5 V
-6 -4 R
6 4 V
-6 -4 R
-5 -4 V
0 -9 V
-6 -4 R
6 4 V
-6 -4 R
-5 -4 V
-5 -5 R
5 5 V
-5 -5 R
-6 -4 V
-5 -4 R
5 4 V
-5 -4 R
-6 -4 V
0 -9 V
-5 -4 R
5 4 V
-5 -4 R
-5 -4 V
0 -9 V
-6 -4 R
6 4 V
-6 -4 R
-5 -5 V
0 -8 V
-6 -4 R
6 4 V
-6 -4 R
-5 -5 V
-5 -4 R
5 4 V
-5 -4 R
-6 -4 V
0 -9 V
-5 -4 R
5 4 V
-5 -4 R
-6 -4 V
0 -9 V
0 -8 V
-5 -4 R
5 4 V
-5 -4 R
-5 -5 V
0 -8 V
-6 -5 R
6 5 V
-6 -5 R
-5 -4 V
0 -8 V
-6 -5 R
6 5 V
-6 -5 R
-5 -4 V
0 -8 V
-5 -5 R
5 5 V
-59 601 R
5 -4 V
16 -22 R
6 -4 V
stroke 1485 1406 M
0 -8 V
0 -9 V
-17 39 R
6 -5 V
0 -8 V
5 -5 V
-16 22 R
5 -4 V
22 -43 R
5 -4 V
0 -9 V
0 -8 V
0 -9 V
0 -8 V
-10 42 R
5 -4 V
5 -38 R
0 -9 V
0 -9 V
0 -8 V
0 -9 V
0 -8 V
-5 -4 R
5 4 V
-5 -4 R
-5 -5 V
0 -8 V
0 -9 V
-6 -4 R
6 4 V
-6 -4 R
-5 -4 V
0 -9 V
-6 -4 R
6 4 V
-6 -4 R
-5 -4 V
0 -9 V
-5 -4 R
5 4 V
49 -414 R
-6 -4 V
0 -8 V
0 -9 V
-5 -4 R
5 4 V
-5 -4 R
-6 -5 V
0 -8 V
-5 -4 R
5 4 V
-5 -4 R
-5 -5 V
0 -8 V
0 -9 V
-6 -4 R
6 4 V
-6 -4 R
-5 -4 V
0 -9 V
-6 -4 R
6 4 V
-6 -4 R
-5 -4 V
0 -9 V
0 -8 V
-5 -5 R
5 5 V
-59 755 R
5 -5 V
38 -29 R
5 -5 V
6 -4 V
-22 17 R
5 -4 V
6 -4 V
-22 17 R
6 -5 V
5 -4 V
-22 17 R
6 -4 V
5 -4 V
-16 12 R
5 -4 V
44 -230 R
-6 -4 V
-5 -5 R
5 5 V
-5 -5 R
-6 -4 V
0 -8 V
-5 -5 R
5 5 V
-5 -5 R
-5 -4 V
-6 -4 R
6 4 V
-6 -4 R
-5 -5 V
-6 -4 R
6 4 V
-6 -4 R
-5 -4 V
0 -9 V
stroke 1409 1184 M
-5 -4 R
5 4 V
49 -465 R
-6 -4 V
0 -8 V
-5 -5 R
5 5 V
-5 -5 R
-6 -4 V
0 -8 V
0 -9 V
-5 -4 R
5 4 V
-5 -4 R
-5 -5 V
0 -8 V
0 -9 V
-6 -4 R
6 4 V
-6 -4 R
-5 -4 V
0 -9 V
-6 -4 R
6 4 V
-6 -4 R
-5 -4 V
0 -9 V
0 -8 V
-5 -5 R
5 5 V
-16 874 R
5 -4 V
6 -4 V
-22 17 R
5 -4 V
6 -5 V
-22 9 R
11 0 V
-22 8 R
6 -4 V
5 -4 V
-21 17 R
5 -4 V
5 -5 V
44 -324 R
-6 -4 V
-5 -4 R
5 4 V
-5 -4 R
-6 -5 V
-5 -4 R
5 4 V
-5 -4 R
-5 -4 V
-6 -4 R
6 4 V
-6 -4 R
-5 -5 V
-6 -4 R
6 4 V
-16 -4 R
10 0 V
44 -538 R
-6 -4 V
0 -8 V
0 -9 V
-5 -4 R
5 4 V
-5 -4 R
-6 -4 V
0 -9 V
0 -8 V
-5 -5 R
5 5 V
-5 -5 R
-5 -4 V
0 -9 V
-6 -4 R
6 4 V
-6 -4 R
-5 -4 V
0 -9 V
0 -8 V
-6 -4 R
6 4 V
-6 -4 R
-5 -5 V
0 -8 V
0 -9 V
-5 -4 R
5 4 V
-16 1028 R
5 -4 V
-16 4 R
11 0 V
-22 9 R
6 -4 V
5 -5 V
-22 9 R
11 0 V
-21 8 R
5 -4 V
5 -4 V
38 -13 R
6 -4 V
stroke 1350 1513 M
0 -367 R
-6 -4 V
-5 -5 R
5 5 V
-5 -5 R
-6 -4 V
-5 -4 R
5 4 V
-5 -4 R
-5 -4 V
-6 -5 R
6 5 V
-6 -5 R
-5 -4 V
-6 -4 R
6 4 V
-6 -4 R
-5 -4 V
-5 -5 R
5 5 V
49 -619 R
-6 -4 V
0 -9 V
0 -8 V
-5 -5 R
5 5 V
-5 -5 R
-6 -4 V
0 -8 V
-5 -5 R
5 5 V
-5 -5 R
-5 -4 V
0 -8 V
0 -9 V
-6 -4 R
6 4 V
-6 -4 R
-5 -4 V
0 -9 V
0 -9 V
-6 -4 R
6 4 V
-6 -4 R
-5 -4 V
0 -9 V
0 -8 V
-5 -4 R
5 4 V
-59 1190 R
5 -4 V
38 -13 R
5 -4 V
6 -5 V
-22 9 R
11 0 V
-22 9 R
6 -5 V
5 -4 V
-22 9 R
11 0 V
-16 4 R
5 -4 V
33 -453 R
11 0 V
-11 0 R
-6 -4 V
-5 -4 R
5 4 V
-5 -4 R
-5 -4 V
-6 -5 R
6 5 V
-6 -5 R
-5 -4 V
-6 -4 R
6 4 V
-16 -4 R
10 0 V
44 -708 R
-6 -5 V
0 -8 V
0 -9 V
-5 -4 R
5 4 V
-5 -4 R
-6 -4 V
0 -9 V
0 -8 V
-5 -5 R
5 5 V
-5 -5 R
-5 -4 V
0 -8 V
-6 -5 R
6 5 V
-6 -5 R
-5 -4 V
0 -8 V
0 -9 V
-27 1293 R
5 -5 V
6 -4 V
-22 9 R
11 0 V
stroke 1231 1573 M
-22 8 R
6 -4 V
5 -4 V
-22 8 R
11 0 V
-21 9 R
5 -5 V
5 -4 V
44 -503 R
-6 -5 V
-5 -4 R
5 4 V
-5 -4 R
-6 -4 V
-5 -4 R
5 4 V
-16 -4 R
11 0 V
-11 0 R
-5 -5 V
-6 -4 R
6 4 V
-6 -4 R
-5 -4 V
-5 -4 R
5 4 V
-38 559 R
6 -5 V
-16 5 R
10 0 V
-21 8 R
5 -4 V
6 -4 V
32 -17 R
11 0 V
-22 8 R
6 -4 V
5 -4 V
-16 12 R
5 -4 V
22 -554 R
-6 -5 V
-5 -4 R
5 4 V
-16 -4 R
11 0 V
-11 0 R
-5 -4 V
-6 -4 R
6 4 V
-6 -4 R
-5 -5 V
-5 -4 R
5 4 V
-16 -4 R
11 0 V
-22 597 R
11 0 V
-22 9 R
6 -4 V
5 -5 V
-22 9 R
11 0 V
-21 8 R
5 -4 V
5 -4 V
-21 8 R
11 0 V
43 -614 R
-6 -4 V
-5 -5 R
5 5 V
-5 -5 R
-5 -4 V
-6 -4 R
6 4 V
-17 -4 R
11 0 V
-11 0 R
-5 -4 V
-5 -5 R
5 5 V
-5 -5 R
-6 -4 V
-5 -4 R
5 4 V
-38 661 R
6 -4 V
-16 4 R
10 0 V
-21 9 R
5 -4 V
6 -5 V
32 -8 R
5 -4 V
6 -5 V
-22 9 R
11 0 V
-16 4 R
5 -4 V
11 -657 R
11 0 V
-11 0 R
-5 -4 V
stroke 1064 980 M
-6 -5 R
6 5 V
-6 -5 R
-5 -4 V
-6 -4 R
6 4 V
-16 -4 R
10 0 V
-10 0 R
-6 -4 V
-5 -5 R
5 5 V
-16 695 R
11 0 V
-22 8 R
6 -4 V
5 -4 V
-22 17 R
6 -4 V
5 -5 V
-21 9 R
10 0 V
-21 9 R
5 -5 V
6 -4 V
32 -717 R
11 0 V
-11 0 R
-5 -4 V
-6 -4 R
6 4 V
-6 -4 R
-5 -5 V
-6 -4 R
6 4 V
-16 -4 R
10 0 V
-10 0 R
-6 -4 V
-5 -4 R
5 4 V
-27 755 R
6 -4 V
-17 4 R
11 0 V
-21 9 R
5 -5 V
5 -4 V
-21 9 R
11 0 V
32 -17 R
11 0 V
-16 4 R
5 -4 V
972 933 M
-6 -5 V
-5 -4 R
5 4 V
-16 -4 R
11 0 V
-11 0 R
-5 -4 V
-6 -4 R
6 4 V
-6 -4 R
-5 -5 V
-5 -4 R
5 4 V
-16 -4 R
11 0 V
-22 802 R
5 -4 V
6 -4 V
-22 8 R
11 0 V
-22 9 R
6 -5 V
5 -4 V
-21 9 R
10 0 V
-21 8 R
5 -4 V
6 -4 V
918 907 M
-6 -4 V
-5 -4 R
5 4 V
-5 -4 R
-5 -5 V
-6 -4 R
6 4 V
-17 -4 R
11 0 V
-11 0 R
-5 -4 V
-5 -4 R
5 4 V
-16 -4 R
11 0 V
-33 853 R
6 -5 V
-17 5 R
11 0 V
-21 8 R
5 -4 V
stroke 826 1739 M
5 -4 V
-21 8 R
11 0 V
32 -17 R
11 0 V
-16 4 R
5 -4 V
864 882 M
-6 -5 V
-5 -4 R
5 4 V
-5 -4 R
-5 -4 V
-6 -5 R
6 5 V
-17 -5 R
11 0 V
-11 0 R
-5 -4 V
-5 -4 R
5 4 V
-5 -4 R
-6 -4 V
-5 -5 R
5 5 V
-16 900 R
5 -4 V
6 -5 V
-22 17 R
6 -4 V
5 -4 V
-22 8 R
11 0 V
-21 9 R
5 -4 V
5 -5 V
-21 9 R
11 0 V
799 847 M
11 0 V
-11 0 R
-5 -4 V
-6 -4 R
6 4 V
-6 -4 R
-5 -4 V
-6 -5 R
6 5 V
-16 -5 R
10 0 V
-10 0 R
-6 -4 V
-5 -4 R
5 4 V
-16 951 R
5 -4 V
-16 4 R
11 0 V
-22 9 R
6 -4 V
5 -5 V
-21 9 R
10 0 V
-21 8 R
5 -4 V
6 -4 V
37 -13 R
6 -4 V
0 -947 R
-6 -4 V
-5 -5 R
5 5 V
-16 -5 R
11 0 V
-11 0 R
-5 -4 V
-6 -4 R
6 4 V
-16 -4 R
10 0 V
-10 0 R
-6 -5 V
-5 -4 R
5 4 V
-16 994 R
11 0 V
-22 9 R
6 -4 V
5 -5 V
-22 9 R
11 0 V
-21 8 R
5 -4 V
5 -4 V
-21 8 R
11 0 V
702 796 M
-6 -4 V
-5 -4 R
5 4 V
-16 -4 R
11 0 V
-11 0 R
-5 -5 V
stroke 675 783 M
-6 -4 R
6 4 V
-6 -4 R
-5 -4 V
-5 -4 R
5 4 V
-16 -4 R
11 0 V
637 1820 M
6 -4 V
-17 4 R
11 0 V
-21 9 R
5 -5 V
5 -4 V
-21 9 R
11 0 V
-22 8 R
5 -4 V
6 -4 V
38 -13 R
5 -5 V
648 771 M
-5 -5 V
-6 -4 R
6 4 V
-6 -4 R
-5 -4 V
-6 -4 R
6 4 V
-16 -4 R
10 0 V
-10 0 R
-6 -5 V
-5 -4 R
5 4 V
-16 -4 R
11 0 V
540 1863 M
5 -5 V
38 -21 R
11 0 V
-22 9 R
6 -5 V
5 -4 V
-21 17 R
5 -4 V
5 -4 V
-21 8 R
11 0 V
-17 4 R
6 -4 V
594 745 M
-5 -4 V
-6 -5 R
6 5 V
-6 -5 R
-5 -4 V
-6 -4 R
6 4 V
-16 -4 R
10 0 V
-10 0 R
-6 -4 V
-5 -5 R
5 5 V
-5 -5 R
-6 -4 V
-5 -4 R
5 4 V
529 1863 M
11 0 V
-22 8 R
6 -4 V
5 -4 V
-21 8 R
10 0 V
-21 9 R
5 -5 V
6 -4 V
-22 9 R
11 0 V
529 711 M
11 0 V
-11 0 R
-5 -4 V
-6 -5 R
6 5 V
-6 -5 R
-5 -4 V
-5 -4 R
5 4 V
-16 -4 R
11 0 V
-11 0 R
-6 -4 V
-5 -5 R
5 5 V
432 1905 M
5 -4 V
38 -13 R
6 -4 V
5 -4 V
-22 8 R
11 0 V
stroke 475 1888 M
-21 9 R
5 -4 V
5 -5 V
-21 9 R
11 0 V
-17 4 R
6 -4 V
486 685 M
-5 -4 V
-6 -4 R
6 4 V
-17 -4 R
11 0 V
-11 0 R
-5 -5 V
-5 -4 R
5 4 V
-16 -4 R
11 0 V
-11 0 R
-6 -4 V
-5 -4 R
5 4 V
421 1905 M
11 0 V
-22 9 R
6 -4 V
5 -5 V
-21 9 R
10 0 V
-21 8 R
5 -4 V
6 -4 V
-22 8 R
11 0 V
432 660 M
-5 -5 V
-6 -4 R
6 4 V
-17 -4 R
11 0 V
-11 0 R
-5 -4 V
-5 -4 R
5 4 V
-5 -4 R
-6 -5 V
-5 -4 R
5 4 V
-16 -4 R
11 0 V
% End plot #2
stroke
LTb
378 2413 N
378 280 L
2699 0 V
0 2133 V
-2699 0 V
Z stroke
1.000 UP
1.000 UL
LTb
stroke
grestore
end
showpage
%%Trailer
%%DocumentFonts: Helvetica
