%!PS-Adobe-2.0 EPSF-2.0
%%Title: figdraw5.eps
%%Creator: gnuplot 4.6 patchlevel 5
%%CreationDate: Sat Sep 19 20:30:06 2015
%%DocumentFonts: (atend)
%%BoundingBox: 50 50 220 191
%%EndComments
%%BeginProlog
/gnudict 256 dict def
gnudict begin
%
% The following true/false flags may be edited by hand if desired.
% The unit line width and grayscale image gamma correction may also be changed.
%
/Color false def
/Blacktext false def
/Solid false def
/Dashlength 1 def
/Landscape false def
/Level1 false def
/Rounded false def
/ClipToBoundingBox false def
/SuppressPDFMark false def
/TransparentPatterns false def
/gnulinewidth 5.000 def
/userlinewidth gnulinewidth def
/Gamma 1.0 def
/BackgroundColor {-1.000 -1.000 -1.000} def
%
/vshift -46 def
/dl1 {
  10.0 Dashlength mul mul
  Rounded { currentlinewidth 0.75 mul sub dup 0 le { pop 0.01 } if } if
} def
/dl2 {
  10.0 Dashlength mul mul
  Rounded { currentlinewidth 0.75 mul add } if
} def
/hpt_ 31.5 def
/vpt_ 31.5 def
/hpt hpt_ def
/vpt vpt_ def
/doclip {
  ClipToBoundingBox {
    newpath 50 50 moveto 220 50 lineto 220 191 lineto 50 191 lineto closepath
    clip
  } if
} def
%
% Gnuplot Prolog Version 4.6 (September 2012)
%
%/SuppressPDFMark true def
%
/M {moveto} bind def
/L {lineto} bind def
/R {rmoveto} bind def
/V {rlineto} bind def
/N {newpath moveto} bind def
/Z {closepath} bind def
/C {setrgbcolor} bind def
/f {rlineto fill} bind def
/g {setgray} bind def
/Gshow {show} def   % May be redefined later in the file to support UTF-8
/vpt2 vpt 2 mul def
/hpt2 hpt 2 mul def
/Lshow {currentpoint stroke M 0 vshift R 
	Blacktext {gsave 0 setgray show grestore} {show} ifelse} def
/Rshow {currentpoint stroke M dup stringwidth pop neg vshift R
	Blacktext {gsave 0 setgray show grestore} {show} ifelse} def
/Cshow {currentpoint stroke M dup stringwidth pop -2 div vshift R 
	Blacktext {gsave 0 setgray show grestore} {show} ifelse} def
/UP {dup vpt_ mul /vpt exch def hpt_ mul /hpt exch def
  /hpt2 hpt 2 mul def /vpt2 vpt 2 mul def} def
/DL {Color {setrgbcolor Solid {pop []} if 0 setdash}
 {pop pop pop 0 setgray Solid {pop []} if 0 setdash} ifelse} def
/BL {stroke userlinewidth 2 mul setlinewidth
	Rounded {1 setlinejoin 1 setlinecap} if} def
/AL {stroke userlinewidth 2 div setlinewidth
	Rounded {1 setlinejoin 1 setlinecap} if} def
/UL {dup gnulinewidth mul /userlinewidth exch def
	dup 1 lt {pop 1} if 10 mul /udl exch def} def
/PL {stroke userlinewidth setlinewidth
	Rounded {1 setlinejoin 1 setlinecap} if} def
3.8 setmiterlimit
% Default Line colors
/LCw {1 1 1} def
/LCb {0 0 0} def
/LCa {0 0 0} def
/LC0 {1 0 0} def
/LC1 {0 1 0} def
/LC2 {0 0 1} def
/LC3 {1 0 1} def
/LC4 {0 1 1} def
/LC5 {1 1 0} def
/LC6 {0 0 0} def
/LC7 {1 0.3 0} def
/LC8 {0.5 0.5 0.5} def
% Default Line Types
/LTw {PL [] 1 setgray} def
/LTb {BL [] LCb DL} def
/LTa {AL [1 udl mul 2 udl mul] 0 setdash LCa setrgbcolor} def
/LT0 {PL [] LC0 DL} def
/LT1 {PL [4 dl1 2 dl2] LC1 DL} def
/LT2 {PL [2 dl1 3 dl2] LC2 DL} def
/LT3 {PL [1 dl1 1.5 dl2] LC3 DL} def
/LT4 {PL [6 dl1 2 dl2 1 dl1 2 dl2] LC4 DL} def
/LT5 {PL [3 dl1 3 dl2 1 dl1 3 dl2] LC5 DL} def
/LT6 {PL [2 dl1 2 dl2 2 dl1 6 dl2] LC6 DL} def
/LT7 {PL [1 dl1 2 dl2 6 dl1 2 dl2 1 dl1 2 dl2] LC7 DL} def
/LT8 {PL [2 dl1 2 dl2 2 dl1 2 dl2 2 dl1 2 dl2 2 dl1 4 dl2] LC8 DL} def
/Pnt {stroke [] 0 setdash gsave 1 setlinecap M 0 0 V stroke grestore} def
/Dia {stroke [] 0 setdash 2 copy vpt add M
  hpt neg vpt neg V hpt vpt neg V
  hpt vpt V hpt neg vpt V closepath stroke
  Pnt} def
/Pls {stroke [] 0 setdash vpt sub M 0 vpt2 V
  currentpoint stroke M
  hpt neg vpt neg R hpt2 0 V stroke
 } def
/Box {stroke [] 0 setdash 2 copy exch hpt sub exch vpt add M
  0 vpt2 neg V hpt2 0 V 0 vpt2 V
  hpt2 neg 0 V closepath stroke
  Pnt} def
/Crs {stroke [] 0 setdash exch hpt sub exch vpt add M
  hpt2 vpt2 neg V currentpoint stroke M
  hpt2 neg 0 R hpt2 vpt2 V stroke} def
/TriU {stroke [] 0 setdash 2 copy vpt 1.12 mul add M
  hpt neg vpt -1.62 mul V
  hpt 2 mul 0 V
  hpt neg vpt 1.62 mul V closepath stroke
  Pnt} def
/Star {2 copy Pls Crs} def
/BoxF {stroke [] 0 setdash exch hpt sub exch vpt add M
  0 vpt2 neg V hpt2 0 V 0 vpt2 V
  hpt2 neg 0 V closepath fill} def
/TriUF {stroke [] 0 setdash vpt 1.12 mul add M
  hpt neg vpt -1.62 mul V
  hpt 2 mul 0 V
  hpt neg vpt 1.62 mul V closepath fill} def
/TriD {stroke [] 0 setdash 2 copy vpt 1.12 mul sub M
  hpt neg vpt 1.62 mul V
  hpt 2 mul 0 V
  hpt neg vpt -1.62 mul V closepath stroke
  Pnt} def
/TriDF {stroke [] 0 setdash vpt 1.12 mul sub M
  hpt neg vpt 1.62 mul V
  hpt 2 mul 0 V
  hpt neg vpt -1.62 mul V closepath fill} def
/DiaF {stroke [] 0 setdash vpt add M
  hpt neg vpt neg V hpt vpt neg V
  hpt vpt V hpt neg vpt V closepath fill} def
/Pent {stroke [] 0 setdash 2 copy gsave
  translate 0 hpt M 4 {72 rotate 0 hpt L} repeat
  closepath stroke grestore Pnt} def
/PentF {stroke [] 0 setdash gsave
  translate 0 hpt M 4 {72 rotate 0 hpt L} repeat
  closepath fill grestore} def
/Circle {stroke [] 0 setdash 2 copy
  hpt 0 360 arc stroke Pnt} def
/CircleF {stroke [] 0 setdash hpt 0 360 arc fill} def
/C0 {BL [] 0 setdash 2 copy moveto vpt 90 450 arc} bind def
/C1 {BL [] 0 setdash 2 copy moveto
	2 copy vpt 0 90 arc closepath fill
	vpt 0 360 arc closepath} bind def
/C2 {BL [] 0 setdash 2 copy moveto
	2 copy vpt 90 180 arc closepath fill
	vpt 0 360 arc closepath} bind def
/C3 {BL [] 0 setdash 2 copy moveto
	2 copy vpt 0 180 arc closepath fill
	vpt 0 360 arc closepath} bind def
/C4 {BL [] 0 setdash 2 copy moveto
	2 copy vpt 180 270 arc closepath fill
	vpt 0 360 arc closepath} bind def
/C5 {BL [] 0 setdash 2 copy moveto
	2 copy vpt 0 90 arc
	2 copy moveto
	2 copy vpt 180 270 arc closepath fill
	vpt 0 360 arc} bind def
/C6 {BL [] 0 setdash 2 copy moveto
	2 copy vpt 90 270 arc closepath fill
	vpt 0 360 arc closepath} bind def
/C7 {BL [] 0 setdash 2 copy moveto
	2 copy vpt 0 270 arc closepath fill
	vpt 0 360 arc closepath} bind def
/C8 {BL [] 0 setdash 2 copy moveto
	2 copy vpt 270 360 arc closepath fill
	vpt 0 360 arc closepath} bind def
/C9 {BL [] 0 setdash 2 copy moveto
	2 copy vpt 270 450 arc closepath fill
	vpt 0 360 arc closepath} bind def
/C10 {BL [] 0 setdash 2 copy 2 copy moveto vpt 270 360 arc closepath fill
	2 copy moveto
	2 copy vpt 90 180 arc closepath fill
	vpt 0 360 arc closepath} bind def
/C11 {BL [] 0 setdash 2 copy moveto
	2 copy vpt 0 180 arc closepath fill
	2 copy moveto
	2 copy vpt 270 360 arc closepath fill
	vpt 0 360 arc closepath} bind def
/C12 {BL [] 0 setdash 2 copy moveto
	2 copy vpt 180 360 arc closepath fill
	vpt 0 360 arc closepath} bind def
/C13 {BL [] 0 setdash 2 copy moveto
	2 copy vpt 0 90 arc closepath fill
	2 copy moveto
	2 copy vpt 180 360 arc closepath fill
	vpt 0 360 arc closepath} bind def
/C14 {BL [] 0 setdash 2 copy moveto
	2 copy vpt 90 360 arc closepath fill
	vpt 0 360 arc} bind def
/C15 {BL [] 0 setdash 2 copy vpt 0 360 arc closepath fill
	vpt 0 360 arc closepath} bind def
/Rec {newpath 4 2 roll moveto 1 index 0 rlineto 0 exch rlineto
	neg 0 rlineto closepath} bind def
/Square {dup Rec} bind def
/Bsquare {vpt sub exch vpt sub exch vpt2 Square} bind def
/S0 {BL [] 0 setdash 2 copy moveto 0 vpt rlineto BL Bsquare} bind def
/S1 {BL [] 0 setdash 2 copy vpt Square fill Bsquare} bind def
/S2 {BL [] 0 setdash 2 copy exch vpt sub exch vpt Square fill Bsquare} bind def
/S3 {BL [] 0 setdash 2 copy exch vpt sub exch vpt2 vpt Rec fill Bsquare} bind def
/S4 {BL [] 0 setdash 2 copy exch vpt sub exch vpt sub vpt Square fill Bsquare} bind def
/S5 {BL [] 0 setdash 2 copy 2 copy vpt Square fill
	exch vpt sub exch vpt sub vpt Square fill Bsquare} bind def
/S6 {BL [] 0 setdash 2 copy exch vpt sub exch vpt sub vpt vpt2 Rec fill Bsquare} bind def
/S7 {BL [] 0 setdash 2 copy exch vpt sub exch vpt sub vpt vpt2 Rec fill
	2 copy vpt Square fill Bsquare} bind def
/S8 {BL [] 0 setdash 2 copy vpt sub vpt Square fill Bsquare} bind def
/S9 {BL [] 0 setdash 2 copy vpt sub vpt vpt2 Rec fill Bsquare} bind def
/S10 {BL [] 0 setdash 2 copy vpt sub vpt Square fill 2 copy exch vpt sub exch vpt Square fill
	Bsquare} bind def
/S11 {BL [] 0 setdash 2 copy vpt sub vpt Square fill 2 copy exch vpt sub exch vpt2 vpt Rec fill
	Bsquare} bind def
/S12 {BL [] 0 setdash 2 copy exch vpt sub exch vpt sub vpt2 vpt Rec fill Bsquare} bind def
/S13 {BL [] 0 setdash 2 copy exch vpt sub exch vpt sub vpt2 vpt Rec fill
	2 copy vpt Square fill Bsquare} bind def
/S14 {BL [] 0 setdash 2 copy exch vpt sub exch vpt sub vpt2 vpt Rec fill
	2 copy exch vpt sub exch vpt Square fill Bsquare} bind def
/S15 {BL [] 0 setdash 2 copy Bsquare fill Bsquare} bind def
/D0 {gsave translate 45 rotate 0 0 S0 stroke grestore} bind def
/D1 {gsave translate 45 rotate 0 0 S1 stroke grestore} bind def
/D2 {gsave translate 45 rotate 0 0 S2 stroke grestore} bind def
/D3 {gsave translate 45 rotate 0 0 S3 stroke grestore} bind def
/D4 {gsave translate 45 rotate 0 0 S4 stroke grestore} bind def
/D5 {gsave translate 45 rotate 0 0 S5 stroke grestore} bind def
/D6 {gsave translate 45 rotate 0 0 S6 stroke grestore} bind def
/D7 {gsave translate 45 rotate 0 0 S7 stroke grestore} bind def
/D8 {gsave translate 45 rotate 0 0 S8 stroke grestore} bind def
/D9 {gsave translate 45 rotate 0 0 S9 stroke grestore} bind def
/D10 {gsave translate 45 rotate 0 0 S10 stroke grestore} bind def
/D11 {gsave translate 45 rotate 0 0 S11 stroke grestore} bind def
/D12 {gsave translate 45 rotate 0 0 S12 stroke grestore} bind def
/D13 {gsave translate 45 rotate 0 0 S13 stroke grestore} bind def
/D14 {gsave translate 45 rotate 0 0 S14 stroke grestore} bind def
/D15 {gsave translate 45 rotate 0 0 S15 stroke grestore} bind def
/DiaE {stroke [] 0 setdash vpt add M
  hpt neg vpt neg V hpt vpt neg V
  hpt vpt V hpt neg vpt V closepath stroke} def
/BoxE {stroke [] 0 setdash exch hpt sub exch vpt add M
  0 vpt2 neg V hpt2 0 V 0 vpt2 V
  hpt2 neg 0 V closepath stroke} def
/TriUE {stroke [] 0 setdash vpt 1.12 mul add M
  hpt neg vpt -1.62 mul V
  hpt 2 mul 0 V
  hpt neg vpt 1.62 mul V closepath stroke} def
/TriDE {stroke [] 0 setdash vpt 1.12 mul sub M
  hpt neg vpt 1.62 mul V
  hpt 2 mul 0 V
  hpt neg vpt -1.62 mul V closepath stroke} def
/PentE {stroke [] 0 setdash gsave
  translate 0 hpt M 4 {72 rotate 0 hpt L} repeat
  closepath stroke grestore} def
/CircE {stroke [] 0 setdash 
  hpt 0 360 arc stroke} def
/Opaque {gsave closepath 1 setgray fill grestore 0 setgray closepath} def
/DiaW {stroke [] 0 setdash vpt add M
  hpt neg vpt neg V hpt vpt neg V
  hpt vpt V hpt neg vpt V Opaque stroke} def
/BoxW {stroke [] 0 setdash exch hpt sub exch vpt add M
  0 vpt2 neg V hpt2 0 V 0 vpt2 V
  hpt2 neg 0 V Opaque stroke} def
/TriUW {stroke [] 0 setdash vpt 1.12 mul add M
  hpt neg vpt -1.62 mul V
  hpt 2 mul 0 V
  hpt neg vpt 1.62 mul V Opaque stroke} def
/TriDW {stroke [] 0 setdash vpt 1.12 mul sub M
  hpt neg vpt 1.62 mul V
  hpt 2 mul 0 V
  hpt neg vpt -1.62 mul V Opaque stroke} def
/PentW {stroke [] 0 setdash gsave
  translate 0 hpt M 4 {72 rotate 0 hpt L} repeat
  Opaque stroke grestore} def
/CircW {stroke [] 0 setdash 
  hpt 0 360 arc Opaque stroke} def
/BoxFill {gsave Rec 1 setgray fill grestore} def
/Density {
  /Fillden exch def
  currentrgbcolor
  /ColB exch def /ColG exch def /ColR exch def
  /ColR ColR Fillden mul Fillden sub 1 add def
  /ColG ColG Fillden mul Fillden sub 1 add def
  /ColB ColB Fillden mul Fillden sub 1 add def
  ColR ColG ColB setrgbcolor} def
/BoxColFill {gsave Rec PolyFill} def
/PolyFill {gsave Density fill grestore grestore} def
/h {rlineto rlineto rlineto gsave closepath fill grestore} bind def
%
% PostScript Level 1 Pattern Fill routine for rectangles
% Usage: x y w h s a XX PatternFill
%	x,y = lower left corner of box to be filled
%	w,h = width and height of box
%	  a = angle in degrees between lines and x-axis
%	 XX = 0/1 for no/yes cross-hatch
%
/PatternFill {gsave /PFa [ 9 2 roll ] def
  PFa 0 get PFa 2 get 2 div add PFa 1 get PFa 3 get 2 div add translate
  PFa 2 get -2 div PFa 3 get -2 div PFa 2 get PFa 3 get Rec
  TransparentPatterns {} {gsave 1 setgray fill grestore} ifelse
  clip
  currentlinewidth 0.5 mul setlinewidth
  /PFs PFa 2 get dup mul PFa 3 get dup mul add sqrt def
  0 0 M PFa 5 get rotate PFs -2 div dup translate
  0 1 PFs PFa 4 get div 1 add floor cvi
	{PFa 4 get mul 0 M 0 PFs V} for
  0 PFa 6 get ne {
	0 1 PFs PFa 4 get div 1 add floor cvi
	{PFa 4 get mul 0 2 1 roll M PFs 0 V} for
 } if
  stroke grestore} def
%
/languagelevel where
 {pop languagelevel} {1} ifelse
 2 lt
	{/InterpretLevel1 true def}
	{/InterpretLevel1 Level1 def}
 ifelse
%
% PostScript level 2 pattern fill definitions
%
/Level2PatternFill {
/Tile8x8 {/PaintType 2 /PatternType 1 /TilingType 1 /BBox [0 0 8 8] /XStep 8 /YStep 8}
	bind def
/KeepColor {currentrgbcolor [/Pattern /DeviceRGB] setcolorspace} bind def
<< Tile8x8
 /PaintProc {0.5 setlinewidth pop 0 0 M 8 8 L 0 8 M 8 0 L stroke} 
>> matrix makepattern
/Pat1 exch def
<< Tile8x8
 /PaintProc {0.5 setlinewidth pop 0 0 M 8 8 L 0 8 M 8 0 L stroke
	0 4 M 4 8 L 8 4 L 4 0 L 0 4 L stroke}
>> matrix makepattern
/Pat2 exch def
<< Tile8x8
 /PaintProc {0.5 setlinewidth pop 0 0 M 0 8 L
	8 8 L 8 0 L 0 0 L fill}
>> matrix makepattern
/Pat3 exch def
<< Tile8x8
 /PaintProc {0.5 setlinewidth pop -4 8 M 8 -4 L
	0 12 M 12 0 L stroke}
>> matrix makepattern
/Pat4 exch def
<< Tile8x8
 /PaintProc {0.5 setlinewidth pop -4 0 M 8 12 L
	0 -4 M 12 8 L stroke}
>> matrix makepattern
/Pat5 exch def
<< Tile8x8
 /PaintProc {0.5 setlinewidth pop -2 8 M 4 -4 L
	0 12 M 8 -4 L 4 12 M 10 0 L stroke}
>> matrix makepattern
/Pat6 exch def
<< Tile8x8
 /PaintProc {0.5 setlinewidth pop -2 0 M 4 12 L
	0 -4 M 8 12 L 4 -4 M 10 8 L stroke}
>> matrix makepattern
/Pat7 exch def
<< Tile8x8
 /PaintProc {0.5 setlinewidth pop 8 -2 M -4 4 L
	12 0 M -4 8 L 12 4 M 0 10 L stroke}
>> matrix makepattern
/Pat8 exch def
<< Tile8x8
 /PaintProc {0.5 setlinewidth pop 0 -2 M 12 4 L
	-4 0 M 12 8 L -4 4 M 8 10 L stroke}
>> matrix makepattern
/Pat9 exch def
/Pattern1 {PatternBgnd KeepColor Pat1 setpattern} bind def
/Pattern2 {PatternBgnd KeepColor Pat2 setpattern} bind def
/Pattern3 {PatternBgnd KeepColor Pat3 setpattern} bind def
/Pattern4 {PatternBgnd KeepColor Landscape {Pat5} {Pat4} ifelse setpattern} bind def
/Pattern5 {PatternBgnd KeepColor Landscape {Pat4} {Pat5} ifelse setpattern} bind def
/Pattern6 {PatternBgnd KeepColor Landscape {Pat9} {Pat6} ifelse setpattern} bind def
/Pattern7 {PatternBgnd KeepColor Landscape {Pat8} {Pat7} ifelse setpattern} bind def
} def
%
%
%End of PostScript Level 2 code
%
/PatternBgnd {
  TransparentPatterns {} {gsave 1 setgray fill grestore} ifelse
} def
%
% Substitute for Level 2 pattern fill codes with
% grayscale if Level 2 support is not selected.
%
/Level1PatternFill {
/Pattern1 {0.250 Density} bind def
/Pattern2 {0.500 Density} bind def
/Pattern3 {0.750 Density} bind def
/Pattern4 {0.125 Density} bind def
/Pattern5 {0.375 Density} bind def
/Pattern6 {0.625 Density} bind def
/Pattern7 {0.875 Density} bind def
} def
%
% Now test for support of Level 2 code
%
Level1 {Level1PatternFill} {Level2PatternFill} ifelse
%
/Symbol-Oblique /Symbol findfont [1 0 .167 1 0 0] makefont
dup length dict begin {1 index /FID eq {pop pop} {def} ifelse} forall
currentdict end definefont pop
/MFshow {
   { dup 5 get 3 ge
     { 5 get 3 eq {gsave} {grestore} ifelse }
     {dup dup 0 get findfont exch 1 get scalefont setfont
     [ currentpoint ] exch dup 2 get 0 exch R dup 5 get 2 ne {dup dup 6
     get exch 4 get {Gshow} {stringwidth pop 0 R} ifelse }if dup 5 get 0 eq
     {dup 3 get {2 get neg 0 exch R pop} {pop aload pop M} ifelse} {dup 5
     get 1 eq {dup 2 get exch dup 3 get exch 6 get stringwidth pop -2 div
     dup 0 R} {dup 6 get stringwidth pop -2 div 0 R 6 get
     show 2 index {aload pop M neg 3 -1 roll neg R pop pop} {pop pop pop
     pop aload pop M} ifelse }ifelse }ifelse }
     ifelse }
   forall} def
/Gswidth {dup type /stringtype eq {stringwidth} {pop (n) stringwidth} ifelse} def
/MFwidth {0 exch { dup 5 get 3 ge { 5 get 3 eq { 0 } { pop } ifelse }
 {dup 3 get{dup dup 0 get findfont exch 1 get scalefont setfont
     6 get Gswidth pop add} {pop} ifelse} ifelse} forall} def
/MLshow { currentpoint stroke M
  0 exch R
  Blacktext {gsave 0 setgray MFshow grestore} {MFshow} ifelse } bind def
/MRshow { currentpoint stroke M
  exch dup MFwidth neg 3 -1 roll R
  Blacktext {gsave 0 setgray MFshow grestore} {MFshow} ifelse } bind def
/MCshow { currentpoint stroke M
  exch dup MFwidth -2 div 3 -1 roll R
  Blacktext {gsave 0 setgray MFshow grestore} {MFshow} ifelse } bind def
/XYsave    { [( ) 1 2 true false 3 ()] } bind def
/XYrestore { [( ) 1 2 true false 4 ()] } bind def
Level1 SuppressPDFMark or 
{} {
/SDict 10 dict def
systemdict /pdfmark known not {
  userdict /pdfmark systemdict /cleartomark get put
} if
SDict begin [
  /Title (figdraw5.eps)
  /Subject (gnuplot plot)
  /Creator (gnuplot 4.6 patchlevel 5)
  /Author (yurchor)
%  /Producer (gnuplot)
%  /Keywords ()
  /CreationDate (Sat Sep 19 20:30:06 2015)
  /DOCINFO pdfmark
end
} ifelse
end
%%EndProlog
%%Page: 1 1
gnudict begin
gsave
doclip
50 50 translate
0.050 0.050 scale
0 setgray
newpath
(Helvetica) findfont 140 scalefont setfont
BackgroundColor 0 lt 3 1 roll 0 lt exch 0 lt or or not {BackgroundColor C 1.000 0 0 3400.00 2834.00 BoxColFill} if
1.000 UL
LTb
1.00 1.00 1.00 C 1.000 0 0 3399 2833 BoxColFill
1.000 UL
LTb
1.000 UL
LTb
554 779 M
839 527 V
2846 1002 M
1393 1306 L
554 779 M
0 1053 V
839 -526 R
0 1050 V
2846 1002 M
0 1050 V
554 779 M
44 27 V
stroke
497 718 M
[ [(Helvetica) 140.0 0.0 true true 0 (-2)]
] -46.7 MCshow
1.000 UL
LTb
1.000 UL
LTb
1393 1306 M
-43 -27 V
736 741 M
43 27 V
stroke
678 680 M
[ [(Helvetica) 140.0 0.0 true true 0 (-1.5)]
] -46.7 MCshow
1.000 UL
LTb
1.000 UL
LTb
1575 1268 M
-43 -27 V
918 703 M
43 27 V
stroke
860 642 M
[ [(Helvetica) 140.0 0.0 true true 0 (-1)]
] -46.7 MCshow
1.000 UL
LTb
1.000 UL
LTb
1756 1230 M
-44 -27 V
1099 664 M
44 28 V
stroke
1041 604 M
[ [(Helvetica) 140.0 0.0 true true 0 (-0.5)]
] -46.7 MCshow
1.000 UL
LTb
1.000 UL
LTb
1937 1192 M
-43 -27 V
1281 626 M
43 28 V
stroke
1223 566 M
[ [(Helvetica) 140.0 0.0 true true 0 ( 0)]
] -46.7 MCshow
1.000 UL
LTb
1.000 UL
LTb
2119 1154 M
-43 -27 V
1463 588 M
43 28 V
stroke
1405 528 M
[ [(Helvetica) 140.0 0.0 true true 0 ( 0.5)]
] -46.7 MCshow
1.000 UL
LTb
1.000 UL
LTb
2301 1116 M
-44 -28 V
1644 550 M
44 28 V
stroke
1586 490 M
[ [(Helvetica) 140.0 0.0 true true 0 ( 1)]
] -46.7 MCshow
1.000 UL
LTb
1.000 UL
LTb
2482 1078 M
-43 -28 V
1825 512 M
43 27 V
stroke
1767 452 M
[ [(Helvetica) 140.0 0.0 true true 0 ( 1.5)]
] -46.7 MCshow
1.000 UL
LTb
1.000 UL
LTb
2664 1040 M
-43 -28 V
2007 474 M
43 27 V
stroke
1949 414 M
[ [(Helvetica) 140.0 0.0 true true 0 ( 2)]
] -46.7 MCshow
1.000 UL
LTb
1.000 UL
LTb
2846 1002 M
-44 -28 V
2007 474 M
-55 12 V
stroke
2079 449 M
[ [(Helvetica) 140.0 0.0 true true 0 (-2)]
] -46.7 MCshow
1.000 UL
LTb
1.000 UL
LTb
554 779 M
55 -12 V
2111 540 M
-54 11 V
stroke
2184 515 M
[ [(Helvetica) 140.0 0.0 true true 0 (-1.5)]
] -46.7 MCshow
1.000 UL
LTb
1.000 UL
LTb
659 845 M
55 -12 V
2216 606 M
-54 11 V
stroke
2289 581 M
[ [(Helvetica) 140.0 0.0 true true 0 (-1)]
] -46.7 MCshow
1.000 UL
LTb
1.000 UL
LTb
764 910 M
55 -11 V
2321 672 M
-54 11 V
stroke
2394 647 M
[ [(Helvetica) 140.0 0.0 true true 0 (-0.5)]
] -46.7 MCshow
1.000 UL
LTb
1.000 UL
LTb
869 976 M
55 -11 V
2426 738 M
-54 11 V
stroke
2499 712 M
[ [(Helvetica) 140.0 0.0 true true 0 ( 0)]
] -46.7 MCshow
1.000 UL
LTb
1.000 UL
LTb
974 1042 M
54 -11 V
2531 804 M
-55 11 V
stroke
2604 778 M
[ [(Helvetica) 140.0 0.0 true true 0 ( 0.5)]
] -46.7 MCshow
1.000 UL
LTb
1.000 UL
LTb
1079 1108 M
54 -11 V
2636 870 M
-55 11 V
stroke
2709 844 M
[ [(Helvetica) 140.0 0.0 true true 0 ( 1)]
] -46.7 MCshow
1.000 UL
LTb
1.000 UL
LTb
1184 1174 M
54 -11 V
2741 936 M
-55 11 V
stroke
2813 910 M
[ [(Helvetica) 140.0 0.0 true true 0 ( 1.5)]
] -46.7 MCshow
1.000 UL
LTb
1.000 UL
LTb
1289 1240 M
54 -11 V
2846 1002 M
-55 11 V
stroke
2918 976 M
[ [(Helvetica) 140.0 0.0 true true 0 ( 2)]
] -46.7 MCshow
1.000 UL
LTb
1.000 UL
LTb
1393 1306 M
55 -11 V
554 1130 M
63 0 V
stroke
428 1130 M
[ [(Helvetica) 140.0 0.0 true true 0 (-1)]
] -46.7 MRshow
1.000 UL
LTb
1.000 UL
LTb
554 1201 M
63 0 V
stroke
428 1201 M
[ [(Helvetica) 140.0 0.0 true true 0 (-0.8)]
] -46.7 MRshow
1.000 UL
LTb
1.000 UL
LTb
554 1271 M
63 0 V
stroke
428 1271 M
[ [(Helvetica) 140.0 0.0 true true 0 (-0.6)]
] -46.7 MRshow
1.000 UL
LTb
1.000 UL
LTb
554 1341 M
63 0 V
stroke
428 1341 M
[ [(Helvetica) 140.0 0.0 true true 0 (-0.4)]
] -46.7 MRshow
1.000 UL
LTb
1.000 UL
LTb
554 1412 M
63 0 V
stroke
428 1412 M
[ [(Helvetica) 140.0 0.0 true true 0 (-0.2)]
] -46.7 MRshow
1.000 UL
LTb
1.000 UL
LTb
554 1481 M
63 0 V
stroke
428 1481 M
[ [(Helvetica) 140.0 0.0 true true 0 ( 0)]
] -46.7 MRshow
1.000 UL
LTb
1.000 UL
LTb
554 1551 M
63 0 V
stroke
428 1551 M
[ [(Helvetica) 140.0 0.0 true true 0 ( 0.2)]
] -46.7 MRshow
1.000 UL
LTb
1.000 UL
LTb
554 1622 M
63 0 V
stroke
428 1622 M
[ [(Helvetica) 140.0 0.0 true true 0 ( 0.4)]
] -46.7 MRshow
1.000 UL
LTb
1.000 UL
LTb
554 1692 M
63 0 V
stroke
428 1692 M
[ [(Helvetica) 140.0 0.0 true true 0 ( 0.6)]
] -46.7 MRshow
1.000 UL
LTb
1.000 UL
LTb
554 1762 M
63 0 V
stroke
428 1762 M
[ [(Helvetica) 140.0 0.0 true true 0 ( 0.8)]
] -46.7 MRshow
1.000 UL
LTb
1.000 UL
LTb
554 1832 M
63 0 V
stroke
428 1832 M
[ [(Helvetica) 140.0 0.0 true true 0 ( 1)]
] -46.7 MRshow
1.000 UL
LTb
LCb setrgbcolor
-34 1481 M
currentpoint gsave translate -270 rotate 0 0 moveto
[ [(Helvetica) 140.0 0.0 true true 0 (Z variable)]
] -46.7 MCshow
grestore
LTb
1.000 UP
% Begin plot #1
1.000 UL
LT0
0.00 0.00 1.00 C 1393 2356 M
49 -30 V
48 -106 V
49 -146 V
48 -153 V
49 -134 V
48 -102 V
47 -68 V
49 -37 V
48 -14 V
49 2 V
48 9 V
49 10 V
48 8 V
49 1 V
48 -6 V
48 -14 V
49 -22 V
48 -28 V
49 -30 V
48 -30 V
49 -22 V
48 -6 V
49 17 V
48 47 V
48 82 V
49 114 V
48 132 V
49 126 V
48 86 V
49 10 V
1365 2319 M
49 -116 V
48 -161 V
49 -165 V
48 -139 V
49 -98 V
48 -54 V
48 -17 V
48 11 V
48 27 V
49 33 V
48 33 V
49 26 V
48 18 V
49 8 V
48 -5 V
48 -16 V
49 -27 V
48 -38 V
49 -48 V
48 -52 V
49 -54 V
48 -47 V
49 -30 V
48 -4 V
48 33 V
49 78 V
48 118 V
49 145 V
48 141 V
49 95 V
1337 2205 M
49 -170 V
48 -177 V
49 -147 V
48 -96 V
49 -43 V
48 1 V
49 33 V
47 50 V
48 56 V
49 53 V
48 45 V
49 33 V
48 21 V
49 9 V
48 -4 V
49 -16 V
48 -29 V
48 -42 V
49 -53 V
48 -65 V
49 -73 V
48 -77 V
49 -70 V
48 -53 V
48 -21 V
49 23 V
48 75 V
49 126 V
48 157 V
49 150 V
1310 2052 M
48 -190 V
48 -158 V
49 -102 V
48 -39 V
49 15 V
48 51 V
49 70 V
48 75 V
47 70 V
49 58 V
48 45 V
stroke 1841 1947 M
49 31 V
48 17 V
49 6 V
48 -5 V
49 -15 V
48 -26 V
48 -38 V
49 -51 V
48 -65 V
49 -79 V
48 -90 V
49 -96 V
48 -90 V
48 -70 V
49 -35 V
48 19 V
49 80 V
48 138 V
49 169 V
1282 1892 M
48 -176 V
48 -116 V
49 -44 V
48 19 V
49 63 V
48 86 V
49 91 V
48 84 V
47 68 V
49 52 V
48 35 V
49 22 V
48 10 V
49 0 V
48 -6 V
49 -14 V
48 -21 V
48 -30 V
49 -42 V
48 -55 V
49 -72 V
48 -89 V
49 -104 V
48 -111 V
49 -107 V
48 -82 V
48 -40 V
49 24 V
48 94 V
49 156 V
1254 1750 M
48 -140 V
48 -61 V
49 14 V
48 68 V
49 97 V
48 105 V
49 95 V
48 77 V
49 57 V
47 36 V
48 21 V
49 8 V
48 0 V
49 -6 V
48 -9 V
49 -11 V
48 -15 V
48 -20 V
49 -28 V
48 -41 V
49 -57 V
48 -77 V
49 -97 V
48 -116 V
49 -125 V
48 -117 V
48 -88 V
49 -34 V
48 41 V
49 119 V
1226 1640 M
48 -91 V
48 -6 V
49 63 V
48 103 V
49 116 V
48 108 V
49 87 V
48 61 V
49 37 V
47 18 V
48 3 V
49 -7 V
48 -10 V
49 -12 V
48 -11 V
49 -9 V
48 -9 V
49 -9 V
48 -15 V
48 -23 V
49 -37 V
48 -58 V
stroke 2290 1939 M
49 -82 V
48 -107 V
49 -128 V
48 -136 V
48 -122 V
49 -83 V
48 -15 V
49 71 V
1198 1565 M
48 -40 V
49 44 V
48 100 V
48 124 V
49 120 V
48 99 V
49 70 V
48 40 V
49 16 V
48 -3 V
47 -14 V
49 -19 V
48 -20 V
49 -17 V
48 -13 V
49 -7 V
48 -4 V
49 0 V
48 -1 V
48 -6 V
49 -18 V
48 -36 V
49 -60 V
48 -90 V
49 -120 V
48 -140 V
49 -144 V
48 -120 V
48 -64 V
49 19 V
1170 1520 M
48 8 V
49 84 V
48 125 V
48 132 V
49 114 V
48 83 V
49 49 V
48 18 V
49 -6 V
48 -21 V
48 -28 V
48 -31 V
48 -27 V
49 -21 V
48 -15 V
49 -6 V
48 1 V
49 8 V
48 10 V
48 8 V
49 0 V
48 -14 V
49 -38 V
48 -69 V
49 -104 V
48 -134 V
49 -153 V
48 -144 V
48 -104 V
49 -28 V
1142 1499 M
48 48 V
49 113 V
48 139 V
48 131 V
49 102 V
48 64 V
49 27 V
48 -3 V
49 -24 V
48 -37 V
49 -40 V
47 -39 V
48 -32 V
49 -25 V
48 -15 V
49 -5 V
48 4 V
49 13 V
48 18 V
48 20 V
49 16 V
48 4 V
49 -17 V
48 -48 V
49 -84 V
48 -122 V
49 -152 V
48 -158 V
48 -133 V
49 -68 V
1114 1493 M
48 80 V
49 133 V
stroke 1211 1706 M
48 144 V
48 124 V
49 87 V
48 45 V
49 7 V
48 -22 V
49 -39 V
48 -48 V
49 -49 V
48 -45 V
47 -36 V
49 -27 V
48 -16 V
49 -4 V
48 6 V
49 17 V
48 24 V
49 28 V
48 28 V
48 19 V
49 2 V
48 -28 V
49 -65 V
48 -107 V
49 -145 V
48 -164 V
48 -152 V
49 -100 V
1086 1495 M
48 103 V
49 145 V
48 144 V
49 115 V
48 72 V
48 27 V
49 -9 V
48 -37 V
49 -51 V
48 -56 V
49 -55 V
48 -49 V
47 -39 V
49 -28 V
48 -16 V
49 -4 V
48 8 V
49 18 V
48 28 V
49 35 V
48 36 V
48 31 V
49 16 V
48 -10 V
49 -48 V
48 -92 V
49 -135 V
48 -165 V
49 -164 V
48 -124 V
1058 1498 M
48 120 V
49 151 V
48 142 V
49 105 V
48 59 V
48 13 V
49 -23 V
48 -47 V
49 -60 V
48 -62 V
49 -59 V
48 -51 V
49 -40 V
47 -29 V
48 -16 V
49 -4 V
48 8 V
49 20 V
48 31 V
49 38 V
48 42 V
48 40 V
49 26 V
48 3 V
49 -33 V
48 -79 V
49 -126 V
48 -162 V
49 -170 V
48 -141 V
1030 1498 M
48 130 V
49 155 V
48 138 V
49 98 V
48 48 V
48 3 V
49 -32 V
48 -55 V
49 -65 V
48 -66 V
49 -62 V
48 -52 V
49 -40 V
stroke 1660 1698 M
47 -29 V
48 -17 V
49 -3 V
48 8 V
49 21 V
48 31 V
49 41 V
48 46 V
49 45 V
48 34 V
48 12 V
49 -23 V
48 -69 V
49 -118 V
48 -158 V
49 -174 V
48 -151 V
1002 1492 M
48 136 V
49 156 V
48 136 V
49 92 V
48 42 V
49 -3 V
48 -38 V
48 -59 V
49 -68 V
48 -69 V
49 -62 V
48 -52 V
49 -42 V
48 -28 V
47 -17 V
49 -4 V
48 9 V
49 21 V
48 32 V
49 42 V
48 48 V
49 48 V
48 38 V
48 18 V
49 -17 V
48 -62 V
49 -113 V
48 -156 V
49 -175 V
48 -157 V
974 1478 M
48 138 V
49 156 V
48 135 V
49 91 V
48 40 V
49 -6 V
48 -39 V
48 -61 V
49 -69 V
48 -69 V
49 -62 V
48 -53 V
49 -41 V
48 -29 V
48 -17 V
48 -4 V
48 9 V
49 21 V
48 32 V
49 43 V
48 48 V
49 49 V
48 40 V
48 20 V
49 -15 V
48 -60 V
49 -111 V
48 -156 V
49 -175 V
48 -158 V
946 1457 M
48 136 V
49 156 V
48 135 V
49 93 V
48 42 V
49 -4 V
48 -37 V
48 -59 V
49 -68 V
48 -69 V
49 -62 V
48 -53 V
49 -41 V
48 -29 V
49 -16 V
47 -4 V
48 9 V
49 20 V
48 33 V
49 42 V
48 48 V
49 48 V
48 38 V
48 18 V
stroke 2107 1833 M
49 -17 V
48 -62 V
49 -113 V
48 -156 V
49 -175 V
48 -157 V
918 1428 M
48 130 V
49 154 V
48 139 V
49 97 V
48 49 V
49 2 V
48 -32 V
48 -54 V
49 -65 V
48 -67 V
49 -61 V
48 -52 V
49 -41 V
48 -28 V
49 -17 V
48 -4 V
47 9 V
49 20 V
48 32 V
49 41 V
48 46 V
49 45 V
48 34 V
49 12 V
48 -23 V
48 -69 V
49 -118 V
48 -159 V
49 -173 V
48 -151 V
890 1394 M
48 118 V
49 151 V
48 142 V
49 106 V
48 58 V
49 13 V
48 -23 V
49 -47 V
48 -59 V
48 -63 V
49 -59 V
48 -50 V
49 -41 V
48 -28 V
49 -16 V
48 -4 V
47 8 V
49 20 V
48 30 V
49 39 V
48 42 V
49 39 V
48 27 V
49 3 V
48 -34 V
48 -78 V
49 -126 V
48 -161 V
49 -172 V
48 -140 V
862 1355 M
48 103 V
49 144 V
48 145 V
49 115 V
48 72 V
49 27 V
48 -10 V
49 -36 V
48 -51 V
48 -57 V
49 -55 V
48 -48 V
49 -39 V
48 -28 V
49 -16 V
48 -5 V
49 8 V
47 19 V
48 28 V
49 34 V
48 37 V
49 31 V
48 16 V
49 -11 V
48 -47 V
48 -93 V
49 -135 V
48 -164 V
49 -164 V
48 -124 V
834 1319 M
49 79 V
48 132 V
48 144 V
49 125 V
stroke 1028 1799 M
48 87 V
49 44 V
48 7 V
49 -21 V
48 -40 V
48 -48 V
49 -49 V
48 -44 V
49 -37 V
48 -27 V
49 -15 V
48 -5 V
49 6 V
47 17 V
48 24 V
49 29 V
48 27 V
49 20 V
48 1 V
49 -27 V
48 -65 V
49 -108 V
48 -144 V
48 -164 V
49 -153 V
48 -100 V
806 1289 M
49 48 V
48 112 V
48 139 V
49 131 V
48 102 V
49 64 V
48 27 V
49 -3 V
48 -24 V
49 -37 V
48 -40 V
48 -38 V
49 -33 V
48 -25 V
49 -15 V
48 -5 V
49 4 V
48 13 V
47 18 V
49 20 V
48 16 V
49 4 V
48 -17 V
49 -48 V
48 -84 V
49 -122 V
48 -150 V
48 -160 V
49 -133 V
48 -68 V
778 1275 M
49 8 V
48 84 V
48 124 V
49 132 V
48 114 V
49 83 V
48 49 V
49 18 V
48 -6 V
49 -21 V
48 -28 V
48 -31 V
49 -27 V
48 -22 V
49 -14 V
48 -6 V
49 1 V
48 7 V
48 10 V
48 9 V
48 0 V
49 -14 V
48 -39 V
49 -69 V
48 -103 V
49 -134 V
48 -152 V
48 -145 V
49 -104 V
48 -28 V
750 1285 M
49 -40 V
48 44 V
48 100 V
49 123 V
48 120 V
49 99 V
48 70 V
49 40 V
48 16 V
49 -3 V
48 -14 V
48 -19 V
49 -20 V
48 -17 V
49 -13 V
stroke 1477 1771 M
48 -8 V
49 -3 V
48 0 V
49 -1 V
47 -6 V
48 -18 V
49 -36 V
48 -61 V
49 -90 V
48 -119 V
49 -140 V
48 -144 V
48 -120 V
49 -65 V
48 20 V
722 1325 M
49 -92 V
48 -5 V
49 63 V
48 103 V
48 115 V
49 107 V
48 87 V
49 62 V
48 37 V
49 17 V
48 3 V
48 -6 V
49 -11 V
48 -11 V
49 -11 V
48 -10 V
49 -8 V
48 -10 V
49 -14 V
48 -23 V
47 -38 V
49 -57 V
48 -82 V
49 -107 V
48 -127 V
49 -136 V
48 -124 V
49 -83 V
48 -15 V
48 71 V
694 1400 M
49 -140 V
48 -61 V
49 13 V
48 68 V
48 98 V
49 103 V
48 96 V
49 77 V
48 56 V
49 37 V
48 20 V
49 8 V
48 0 V
48 -6 V
49 -8 V
48 -12 V
49 -15 V
48 -20 V
49 -28 V
48 -41 V
47 -57 V
49 -76 V
48 -97 V
49 -116 V
48 -124 V
49 -118 V
48 -89 V
49 -33 V
48 41 V
48 119 V
666 1505 M
49 -175 V
48 -116 V
49 -44 V
48 19 V
48 63 V
49 86 V
48 91 V
49 83 V
48 69 V
49 51 V
48 36 V
49 21 V
48 10 V
48 1 V
49 -7 V
48 -14 V
49 -21 V
48 -30 V
49 -42 V
48 -55 V
49 -72 V
47 -88 V
48 -104 V
49 -111 V
48 -107 V
49 -83 V
stroke 1925 966 M
48 -39 V
49 23 V
48 96 V
48 155 V
638 1630 M
49 -190 V
48 -157 V
49 -102 V
48 -39 V
49 15 V
48 51 V
48 70 V
49 75 V
48 69 V
49 58 V
48 45 V
49 31 V
48 17 V
48 6 V
49 -4 V
48 -16 V
49 -26 V
48 -38 V
49 -51 V
48 -64 V
49 -79 V
47 -90 V
48 -95 V
49 -91 V
48 -71 V
49 -35 V
48 19 V
49 81 V
48 138 V
48 169 V
610 1748 M
49 -170 V
48 -177 V
49 -146 V
48 -96 V
49 -43 V
48 1 V
48 33 V
49 50 V
48 56 V
49 53 V
48 45 V
49 33 V
48 21 V
48 9 V
49 -4 V
48 -17 V
49 -28 V
48 -42 V
49 -53 V
48 -65 V
49 -74 V
48 -76 V
47 -70 V
49 -54 V
48 -21 V
49 22 V
48 76 V
49 127 V
48 156 V
49 150 V
582 1826 M
49 -115 V
48 -161 V
49 -164 V
48 -139 V
49 -98 V
48 -54 V
48 -17 V
49 11 V
48 27 V
49 33 V
48 32 V
49 27 V
48 18 V
49 7 V
48 -4 V
48 -16 V
49 -28 V
48 -38 V
49 -47 V
48 -53 V
49 -53 V
48 -47 V
48 -31 V
48 -4 V
48 34 V
49 77 V
48 119 V
49 145 V
48 140 V
49 95 V
554 1829 M
49 -30 V
48 -106 V
49 -146 V
48 -152 V
49 -134 V
48 -103 V
stroke 845 1158 M
48 -67 V
49 -38 V
48 -13 V
49 1 V
48 9 V
49 11 V
48 7 V
49 2 V
48 -6 V
48 -15 V
49 -21 V
48 -28 V
49 -31 V
48 -29 V
49 -22 V
48 -7 V
49 17 V
47 48 V
48 82 V
49 114 V
48 132 V
49 125 V
48 85 V
49 10 V
839 528 R
-28 -38 V
-28 -113 V
-28 -154 V
-28 -160 V
-28 -141 V
-28 -109 V
-28 -76 V
-28 -44 V
-28 -21 V
-28 -6 V
-28 1 V
-28 3 V
-28 0 V
-28 -6 V
-28 -13 V
-28 -22 V
-28 -29 V
-28 -35 V
-28 -38 V
-28 -37 V
-28 -29 V
-28 -14 V
-28 9 V
-28 40 V
-28 75 V
-28 106 V
-28 125 V
-27 118 V
-28 78 V
-28 2 V
790 518 R
-28 -123 V
-28 -168 V
-28 -173 V
-28 -147 V
-28 -104 V
-28 -61 V
-28 -24 V
-28 3 V
-28 19 V
-28 26 V
-27 25 V
-28 20 V
-28 10 V
-28 0 V
-28 -12 V
-28 -23 V
-28 -35 V
-28 -46 V
-28 -54 V
-28 -61 V
-28 -61 V
-28 -54 V
-28 -39 V
-28 -11 V
-28 27 V
-28 70 V
-28 111 V
-28 137 V
-28 133 V
-28 87 V
791 442 R
-28 -178 V
-28 -184 V
-28 -154 V
-28 -103 V
-28 -51 V
-28 -5 V
-28 25 V
-28 43 V
-28 48 V
-28 45 V
-28 37 V
-28 26 V
-28 14 V
-28 1 V
-28 -12 V
-28 -23 V
-28 -37 V
stroke 2273 1448 M
-28 -47 V
-28 -62 V
-28 -72 V
-28 -81 V
-28 -83 V
-28 -78 V
-27 -61 V
-28 -29 V
-28 15 V
-28 69 V
-28 119 V
-28 149 V
-28 142 V
790 401 R
-28 -197 V
-28 -165 V
-28 -108 V
-28 -47 V
-28 7 V
-28 44 V
-27 62 V
-28 67 V
-28 62 V
-28 51 V
-28 38 V
-28 23 V
-28 10 V
-28 -1 V
-28 -12 V
-28 -23 V
-28 -34 V
-28 -45 V
-28 -59 V
-28 -72 V
-28 -85 V
-28 -98 V
-28 -103 V
-28 -98 V
-28 -79 V
-28 -41 V
-28 11 V
-28 73 V
-28 131 V
-28 162 V
791 394 R
-28 -183 V
-28 -122 V
-28 -52 V
-28 12 V
-28 55 V
-28 78 V
-28 84 V
-28 76 V
-28 61 V
-28 44 V
-28 28 V
-28 14 V
-28 2 V
-28 -6 V
-28 -14 V
-28 -21 V
-28 -29 V
-28 -37 V
-28 -50 V
-27 -63 V
-28 -79 V
-28 -96 V
-28 -111 V
-28 -118 V
-28 -114 V
-28 -91 V
-28 -47 V
-28 16 V
-28 88 V
-28 149 V
790 412 R
-28 -147 V
-28 -67 V
-28 6 V
-27 59 V
-28 90 V
-28 97 V
-28 88 V
-28 70 V
-28 49 V
-28 29 V
-28 13 V
-28 1 V
-28 -8 V
-28 -13 V
-28 -16 V
-28 -19 V
-28 -22 V
-28 -28 V
-28 -35 V
-28 -48 V
-28 -65 V
-28 -84 V
-28 -105 V
-28 -122 V
-28 -132 V
-28 -126 V
-28 -95 V
-28 -41 V
stroke 1820 913 M
-28 33 V
-28 112 V
791 444 R
-28 -98 V
-28 -13 V
-28 55 V
-28 96 V
-28 108 V
-28 100 V
-28 80 V
-28 54 V
-28 29 V
-28 10 V
-28 -4 V
-28 -14 V
-28 -18 V
-28 -19 V
-28 -18 V
-28 -17 V
-27 -16 V
-28 -17 V
-28 -22 V
-28 -30 V
-28 -46 V
-28 -65 V
-28 -89 V
-28 -114 V
-28 -135 V
-28 -143 V
-28 -131 V
-28 -91 V
-28 -22 V
-28 64 V
791 479 R
-28 -47 V
-28 36 V
-28 92 V
-28 117 V
-28 113 V
-28 91 V
-28 63 V
-28 33 V
-28 8 V
-28 -10 V
-28 -22 V
-28 -27 V
-28 -27 V
-28 -25 V
-28 -20 V
-28 -15 V
-28 -10 V
-28 -8 V
-28 -8 V
-28 -14 V
-28 -25 V
-28 -44 V
-28 -68 V
-28 -97 V
-28 -126 V
-28 -148 V
-28 -151 V
1723 988 L
-27 -72 V
-27 12 V
789 510 R
-28 0 V
-28 76 V
-28 118 V
-28 125 V
-28 106 V
-28 76 V
-28 41 V
-28 11 V
-28 -13 V
-28 -29 V
-28 -36 V
-28 -37 V
-27 -35 V
-28 -29 V
-28 -22 V
-28 -13 V
-28 -6 V
-28 -1 V
-28 3 V
-28 1 V
-28 -7 V
-28 -22 V
-28 -46 V
-28 -76 V
-28 -111 V
-28 -141 V
-28 -160 V
-27 -153 V
1648 947 L
-28 -36 V
790 533 R
-28 41 V
-28 106 V
-28 131 V
-28 124 V
-28 94 V
-28 57 V
-28 19 V
-28 -11 V
-28 -31 V
-28 -44 V
-28 -48 V
-28 -46 V
-28 -40 V
-28 -32 V
-28 -23 V
-28 -12 V
-28 -3 V
-28 5 V
-28 11 V
-28 12 V
-28 9 V
-28 -4 V
-28 -24 V
-28 -55 V
-28 -92 V
-26 -129 V
-28 -158 V
-28 -167 V
1600 994 L
-28 -76 V
789 548 R
-28 73 V
-28 125 V
-28 137 V
-28 117 V
-28 79 V
-28 37 V
-28 0 V
-28 -29 V
-28 -47 V
-27 -56 V
-28 -56 V
-28 -52 V
-28 -44 V
-28 -34 V
-28 -23 V
-28 -12 V
-28 -1 V
-28 9 V
-28 16 V
-28 22 V
-28 20 V
-28 12 V
-28 -6 V
-27 -35 V
-28 -73 V
-28 -114 V
-28 -151 V
-28 -172 V
-28 -161 V
1523 940 L
790 556 R
-28 95 V
-28 138 V
-28 137 V
-28 107 V
-28 65 V
-28 19 V
-28 -17 V
-28 -43 V
-28 -59 V
-28 -64 V
-28 -63 V
-28 -55 V
-28 -47 V
-28 -35 V
-28 -24 V
-28 -11 V
-28 0 V
-28 11 V
-28 21 V
-28 27 V
-28 29 V
-27 23 V
-27 9 V
-28 -18 V
-28 -55 V
-28 -100 V
-28 -142 V
-28 -171 V
-28 -173 V
1475 969 L
789 557 R
-28 113 V
-28 143 V
-28 135 V
-28 98 V
-28 51 V
-27 6 V
-28 -31 V
-28 -54 V
-28 -67 V
-28 -70 V
-28 -67 V
-28 -58 V
-28 -47 V
-28 -36 V
-28 -24 V
-28 -12 V
-28 1 V
-28 13 V
-28 23 V
-28 31 V
-27 35 V
-28 31 V
-28 20 V
-28 -5 V
-28 -41 V
-28 -86 V
-28 -133 V
-28 -169 V
-28 -179 V
-28 -147 V
790 554 R
-28 123 V
-28 147 V
-28 131 V
-28 90 V
-28 41 V
-28 -5 V
-28 -40 V
-28 -62 V
-28 -72 V
-28 -74 V
-28 -68 V
-28 -60 V
-28 -48 V
-28 -36 V
-28 -24 V
-28 -11 V
-28 1 V
-28 13 V
-26 24 V
-28 33 V
-28 39 V
-28 37 V
-28 27 V
-28 5 V
-28 -31 V
-28 -76 V
-28 -125 V
-28 -165 V
-28 -183 V
-28 -157 V
789 548 R
-28 128 V
-27 149 V
-28 128 V
-28 85 V
-28 35 V
-28 -11 V
-28 -45 V
-28 -67 V
-28 -75 V
-28 -76 V
-28 -70 V
-28 -60 V
-28 -48 V
-28 -37 V
-28 -24 V
-28 -11 V
-27 1 V
-28 14 V
-28 24 V
-28 35 V
-28 41 V
-28 40 V
-28 31 V
-28 10 V
-28 -24 V
-28 -70 V
-28 -120 V
-28 -163 V
-28 -183 V
-28 -164 V
790 541 R
-28 130 V
-28 149 V
-28 127 V
-28 84 V
-28 32 V
-28 -13 V
-28 -47 V
-28 -68 V
-28 -76 V
-28 -77 V
stroke 1839 1831 M
-28 -70 V
-28 -60 V
-28 -49 V
-28 -36 V
-27 -24 V
-27 -11 V
-28 1 V
-28 14 V
-28 25 V
-28 35 V
-28 41 V
-28 41 V
-28 33 V
-28 12 V
-28 -22 V
-28 -68 V
-28 -118 V
-28 -162 V
-28 -184 V
-28 -165 V
790 532 R
-28 129 V
-28 148 V
-28 128 V
-28 85 V
-28 35 V
-28 -11 V
-28 -45 V
-28 -66 V
-28 -76 V
-28 -76 V
-28 -70 V
-28 -60 V
-28 -48 V
-27 -36 V
-28 -24 V
-28 -12 V
-28 2 V
-28 13 V
-28 25 V
-28 34 V
-28 41 V
-28 40 V
-28 32 V
-28 10 V
-28 -25 V
-28 -69 V
-28 -121 V
-28 -162 V
-27 -184 V
-28 -163 V
789 525 R
-28 122 V
-28 147 V
-28 131 V
-28 91 V
-28 41 V
-28 -5 V
-28 -40 V
-28 -62 V
-28 -72 V
-28 -74 V
-28 -69 V
-26 -59 V
-28 -48 V
-28 -37 V
-28 -23 V
-28 -12 V
-28 1 V
-28 13 V
-28 25 V
-28 33 V
-28 39 V
-28 37 V
-28 27 V
-28 4 V
-28 -30 V
-28 -76 V
-28 -126 V
-28 -165 V
-28 -182 V
-28 -158 V
790 519 R
-28 112 V
-28 144 V
-28 135 V
-28 98 V
-28 51 V
-28 5 V
-28 -30 V
-28 -55 V
-28 -67 V
-27 -70 V
-28 -66 V
-28 -58 V
-28 -48 V
-28 -35 V
-28 -24 V
-28 -12 V
-28 1 V
-28 13 V
-28 23 V
-28 31 V
-28 35 V
stroke 1387 1770 M
-28 31 V
-28 20 V
-28 -5 V
-27 -41 V
-28 -86 V
-28 -133 V
-28 -169 V
-28 -179 V
-28 -147 V
789 516 R
-28 96 V
-28 137 V
-28 137 V
-28 107 V
-28 65 V
-28 20 V
-28 -18 V
-27 -43 V
-27 -59 V
-28 -64 V
-28 -62 V
-28 -56 V
-28 -47 V
-28 -35 V
-28 -23 V
-28 -12 V
-28 0 V
-28 11 V
-28 21 V
-28 27 V
-28 29 V
-28 24 V
-28 8 V
-28 -18 V
-28 -55 V
-28 -99 V
-28 -143 V
-28 -171 V
-28 -173 V
-28 -131 V
790 518 R
-28 72 V
-28 125 V
-28 137 V
-28 117 V
-28 79 V
-28 38 V
-27 -1 V
-28 -29 V
-28 -47 V
-28 -55 V
-28 -56 V
-28 -52 V
-28 -44 V
-28 -35 V
-28 -23 V
-28 -12 V
-28 -1 V
-28 9 V
-28 17 V
-28 21 V
-27 20 V
-28 12 V
-28 -6 V
-28 -35 V
-28 -72 V
-28 -115 V
-28 -152 V
-28 -171 V
-28 -160 V
-28 -108 V
789 525 R
-28 41 V
-28 105 V
-28 132 V
-28 123 V
-26 95 V
-28 56 V
-28 20 V
-28 -11 V
-28 -31 V
-28 -44 V
-28 -48 V
-28 -46 V
-28 -40 V
-28 -32 V
-28 -23 V
-28 -12 V
-28 -3 V
-28 5 V
-28 11 V
-28 12 V
-28 9 V
-28 -4 V
-28 -24 V
-28 -55 V
-28 -92 V
-28 -129 V
-28 -159 V
-28 -166 V
-28 -140 V
-28 -76 V
790 540 R
-28 0 V
stroke 1752 1580 M
-28 76 V
-27 118 V
-28 125 V
-28 106 V
-28 76 V
-28 41 V
-28 11 V
-28 -13 V
-28 -29 V
-28 -36 V
-28 -37 V
-28 -35 V
-28 -29 V
-28 -22 V
-28 -13 V
-28 -6 V
-27 -1 V
-28 3 V
-28 1 V
-28 -7 V
-28 -22 V
-28 -46 V
-28 -76 V
-28 -111 V
-28 -142 V
-28 -159 V
998 1200 L
970 1089 L
-28 -36 V
789 564 R
-27 -48 V
-27 37 V
-28 93 V
-28 116 V
-28 113 V
-28 92 V
-28 62 V
-28 33 V
-28 8 V
-28 -10 V
-28 -21 V
-28 -27 V
-28 -27 V
-28 -25 V
-28 -20 V
-28 -15 V
-28 -11 V
-28 -8 V
-28 -8 V
-28 -14 V
-28 -25 V
-28 -43 V
-28 -68 V
-28 -98 V
-28 -126 V
-28 -148 V
977 1278 L
949 1150 L
-28 -72 V
-28 13 V
791 594 R
-28 -99 V
-28 -13 V
-28 56 V
-28 95 V
-28 109 V
-28 100 V
-28 79 V
-28 54 V
-28 30 V
-28 10 V
-28 -5 V
-28 -13 V
-28 -18 V
-27 -19 V
-28 -19 V
-28 -17 V
-28 -16 V
-28 -17 V
-28 -21 V
-28 -31 V
-28 -45 V
-28 -65 V
-28 -89 V
-28 -115 V
985 1481 L
957 1338 L
929 1208 L
-28 -91 V
-28 -22 V
-28 63 V
791 629 R
-28 -147 V
-28 -68 V
-28 6 V
-28 60 V
-28 90 V
-28 97 V
-28 88 V
-28 70 V
-28 49 V
-28 29 V
-28 13 V
-28 1 V
-28 -8 V
-28 -13 V
-28 -16 V
-28 -19 V
-28 -22 V
-28 -28 V
-28 -35 V
-28 -48 V
-28 -65 V
-28 -84 V
992 1632 L
964 1509 L
936 1378 L
908 1252 L
-27 -95 V
-28 -41 V
-28 33 V
-28 112 V
790 660 R
-28 -183 V
-28 -123 V
-28 -52 V
-28 12 V
-28 56 V
-28 78 V
-28 84 V
-28 76 V
-28 61 V
-28 44 V
-27 28 V
-28 14 V
-28 3 V
-28 -7 V
-28 -14 V
-28 -21 V
-28 -29 V
-28 -37 V
-28 -49 V
-28 -63 V
-28 -80 V
-28 -96 V
944 1512 L
916 1394 L
888 1280 L
-28 -91 V
-28 -47 V
-28 17 V
-28 88 V
-28 148 V
791 679 R
-28 -197 V
-28 -166 V
-28 -109 V
-28 -46 V
-28 7 V
-28 43 V
-28 63 V
-28 68 V
-28 62 V
-28 51 V
-28 37 V
-28 24 V
-28 10 V
-28 -1 V
-28 -13 V
-28 -23 V
-28 -33 V
-28 -46 V
-28 -58 V
-28 -73 V
-28 -86 V
-28 -97 V
895 1389 L
-27 -98 V
-28 -79 V
-28 -42 V
-28 11 V
-28 74 V
-28 131 V
-28 161 V
790 673 R
-28 -178 V
-28 -184 V
-28 -154 V
-28 -104 V
-28 -51 V
-28 -6 V
-27 26 V
-28 43 V
-28 48 V
-28 46 V
-28 37 V
-28 26 V
-28 14 V
-28 1 V
-28 -12 V
-28 -23 V
-28 -37 V
-28 -49 V
-28 -61 V
-28 -72 V
-28 -81 V
-28 -82 V
-28 -78 V
-28 -61 V
-28 -29 V
-28 15 V
-28 69 V
-28 118 V
-28 149 V
-28 143 V
791 633 R
-28 -123 V
-28 -168 V
-28 -173 V
-28 -146 V
-28 -106 V
-28 -61 V
-28 -24 V
-28 3 V
-28 19 V
-28 26 V
-28 25 V
-28 20 V
-28 10 V
-28 0 V
-28 -12 V
-28 -23 V
-28 -35 V
-28 -46 V
-28 -54 V
-27 -60 V
-28 -61 V
-28 -54 V
-28 -38 V
-28 -12 V
-28 27 V
-28 70 V
-28 110 V
-28 138 V
-28 133 V
-28 88 V
790 557 R
-28 -37 V
-28 -114 V
-27 -153 V
-28 -160 V
-28 -142 V
-28 -110 V
-28 -75 V
-28 -45 V
-28 -21 V
-28 -6 V
-28 2 V
-28 3 V
-28 0 V
-28 -6 V
-28 -14 V
-28 -21 V
-28 -29 V
-28 -34 V
-28 -39 V
-28 -36 V
-28 -30 V
-28 -14 V
-28 10 V
-28 40 V
-28 75 V
-28 105 V
-28 125 V
-28 118 V
-28 78 V
-28 3 V
% End plot #1
stroke
LTb
2846 1002 M
2007 474 L
554 779 M
2007 474 L
0 1050 V
stroke
LCb setrgbcolor
1071 495 M
[ [(Helvetica) 140.0 0.0 true true 0 (X variable)]
] -46.7 MCshow
LTb
LCb setrgbcolor
2789 662 M
[ [(Helvetica) 140.0 0.0 true true 0 (Y variable)]
] -46.7 MCshow
LTb
LCb setrgbcolor
-34 1481 M
currentpoint gsave translate -270 rotate 0 0 moveto
[ [(Helvetica) 140.0 0.0 true true 0 (Z variable)]
] -46.7 MCshow
grestore
LTb
1.000 UP
stroke
grestore
end
showpage
%%Trailer
%%DocumentFonts: Helvetica
