%!PS-Adobe-2.0 EPSF-2.0
%%Title: pieplot.eps
%%Creator: gnuplot 4.6 patchlevel 5
%%CreationDate: Sun Sep 20 17:08:27 2015
%%DocumentFonts: (atend)
%%BoundingBox: 50 50 220 191
%%EndComments
%%BeginProlog
/gnudict 256 dict def
gnudict begin
%
% The following true/false flags may be edited by hand if desired.
% The unit line width and grayscale image gamma correction may also be changed.
%
/Color false def
/Blacktext false def
/Solid false def
/Dashlength 1 def
/Landscape false def
/Level1 false def
/Rounded false def
/ClipToBoundingBox false def
/SuppressPDFMark false def
/TransparentPatterns false def
/gnulinewidth 5.000 def
/userlinewidth gnulinewidth def
/Gamma 1.0 def
/BackgroundColor {-1.000 -1.000 -1.000} def
%
/vshift -46 def
/dl1 {
  10.0 Dashlength mul mul
  Rounded { currentlinewidth 0.75 mul sub dup 0 le { pop 0.01 } if } if
} def
/dl2 {
  10.0 Dashlength mul mul
  Rounded { currentlinewidth 0.75 mul add } if
} def
/hpt_ 31.5 def
/vpt_ 31.5 def
/hpt hpt_ def
/vpt vpt_ def
/doclip {
  ClipToBoundingBox {
    newpath 50 50 moveto 220 50 lineto 220 191 lineto 50 191 lineto closepath
    clip
  } if
} def
%
% Gnuplot Prolog Version 4.6 (September 2012)
%
%/SuppressPDFMark true def
%
/M {moveto} bind def
/L {lineto} bind def
/R {rmoveto} bind def
/V {rlineto} bind def
/N {newpath moveto} bind def
/Z {closepath} bind def
/C {setrgbcolor} bind def
/f {rlineto fill} bind def
/g {setgray} bind def
/Gshow {show} def   % May be redefined later in the file to support UTF-8
/vpt2 vpt 2 mul def
/hpt2 hpt 2 mul def
/Lshow {currentpoint stroke M 0 vshift R 
	Blacktext {gsave 0 setgray show grestore} {show} ifelse} def
/Rshow {currentpoint stroke M dup stringwidth pop neg vshift R
	Blacktext {gsave 0 setgray show grestore} {show} ifelse} def
/Cshow {currentpoint stroke M dup stringwidth pop -2 div vshift R 
	Blacktext {gsave 0 setgray show grestore} {show} ifelse} def
/UP {dup vpt_ mul /vpt exch def hpt_ mul /hpt exch def
  /hpt2 hpt 2 mul def /vpt2 vpt 2 mul def} def
/DL {Color {setrgbcolor Solid {pop []} if 0 setdash}
 {pop pop pop 0 setgray Solid {pop []} if 0 setdash} ifelse} def
/BL {stroke userlinewidth 2 mul setlinewidth
	Rounded {1 setlinejoin 1 setlinecap} if} def
/AL {stroke userlinewidth 2 div setlinewidth
	Rounded {1 setlinejoin 1 setlinecap} if} def
/UL {dup gnulinewidth mul /userlinewidth exch def
	dup 1 lt {pop 1} if 10 mul /udl exch def} def
/PL {stroke userlinewidth setlinewidth
	Rounded {1 setlinejoin 1 setlinecap} if} def
3.8 setmiterlimit
% Default Line colors
/LCw {1 1 1} def
/LCb {0 0 0} def
/LCa {0 0 0} def
/LC0 {1 0 0} def
/LC1 {0 1 0} def
/LC2 {0 0 1} def
/LC3 {1 0 1} def
/LC4 {0 1 1} def
/LC5 {1 1 0} def
/LC6 {0 0 0} def
/LC7 {1 0.3 0} def
/LC8 {0.5 0.5 0.5} def
% Default Line Types
/LTw {PL [] 1 setgray} def
/LTb {BL [] LCb DL} def
/LTa {AL [1 udl mul 2 udl mul] 0 setdash LCa setrgbcolor} def
/LT0 {PL [] LC0 DL} def
/LT1 {PL [4 dl1 2 dl2] LC1 DL} def
/LT2 {PL [2 dl1 3 dl2] LC2 DL} def
/LT3 {PL [1 dl1 1.5 dl2] LC3 DL} def
/LT4 {PL [6 dl1 2 dl2 1 dl1 2 dl2] LC4 DL} def
/LT5 {PL [3 dl1 3 dl2 1 dl1 3 dl2] LC5 DL} def
/LT6 {PL [2 dl1 2 dl2 2 dl1 6 dl2] LC6 DL} def
/LT7 {PL [1 dl1 2 dl2 6 dl1 2 dl2 1 dl1 2 dl2] LC7 DL} def
/LT8 {PL [2 dl1 2 dl2 2 dl1 2 dl2 2 dl1 2 dl2 2 dl1 4 dl2] LC8 DL} def
/Pnt {stroke [] 0 setdash gsave 1 setlinecap M 0 0 V stroke grestore} def
/Dia {stroke [] 0 setdash 2 copy vpt add M
  hpt neg vpt neg V hpt vpt neg V
  hpt vpt V hpt neg vpt V closepath stroke
  Pnt} def
/Pls {stroke [] 0 setdash vpt sub M 0 vpt2 V
  currentpoint stroke M
  hpt neg vpt neg R hpt2 0 V stroke
 } def
/Box {stroke [] 0 setdash 2 copy exch hpt sub exch vpt add M
  0 vpt2 neg V hpt2 0 V 0 vpt2 V
  hpt2 neg 0 V closepath stroke
  Pnt} def
/Crs {stroke [] 0 setdash exch hpt sub exch vpt add M
  hpt2 vpt2 neg V currentpoint stroke M
  hpt2 neg 0 R hpt2 vpt2 V stroke} def
/TriU {stroke [] 0 setdash 2 copy vpt 1.12 mul add M
  hpt neg vpt -1.62 mul V
  hpt 2 mul 0 V
  hpt neg vpt 1.62 mul V closepath stroke
  Pnt} def
/Star {2 copy Pls Crs} def
/BoxF {stroke [] 0 setdash exch hpt sub exch vpt add M
  0 vpt2 neg V hpt2 0 V 0 vpt2 V
  hpt2 neg 0 V closepath fill} def
/TriUF {stroke [] 0 setdash vpt 1.12 mul add M
  hpt neg vpt -1.62 mul V
  hpt 2 mul 0 V
  hpt neg vpt 1.62 mul V closepath fill} def
/TriD {stroke [] 0 setdash 2 copy vpt 1.12 mul sub M
  hpt neg vpt 1.62 mul V
  hpt 2 mul 0 V
  hpt neg vpt -1.62 mul V closepath stroke
  Pnt} def
/TriDF {stroke [] 0 setdash vpt 1.12 mul sub M
  hpt neg vpt 1.62 mul V
  hpt 2 mul 0 V
  hpt neg vpt -1.62 mul V closepath fill} def
/DiaF {stroke [] 0 setdash vpt add M
  hpt neg vpt neg V hpt vpt neg V
  hpt vpt V hpt neg vpt V closepath fill} def
/Pent {stroke [] 0 setdash 2 copy gsave
  translate 0 hpt M 4 {72 rotate 0 hpt L} repeat
  closepath stroke grestore Pnt} def
/PentF {stroke [] 0 setdash gsave
  translate 0 hpt M 4 {72 rotate 0 hpt L} repeat
  closepath fill grestore} def
/Circle {stroke [] 0 setdash 2 copy
  hpt 0 360 arc stroke Pnt} def
/CircleF {stroke [] 0 setdash hpt 0 360 arc fill} def
/C0 {BL [] 0 setdash 2 copy moveto vpt 90 450 arc} bind def
/C1 {BL [] 0 setdash 2 copy moveto
	2 copy vpt 0 90 arc closepath fill
	vpt 0 360 arc closepath} bind def
/C2 {BL [] 0 setdash 2 copy moveto
	2 copy vpt 90 180 arc closepath fill
	vpt 0 360 arc closepath} bind def
/C3 {BL [] 0 setdash 2 copy moveto
	2 copy vpt 0 180 arc closepath fill
	vpt 0 360 arc closepath} bind def
/C4 {BL [] 0 setdash 2 copy moveto
	2 copy vpt 180 270 arc closepath fill
	vpt 0 360 arc closepath} bind def
/C5 {BL [] 0 setdash 2 copy moveto
	2 copy vpt 0 90 arc
	2 copy moveto
	2 copy vpt 180 270 arc closepath fill
	vpt 0 360 arc} bind def
/C6 {BL [] 0 setdash 2 copy moveto
	2 copy vpt 90 270 arc closepath fill
	vpt 0 360 arc closepath} bind def
/C7 {BL [] 0 setdash 2 copy moveto
	2 copy vpt 0 270 arc closepath fill
	vpt 0 360 arc closepath} bind def
/C8 {BL [] 0 setdash 2 copy moveto
	2 copy vpt 270 360 arc closepath fill
	vpt 0 360 arc closepath} bind def
/C9 {BL [] 0 setdash 2 copy moveto
	2 copy vpt 270 450 arc closepath fill
	vpt 0 360 arc closepath} bind def
/C10 {BL [] 0 setdash 2 copy 2 copy moveto vpt 270 360 arc closepath fill
	2 copy moveto
	2 copy vpt 90 180 arc closepath fill
	vpt 0 360 arc closepath} bind def
/C11 {BL [] 0 setdash 2 copy moveto
	2 copy vpt 0 180 arc closepath fill
	2 copy moveto
	2 copy vpt 270 360 arc closepath fill
	vpt 0 360 arc closepath} bind def
/C12 {BL [] 0 setdash 2 copy moveto
	2 copy vpt 180 360 arc closepath fill
	vpt 0 360 arc closepath} bind def
/C13 {BL [] 0 setdash 2 copy moveto
	2 copy vpt 0 90 arc closepath fill
	2 copy moveto
	2 copy vpt 180 360 arc closepath fill
	vpt 0 360 arc closepath} bind def
/C14 {BL [] 0 setdash 2 copy moveto
	2 copy vpt 90 360 arc closepath fill
	vpt 0 360 arc} bind def
/C15 {BL [] 0 setdash 2 copy vpt 0 360 arc closepath fill
	vpt 0 360 arc closepath} bind def
/Rec {newpath 4 2 roll moveto 1 index 0 rlineto 0 exch rlineto
	neg 0 rlineto closepath} bind def
/Square {dup Rec} bind def
/Bsquare {vpt sub exch vpt sub exch vpt2 Square} bind def
/S0 {BL [] 0 setdash 2 copy moveto 0 vpt rlineto BL Bsquare} bind def
/S1 {BL [] 0 setdash 2 copy vpt Square fill Bsquare} bind def
/S2 {BL [] 0 setdash 2 copy exch vpt sub exch vpt Square fill Bsquare} bind def
/S3 {BL [] 0 setdash 2 copy exch vpt sub exch vpt2 vpt Rec fill Bsquare} bind def
/S4 {BL [] 0 setdash 2 copy exch vpt sub exch vpt sub vpt Square fill Bsquare} bind def
/S5 {BL [] 0 setdash 2 copy 2 copy vpt Square fill
	exch vpt sub exch vpt sub vpt Square fill Bsquare} bind def
/S6 {BL [] 0 setdash 2 copy exch vpt sub exch vpt sub vpt vpt2 Rec fill Bsquare} bind def
/S7 {BL [] 0 setdash 2 copy exch vpt sub exch vpt sub vpt vpt2 Rec fill
	2 copy vpt Square fill Bsquare} bind def
/S8 {BL [] 0 setdash 2 copy vpt sub vpt Square fill Bsquare} bind def
/S9 {BL [] 0 setdash 2 copy vpt sub vpt vpt2 Rec fill Bsquare} bind def
/S10 {BL [] 0 setdash 2 copy vpt sub vpt Square fill 2 copy exch vpt sub exch vpt Square fill
	Bsquare} bind def
/S11 {BL [] 0 setdash 2 copy vpt sub vpt Square fill 2 copy exch vpt sub exch vpt2 vpt Rec fill
	Bsquare} bind def
/S12 {BL [] 0 setdash 2 copy exch vpt sub exch vpt sub vpt2 vpt Rec fill Bsquare} bind def
/S13 {BL [] 0 setdash 2 copy exch vpt sub exch vpt sub vpt2 vpt Rec fill
	2 copy vpt Square fill Bsquare} bind def
/S14 {BL [] 0 setdash 2 copy exch vpt sub exch vpt sub vpt2 vpt Rec fill
	2 copy exch vpt sub exch vpt Square fill Bsquare} bind def
/S15 {BL [] 0 setdash 2 copy Bsquare fill Bsquare} bind def
/D0 {gsave translate 45 rotate 0 0 S0 stroke grestore} bind def
/D1 {gsave translate 45 rotate 0 0 S1 stroke grestore} bind def
/D2 {gsave translate 45 rotate 0 0 S2 stroke grestore} bind def
/D3 {gsave translate 45 rotate 0 0 S3 stroke grestore} bind def
/D4 {gsave translate 45 rotate 0 0 S4 stroke grestore} bind def
/D5 {gsave translate 45 rotate 0 0 S5 stroke grestore} bind def
/D6 {gsave translate 45 rotate 0 0 S6 stroke grestore} bind def
/D7 {gsave translate 45 rotate 0 0 S7 stroke grestore} bind def
/D8 {gsave translate 45 rotate 0 0 S8 stroke grestore} bind def
/D9 {gsave translate 45 rotate 0 0 S9 stroke grestore} bind def
/D10 {gsave translate 45 rotate 0 0 S10 stroke grestore} bind def
/D11 {gsave translate 45 rotate 0 0 S11 stroke grestore} bind def
/D12 {gsave translate 45 rotate 0 0 S12 stroke grestore} bind def
/D13 {gsave translate 45 rotate 0 0 S13 stroke grestore} bind def
/D14 {gsave translate 45 rotate 0 0 S14 stroke grestore} bind def
/D15 {gsave translate 45 rotate 0 0 S15 stroke grestore} bind def
/DiaE {stroke [] 0 setdash vpt add M
  hpt neg vpt neg V hpt vpt neg V
  hpt vpt V hpt neg vpt V closepath stroke} def
/BoxE {stroke [] 0 setdash exch hpt sub exch vpt add M
  0 vpt2 neg V hpt2 0 V 0 vpt2 V
  hpt2 neg 0 V closepath stroke} def
/TriUE {stroke [] 0 setdash vpt 1.12 mul add M
  hpt neg vpt -1.62 mul V
  hpt 2 mul 0 V
  hpt neg vpt 1.62 mul V closepath stroke} def
/TriDE {stroke [] 0 setdash vpt 1.12 mul sub M
  hpt neg vpt 1.62 mul V
  hpt 2 mul 0 V
  hpt neg vpt -1.62 mul V closepath stroke} def
/PentE {stroke [] 0 setdash gsave
  translate 0 hpt M 4 {72 rotate 0 hpt L} repeat
  closepath stroke grestore} def
/CircE {stroke [] 0 setdash 
  hpt 0 360 arc stroke} def
/Opaque {gsave closepath 1 setgray fill grestore 0 setgray closepath} def
/DiaW {stroke [] 0 setdash vpt add M
  hpt neg vpt neg V hpt vpt neg V
  hpt vpt V hpt neg vpt V Opaque stroke} def
/BoxW {stroke [] 0 setdash exch hpt sub exch vpt add M
  0 vpt2 neg V hpt2 0 V 0 vpt2 V
  hpt2 neg 0 V Opaque stroke} def
/TriUW {stroke [] 0 setdash vpt 1.12 mul add M
  hpt neg vpt -1.62 mul V
  hpt 2 mul 0 V
  hpt neg vpt 1.62 mul V Opaque stroke} def
/TriDW {stroke [] 0 setdash vpt 1.12 mul sub M
  hpt neg vpt 1.62 mul V
  hpt 2 mul 0 V
  hpt neg vpt -1.62 mul V Opaque stroke} def
/PentW {stroke [] 0 setdash gsave
  translate 0 hpt M 4 {72 rotate 0 hpt L} repeat
  Opaque stroke grestore} def
/CircW {stroke [] 0 setdash 
  hpt 0 360 arc Opaque stroke} def
/BoxFill {gsave Rec 1 setgray fill grestore} def
/Density {
  /Fillden exch def
  currentrgbcolor
  /ColB exch def /ColG exch def /ColR exch def
  /ColR ColR Fillden mul Fillden sub 1 add def
  /ColG ColG Fillden mul Fillden sub 1 add def
  /ColB ColB Fillden mul Fillden sub 1 add def
  ColR ColG ColB setrgbcolor} def
/BoxColFill {gsave Rec PolyFill} def
/PolyFill {gsave Density fill grestore grestore} def
/h {rlineto rlineto rlineto gsave closepath fill grestore} bind def
%
% PostScript Level 1 Pattern Fill routine for rectangles
% Usage: x y w h s a XX PatternFill
%	x,y = lower left corner of box to be filled
%	w,h = width and height of box
%	  a = angle in degrees between lines and x-axis
%	 XX = 0/1 for no/yes cross-hatch
%
/PatternFill {gsave /PFa [ 9 2 roll ] def
  PFa 0 get PFa 2 get 2 div add PFa 1 get PFa 3 get 2 div add translate
  PFa 2 get -2 div PFa 3 get -2 div PFa 2 get PFa 3 get Rec
  TransparentPatterns {} {gsave 1 setgray fill grestore} ifelse
  clip
  currentlinewidth 0.5 mul setlinewidth
  /PFs PFa 2 get dup mul PFa 3 get dup mul add sqrt def
  0 0 M PFa 5 get rotate PFs -2 div dup translate
  0 1 PFs PFa 4 get div 1 add floor cvi
	{PFa 4 get mul 0 M 0 PFs V} for
  0 PFa 6 get ne {
	0 1 PFs PFa 4 get div 1 add floor cvi
	{PFa 4 get mul 0 2 1 roll M PFs 0 V} for
 } if
  stroke grestore} def
%
/languagelevel where
 {pop languagelevel} {1} ifelse
 2 lt
	{/InterpretLevel1 true def}
	{/InterpretLevel1 Level1 def}
 ifelse
%
% PostScript level 2 pattern fill definitions
%
/Level2PatternFill {
/Tile8x8 {/PaintType 2 /PatternType 1 /TilingType 1 /BBox [0 0 8 8] /XStep 8 /YStep 8}
	bind def
/KeepColor {currentrgbcolor [/Pattern /DeviceRGB] setcolorspace} bind def
<< Tile8x8
 /PaintProc {0.5 setlinewidth pop 0 0 M 8 8 L 0 8 M 8 0 L stroke} 
>> matrix makepattern
/Pat1 exch def
<< Tile8x8
 /PaintProc {0.5 setlinewidth pop 0 0 M 8 8 L 0 8 M 8 0 L stroke
	0 4 M 4 8 L 8 4 L 4 0 L 0 4 L stroke}
>> matrix makepattern
/Pat2 exch def
<< Tile8x8
 /PaintProc {0.5 setlinewidth pop 0 0 M 0 8 L
	8 8 L 8 0 L 0 0 L fill}
>> matrix makepattern
/Pat3 exch def
<< Tile8x8
 /PaintProc {0.5 setlinewidth pop -4 8 M 8 -4 L
	0 12 M 12 0 L stroke}
>> matrix makepattern
/Pat4 exch def
<< Tile8x8
 /PaintProc {0.5 setlinewidth pop -4 0 M 8 12 L
	0 -4 M 12 8 L stroke}
>> matrix makepattern
/Pat5 exch def
<< Tile8x8
 /PaintProc {0.5 setlinewidth pop -2 8 M 4 -4 L
	0 12 M 8 -4 L 4 12 M 10 0 L stroke}
>> matrix makepattern
/Pat6 exch def
<< Tile8x8
 /PaintProc {0.5 setlinewidth pop -2 0 M 4 12 L
	0 -4 M 8 12 L 4 -4 M 10 8 L stroke}
>> matrix makepattern
/Pat7 exch def
<< Tile8x8
 /PaintProc {0.5 setlinewidth pop 8 -2 M -4 4 L
	12 0 M -4 8 L 12 4 M 0 10 L stroke}
>> matrix makepattern
/Pat8 exch def
<< Tile8x8
 /PaintProc {0.5 setlinewidth pop 0 -2 M 12 4 L
	-4 0 M 12 8 L -4 4 M 8 10 L stroke}
>> matrix makepattern
/Pat9 exch def
/Pattern1 {PatternBgnd KeepColor Pat1 setpattern} bind def
/Pattern2 {PatternBgnd KeepColor Pat2 setpattern} bind def
/Pattern3 {PatternBgnd KeepColor Pat3 setpattern} bind def
/Pattern4 {PatternBgnd KeepColor Landscape {Pat5} {Pat4} ifelse setpattern} bind def
/Pattern5 {PatternBgnd KeepColor Landscape {Pat4} {Pat5} ifelse setpattern} bind def
/Pattern6 {PatternBgnd KeepColor Landscape {Pat9} {Pat6} ifelse setpattern} bind def
/Pattern7 {PatternBgnd KeepColor Landscape {Pat8} {Pat7} ifelse setpattern} bind def
} def
%
%
%End of PostScript Level 2 code
%
/PatternBgnd {
  TransparentPatterns {} {gsave 1 setgray fill grestore} ifelse
} def
%
% Substitute for Level 2 pattern fill codes with
% grayscale if Level 2 support is not selected.
%
/Level1PatternFill {
/Pattern1 {0.250 Density} bind def
/Pattern2 {0.500 Density} bind def
/Pattern3 {0.750 Density} bind def
/Pattern4 {0.125 Density} bind def
/Pattern5 {0.375 Density} bind def
/Pattern6 {0.625 Density} bind def
/Pattern7 {0.875 Density} bind def
} def
%
% Now test for support of Level 2 code
%
Level1 {Level1PatternFill} {Level2PatternFill} ifelse
%
/Symbol-Oblique /Symbol findfont [1 0 .167 1 0 0] makefont
dup length dict begin {1 index /FID eq {pop pop} {def} ifelse} forall
currentdict end definefont pop
/MFshow {
   { dup 5 get 3 ge
     { 5 get 3 eq {gsave} {grestore} ifelse }
     {dup dup 0 get findfont exch 1 get scalefont setfont
     [ currentpoint ] exch dup 2 get 0 exch R dup 5 get 2 ne {dup dup 6
     get exch 4 get {Gshow} {stringwidth pop 0 R} ifelse }if dup 5 get 0 eq
     {dup 3 get {2 get neg 0 exch R pop} {pop aload pop M} ifelse} {dup 5
     get 1 eq {dup 2 get exch dup 3 get exch 6 get stringwidth pop -2 div
     dup 0 R} {dup 6 get stringwidth pop -2 div 0 R 6 get
     show 2 index {aload pop M neg 3 -1 roll neg R pop pop} {pop pop pop
     pop aload pop M} ifelse }ifelse }ifelse }
     ifelse }
   forall} def
/Gswidth {dup type /stringtype eq {stringwidth} {pop (n) stringwidth} ifelse} def
/MFwidth {0 exch { dup 5 get 3 ge { 5 get 3 eq { 0 } { pop } ifelse }
 {dup 3 get{dup dup 0 get findfont exch 1 get scalefont setfont
     6 get Gswidth pop add} {pop} ifelse} ifelse} forall} def
/MLshow { currentpoint stroke M
  0 exch R
  Blacktext {gsave 0 setgray MFshow grestore} {MFshow} ifelse } bind def
/MRshow { currentpoint stroke M
  exch dup MFwidth neg 3 -1 roll R
  Blacktext {gsave 0 setgray MFshow grestore} {MFshow} ifelse } bind def
/MCshow { currentpoint stroke M
  exch dup MFwidth -2 div 3 -1 roll R
  Blacktext {gsave 0 setgray MFshow grestore} {MFshow} ifelse } bind def
/XYsave    { [( ) 1 2 true false 3 ()] } bind def
/XYrestore { [( ) 1 2 true false 4 ()] } bind def
Level1 SuppressPDFMark or 
{} {
/SDict 10 dict def
systemdict /pdfmark known not {
  userdict /pdfmark systemdict /cleartomark get put
} if
SDict begin [
  /Title (pieplot.eps)
  /Subject (gnuplot plot)
  /Creator (gnuplot 4.6 patchlevel 5)
  /Author (yurchor)
%  /Producer (gnuplot)
%  /Keywords ()
  /CreationDate (Sun Sep 20 17:08:27 2015)
  /DOCINFO pdfmark
end
} ifelse
end
%%EndProlog
%%Page: 1 1
gnudict begin
gsave
doclip
50 50 translate
0.050 0.050 scale
0 setgray
newpath
(Helvetica) findfont 140 scalefont setfont
BackgroundColor 0 lt 3 1 roll 0 lt exch 0 lt or or not {BackgroundColor C 1.000 0 0 3400.00 2834.00 BoxColFill} if
1.000 UL
LTb
1.00 1.00 1.00 C 1.000 0 0 3399 2833 BoxColFill
1.000 UL
LTb
546 377 M
63 0 V
stroke
462 377 M
[ [(Helvetica) 140.0 0.0 true true 0 (-1)]
] -46.7 MRshow
1.000 UL
LTb
546 862 M
63 0 V
stroke
462 862 M
[ [(Helvetica) 140.0 0.0 true true 0 (-0.5)]
] -46.7 MRshow
1.000 UL
LTb
546 1347 M
63 0 V
stroke
462 1347 M
[ [(Helvetica) 140.0 0.0 true true 0 ( 0)]
] -46.7 MRshow
1.000 UL
LTb
546 1831 M
63 0 V
stroke
462 1831 M
[ [(Helvetica) 140.0 0.0 true true 0 ( 0.5)]
] -46.7 MRshow
1.000 UL
LTb
546 2316 M
63 0 V
stroke
462 2316 M
[ [(Helvetica) 140.0 0.0 true true 0 ( 1)]
] -46.7 MRshow
1.000 UL
LTb
651 280 M
0 63 V
stroke
651 140 M
[ [(Helvetica) 140.0 0.0 true true 0 (-1)]
] -46.7 MCshow
1.000 UL
LTb
1179 280 M
0 63 V
stroke
1179 140 M
[ [(Helvetica) 140.0 0.0 true true 0 (-0.5)]
] -46.7 MCshow
1.000 UL
LTb
1706 280 M
0 63 V
stroke
1706 140 M
[ [(Helvetica) 140.0 0.0 true true 0 ( 0)]
] -46.7 MCshow
1.000 UL
LTb
2233 280 M
0 63 V
stroke
2233 140 M
[ [(Helvetica) 140.0 0.0 true true 0 ( 0.5)]
] -46.7 MCshow
1.000 UL
LTb
2761 280 M
0 63 V
stroke
2761 140 M
[ [(Helvetica) 140.0 0.0 true true 0 ( 1)]
] -46.7 MCshow
1.000 UL
LTb
1.000 UL
LTb
546 2413 N
546 280 L
2531 0 V
0 2133 V
-2531 0 V
Z stroke
LCb setrgbcolor
LTb
LCb setrgbcolor
LTb
LCb setrgbcolor
LTb
1811 2623 M
[ [(Helvetica) 140.0 0.0 true true 0 (Digit frequencies in pi)]
] -46.7 MCshow
LCb setrgbcolor
LTb
1.000 UP
1.000 UL
LTb
% Begin plot #1
1.000 UL
LT0
0.61 0.10 0.68 C LCb setrgbcolor
2426 2280 M
[ [(Helvetica) 140.0 0.0 true true 0 (0)]
] -46.7 MRshow
LT0
0.61 0.10 0.68 C 1.000 2510 2245 399 70 BoxColFill
2510 2245 N
399 0 V
0 70 V
-399 0 V
0 -70 V
Z stroke
LT0
0.61 0.10 0.68 C gsave 2630 1814 N 0 0 V 0 0 V 9 -16 V 9 -15 V 8 -16 V 8 -16 V 8 -15 V 7 -16 V 8 -17 V 6 -16 V 7 -16 V 6 -17 V 6 -16 V 5 -17 V 6 -17 V 4 -16 V 5 -17 V 4 -17 V 4 -17 V 4 -17 V 3 -18 V 3 -17 V 2 -17 V 3 -17 V 1 -18 V 2 -17 V 1 -17 V 1 -18 V 0 -17 V 1 -17 V -1055 0 V 1 PolyFill
2630 1814 M
9 -16 V
9 -15 V
8 -16 V
8 -16 V
8 -15 V
7 -16 V
8 -17 V
6 -16 V
7 -16 V
6 -17 V
6 -16 V
5 -17 V
6 -17 V
4 -16 V
5 -17 V
4 -17 V
4 -17 V
4 -17 V
3 -18 V
3 -17 V
2 -17 V
3 -17 V
1 -18 V
2 -17 V
1 -17 V
1 -18 V
0 -17 V
1 -17 V
% End plot #1
% Begin plot #2
stroke
LT0
0.61 0.10 0.68 C 2630 1814 M
9 -16 V
9 -15 V
8 -16 V
8 -16 V
8 -15 V
7 -16 V
8 -17 V
6 -16 V
7 -16 V
6 -17 V
6 -16 V
5 -17 V
6 -17 V
4 -16 V
5 -17 V
4 -17 V
4 -17 V
4 -17 V
3 -18 V
3 -17 V
2 -17 V
3 -17 V
1 -18 V
2 -17 V
1 -17 V
1 -18 V
0 -17 V
1 -17 V
% End plot #2
% Begin plot #3
stroke
LT2
0.37 0.45 0.50 C LCb setrgbcolor
2426 2140 M
[ [(Helvetica) 140.0 0.0 true true 0 (1)]
] -46.7 MRshow
LT2
0.37 0.45 0.50 C 1.000 2510 2105 399 70 BoxColFill
2510 2105 N
399 0 V
0 70 V
-399 0 V
0 -70 V
Z stroke
LT2
0.37 0.45 0.50 C gsave 2271 2165 N 0 0 V 0 0 V 16 -9 V 16 -10 V 15 -10 V 16 -10 V 15 -11 V 15 -10 V 14 -11 V 15 -12 V 14 -11 V 14 -12 V 14 -12 V 13 -12 V 14 -12 V 13 -13 V 13 -13 V 12 -13 V 13 -13 V 12 -13 V 11 -14 V 12 -14 V 11 -14 V 11 -14 V 11 -14 V 10 -15 V 10 -14 V 10 -15 V 10 -15 V 9 -15 V -924 -467 V 1 PolyFill
2271 2165 M
16 -9 V
16 -10 V
15 -10 V
16 -10 V
15 -11 V
15 -10 V
14 -11 V
15 -12 V
14 -11 V
14 -12 V
14 -12 V
13 -12 V
14 -12 V
13 -13 V
13 -13 V
12 -13 V
13 -13 V
12 -13 V
11 -14 V
12 -14 V
11 -14 V
11 -14 V
11 -14 V
10 -15 V
10 -14 V
10 -15 V
10 -15 V
9 -15 V
% End plot #3
% Begin plot #4
stroke
LT0
0.37 0.45 0.50 C 2271 2165 M
16 -9 V
16 -10 V
15 -10 V
16 -10 V
15 -11 V
15 -10 V
14 -11 V
15 -12 V
14 -11 V
14 -12 V
14 -12 V
13 -12 V
14 -12 V
13 -13 V
13 -13 V
12 -13 V
13 -13 V
12 -13 V
11 -14 V
12 -14 V
11 -14 V
11 -14 V
11 -14 V
10 -15 V
10 -14 V
10 -15 V
10 -15 V
9 -15 V
% End plot #4
% Begin plot #5
stroke
LT4
0.98 0.41 0.25 C LCb setrgbcolor
2426 2000 M
[ [(Helvetica) 140.0 0.0 true true 0 (2)]
] -46.7 MRshow
LT4
0.98 0.41 0.25 C 1.000 2510 1965 399 70 BoxColFill
2510 1965 N
399 0 V
0 70 V
-399 0 V
0 -70 V
Z stroke
LT4
0.98 0.41 0.25 C gsave 1508 2299 N 0 0 V 0 0 V 28 4 V 28 4 V 29 3 V 28 3 V 28 2 V 29 1 V 28 0 V 28 0 V 29 -1 V 28 -2 V 28 -3 V 29 -3 V 28 -4 V 28 -4 V 27 -5 V 28 -6 V 28 -7 V 27 -7 V 27 -8 V 27 -9 V 26 -9 V 27 -10 V 25 -11 V 26 -11 V 25 -12 V 25 -12 V 25 -13 V 24 -14 V -565 -818 V 1 PolyFill
1508 2299 M
28 4 V
28 4 V
29 3 V
28 3 V
28 2 V
29 1 V
28 0 V
28 0 V
29 -1 V
28 -2 V
28 -3 V
29 -3 V
28 -4 V
28 -4 V
27 -5 V
28 -6 V
28 -7 V
27 -7 V
27 -8 V
27 -9 V
26 -9 V
27 -10 V
25 -11 V
26 -11 V
25 -12 V
25 -12 V
25 -13 V
24 -14 V
% End plot #5
% Begin plot #6
stroke
LT0
0.98 0.41 0.25 C 1508 2299 M
28 4 V
28 4 V
29 3 V
28 3 V
28 2 V
29 1 V
28 0 V
28 0 V
29 -1 V
28 -2 V
28 -3 V
29 -3 V
28 -4 V
28 -4 V
27 -5 V
28 -6 V
28 -7 V
27 -7 V
27 -8 V
27 -9 V
26 -9 V
27 -10 V
25 -11 V
26 -11 V
25 -12 V
25 -12 V
25 -13 V
24 -14 V
% End plot #6
% Begin plot #7
stroke
LT6
0.57 0.09 0.00 C LCb setrgbcolor
2426 1860 M
[ [(Helvetica) 140.0 0.0 true true 0 (3)]
] -46.7 MRshow
LT6
0.57 0.09 0.00 C 1.000 2510 1825 399 70 BoxColFill
2510 1825 N
399 0 V
0 70 V
-399 0 V
0 -70 V
Z stroke
LT6
0.57 0.09 0.00 C gsave 853 1916 N 0 0 V 0 0 V 17 21 V 17 21 V 19 20 V 18 19 V 20 20 V 20 18 V 20 18 V 21 18 V 22 17 V 22 17 V 22 16 V 23 15 V 23 15 V 24 14 V 24 14 V 25 13 V 25 12 V 25 12 V 26 11 V 26 11 V 26 10 V 26 9 V 27 9 V 27 8 V 27 7 V 28 7 V 28 6 V 27 5 V 198 -952 V 1 PolyFill
853 1916 M
17 21 V
17 21 V
19 20 V
18 19 V
20 20 V
20 18 V
20 18 V
21 18 V
22 17 V
22 17 V
22 16 V
23 15 V
23 15 V
24 14 V
24 14 V
25 13 V
25 12 V
25 12 V
26 11 V
26 11 V
26 10 V
26 9 V
27 9 V
27 8 V
27 7 V
28 7 V
28 6 V
27 5 V
% End plot #7
% Begin plot #8
stroke
LT0
0.57 0.09 0.00 C 853 1916 M
17 21 V
17 21 V
19 20 V
18 19 V
20 20 V
20 18 V
20 18 V
21 18 V
22 17 V
22 17 V
22 16 V
23 15 V
23 15 V
24 14 V
24 14 V
25 13 V
25 12 V
25 12 V
26 11 V
26 11 V
26 10 V
26 9 V
27 9 V
27 8 V
27 7 V
28 7 V
28 6 V
27 5 V
% End plot #8
% Begin plot #9
stroke
LT8
0.25 0.24 0.25 C LCb setrgbcolor
2426 1720 M
[ [(Helvetica) 140.0 0.0 true true 0 (4)]
] -46.7 MRshow
LT8
0.25 0.24 0.25 C 1.000 2510 1685 399 70 BoxColFill
2510 1685 N
399 0 V
0 70 V
-399 0 V
0 -70 V
Z stroke
LT8
0.25 0.24 0.25 C gsave 651 1347 N 0 0 V 1 21 V 1 22 V 1 22 V 2 21 V 2 22 V 3 22 V 3 21 V 4 22 V 5 21 V 5 21 V 5 21 V 6 21 V 7 21 V 7 21 V 8 21 V 8 20 V 8 20 V 9 21 V 10 19 V 10 20 V 10 20 V 11 19 V 12 19 V 12 19 V 12 18 V 13 19 V 13 18 V 14 17 V 853 -569 V 1 PolyFill
651 1347 M
1 21 V
1 22 V
1 22 V
2 21 V
2 22 V
3 22 V
3 21 V
4 22 V
5 21 V
5 21 V
5 21 V
6 21 V
7 21 V
7 21 V
8 21 V
8 20 V
8 20 V
9 21 V
10 19 V
10 20 V
10 20 V
11 19 V
12 19 V
12 19 V
12 18 V
13 19 V
13 18 V
14 17 V
% End plot #9
% Begin plot #10
stroke
LT0
0.25 0.24 0.25 C 651 1347 M
1 21 V
1 22 V
1 22 V
2 21 V
2 22 V
3 22 V
3 21 V
4 22 V
5 21 V
5 21 V
5 21 V
6 21 V
7 21 V
7 21 V
8 21 V
8 20 V
8 20 V
9 21 V
10 19 V
10 20 V
10 20 V
11 19 V
12 19 V
12 19 V
12 18 V
13 19 V
13 18 V
14 17 V
% End plot #10
% Begin plot #11
stroke
LT1
0.87 0.05 0.32 C LCb setrgbcolor
2426 1580 M
[ [(Helvetica) 140.0 0.0 true true 0 (5)]
] -46.7 MRshow
LT1
0.87 0.05 0.32 C 1.000 2510 1545 399 70 BoxColFill
2510 1545 N
399 0 V
0 70 V
-399 0 V
0 -70 V
Z stroke
LT1
0.87 0.05 0.32 C gsave 782 879 N 0 0 V -9 16 V -9 15 V -8 16 V -8 16 V -8 15 V -7 16 V -7 17 V -7 16 V -7 16 V -6 17 V -6 16 V -5 17 V -6 17 V -4 16 V -5 17 V -4 17 V -4 17 V -4 17 V -3 18 V -3 17 V -2 17 V -2 17 V -2 18 V -2 17 V -1 17 V -1 18 V 0 17 V -1 18 V 1055 0 V 1 PolyFill
782 879 M
-9 16 V
-9 15 V
-8 16 V
-8 16 V
-8 15 V
-7 16 V
-7 17 V
-7 16 V
-7 16 V
-6 17 V
-6 16 V
-5 17 V
-6 17 V
-4 16 V
-5 17 V
-4 17 V
-4 17 V
-4 17 V
-3 18 V
-3 17 V
-2 17 V
-2 17 V
-2 18 V
-2 17 V
-1 17 V
-1 18 V
0 17 V
-1 18 V
% End plot #11
% Begin plot #12
stroke
LT0
0.87 0.05 0.32 C 782 879 M
-9 16 V
-9 15 V
-8 16 V
-8 16 V
-8 15 V
-7 16 V
-7 17 V
-7 16 V
-7 16 V
-6 17 V
-6 16 V
-5 17 V
-6 17 V
-4 16 V
-5 17 V
-4 17 V
-4 17 V
-4 17 V
-3 18 V
-3 17 V
-2 17 V
-2 17 V
-2 18 V
-2 17 V
-1 17 V
-1 18 V
0 17 V
-1 18 V
% End plot #12
% Begin plot #13
stroke
LT3
0.04 0.38 0.69 C LCb setrgbcolor
2426 1440 M
[ [(Helvetica) 140.0 0.0 true true 0 (6)]
] -46.7 MRshow
LT3
0.04 0.38 0.69 C 1.000 2510 1405 399 70 BoxColFill
2510 1405 N
399 0 V
0 70 V
-399 0 V
0 -70 V
Z stroke
LT3
0.04 0.38 0.69 C gsave 1198 497 N 0 0 V -19 9 V -18 10 V -18 11 V -18 10 V -18 11 V -17 12 V -17 11 V -17 12 V -17 12 V -16 13 V -16 13 V -16 13 V -15 13 V -16 14 V -15 14 V -14 14 V -14 15 V -14 14 V -14 16 V -13 15 V -13 15 V -13 16 V -12 16 V -12 16 V -12 17 V -11 16 V -11 17 V -10 17 V 924 468 V 1 PolyFill
1198 497 M
-19 9 V
-18 10 V
-18 11 V
-18 10 V
-18 11 V
-17 12 V
-17 11 V
-17 12 V
-17 12 V
-16 13 V
-16 13 V
-16 13 V
-15 13 V
-16 14 V
-15 14 V
-14 14 V
-14 15 V
-14 14 V
-14 16 V
-13 15 V
-13 15 V
-13 16 V
-12 16 V
-12 16 V
-12 17 V
-11 16 V
-11 17 V
-10 17 V
% End plot #13
% Begin plot #14
stroke
LT0
0.04 0.38 0.69 C 1198 497 M
-19 9 V
-18 10 V
-18 11 V
-18 10 V
-18 11 V
-17 12 V
-17 11 V
-17 12 V
-17 12 V
-16 13 V
-16 13 V
-16 13 V
-15 13 V
-16 14 V
-15 14 V
-14 14 V
-14 15 V
-14 14 V
-14 16 V
-13 15 V
-13 15 V
-13 16 V
-12 16 V
-12 16 V
-12 17 V
-11 16 V
-11 17 V
-10 17 V
% End plot #14
% Begin plot #15
stroke
LT5
0.29 0.18 0.58 C LCb setrgbcolor
2426 1300 M
[ [(Helvetica) 140.0 0.0 true true 0 (7)]
] -46.7 MRshow
LT5
0.29 0.18 0.58 C 1.000 2510 1265 399 70 BoxColFill
2510 1265 N
399 0 V
0 70 V
-399 0 V
0 -70 V
Z stroke
LT5
0.29 0.18 0.58 C gsave 1706 377 N 0 0 V 0 0 V -19 0 V -19 1 V -19 0 V -19 1 V -18 2 V -19 2 V -19 2 V -19 2 V -19 3 V -18 3 V -19 3 V -18 3 V -19 4 V -18 4 V -19 5 V -18 5 V -18 5 V -18 5 V -18 6 V -18 6 V -17 6 V -18 7 V -17 6 V -17 8 V -18 7 V -17 8 V -16 8 V -17 8 V 508 850 V 1 PolyFill
1706 377 M
-19 0 V
-19 1 V
-19 0 V
-19 1 V
-18 2 V
-19 2 V
-19 2 V
-19 2 V
-19 3 V
-18 3 V
-19 3 V
-18 3 V
-19 4 V
-18 4 V
-19 5 V
-18 5 V
-18 5 V
-18 5 V
-18 6 V
-18 6 V
-17 6 V
-18 7 V
-17 6 V
-17 8 V
-18 7 V
-17 8 V
-16 8 V
-17 8 V
% End plot #15
% Begin plot #16
stroke
LT0
0.29 0.18 0.58 C 1706 377 M
-19 0 V
-19 1 V
-19 0 V
-19 1 V
-18 2 V
-19 2 V
-19 2 V
-19 2 V
-19 3 V
-18 3 V
-19 3 V
-18 3 V
-19 4 V
-18 4 V
-19 5 V
-18 5 V
-18 5 V
-18 5 V
-18 6 V
-18 6 V
-17 6 V
-18 7 V
-17 6 V
-17 8 V
-18 7 V
-17 8 V
-16 8 V
-17 8 V
% End plot #16
% Begin plot #17
stroke
LT7
0.34 0.49 0.84 C LCb setrgbcolor
2426 1160 M
[ [(Helvetica) 140.0 0.0 true true 0 (8)]
] -46.7 MRshow
LT7
0.34 0.49 0.84 C 1.000 2510 1125 399 70 BoxColFill
2510 1125 N
399 0 V
0 70 V
-399 0 V
0 -70 V
Z stroke
LT7
0.34 0.49 0.84 C gsave 2428 640 N 0 0 V -21 -18 V -21 -17 V -22 -17 V -23 -16 V -23 -15 V -23 -15 V -24 -14 V -24 -14 V -25 -13 V -25 -12 V -25 -12 V -26 -11 V -25 -11 V -27 -10 V -26 -9 V -27 -9 V -27 -8 V -27 -7 V -28 -7 V -28 -6 V -27 -5 V -28 -4 V -28 -4 V -29 -3 V -28 -3 V -28 -2 V -29 -1 V -28 0 V 0 970 V 1 PolyFill
2428 640 M
-21 -18 V
-21 -17 V
-22 -17 V
-23 -16 V
-23 -15 V
-23 -15 V
-24 -14 V
-24 -14 V
-25 -13 V
-25 -12 V
-25 -12 V
-26 -11 V
-25 -11 V
-27 -10 V
-26 -9 V
-27 -9 V
-27 -8 V
-27 -7 V
-28 -7 V
-28 -6 V
-27 -5 V
-28 -4 V
-28 -4 V
-29 -3 V
-28 -3 V
-28 -2 V
-29 -1 V
-28 0 V
% End plot #17
% Begin plot #18
stroke
LT0
0.34 0.49 0.84 C 2428 640 M
-21 -18 V
-21 -17 V
-22 -17 V
-23 -16 V
-23 -15 V
-23 -15 V
-24 -14 V
-24 -14 V
-25 -13 V
-25 -12 V
-25 -12 V
-26 -11 V
-25 -11 V
-27 -10 V
-26 -9 V
-27 -9 V
-27 -8 V
-27 -7 V
-28 -7 V
-28 -6 V
-27 -5 V
-28 -4 V
-28 -4 V
-29 -3 V
-28 -3 V
-28 -2 V
-29 -1 V
-28 0 V
% End plot #18
% Begin plot #19
stroke
LT0
0.85 0.31 0.95 C LCb setrgbcolor
2426 1020 M
[ [(Helvetica) 140.0 0.0 true true 0 (9)]
] -46.7 MRshow
LT0
0.85 0.31 0.95 C 1.000 2510 985 399 70 BoxColFill
2510 985 N
399 0 V
0 70 V
-399 0 V
0 -70 V
Z stroke
LT0
0.85 0.31 0.95 C gsave 2761 1346 N 0 0 V -1 -28 V -1 -28 V -2 -28 V -4 -28 V -4 -28 V -4 -28 V -6 -28 V -7 -28 V -8 -27 V -8 -27 V -9 -27 V -10 -27 V -11 -26 V -12 -27 V -13 -25 V -13 -26 V -14 -25 V -15 -25 V -16 -24 V -17 -24 V -17 -23 V -18 -23 V -19 -22 V -19 -22 V -21 -22 V -20 -20 V -22 -21 V -22 -19 V -722 707 V 1 PolyFill
2761 1346 M
-1 -28 V
-1 -28 V
-2 -28 V
-4 -28 V
-4 -28 V
-4 -28 V
-6 -28 V
-7 -28 V
-8 -27 V
-8 -27 V
-9 -27 V
-10 -27 V
-11 -26 V
-12 -27 V
-13 -25 V
-13 -26 V
-14 -25 V
-15 -25 V
-16 -24 V
-17 -24 V
-17 -23 V
-18 -23 V
-19 -22 V
-19 -22 V
-21 -22 V
-20 -20 V
-22 -21 V
-22 -19 V
% End plot #19
% Begin plot #20
stroke
LT0
0.85 0.31 0.95 C 2761 1346 M
-1 -28 V
-1 -28 V
-2 -28 V
-4 -28 V
-4 -28 V
-4 -28 V
-6 -28 V
-7 -28 V
-8 -27 V
-8 -27 V
-9 -27 V
-10 -27 V
-11 -26 V
-12 -27 V
-13 -25 V
-13 -26 V
-14 -25 V
-15 -25 V
-16 -24 V
-17 -24 V
-17 -23 V
-18 -23 V
-19 -22 V
-19 -22 V
-21 -22 V
-20 -20 V
-22 -21 V
-22 -19 V
% End plot #20
stroke
LTb
546 2413 N
546 280 L
2531 0 V
0 2133 V
-2531 0 V
Z stroke
1.000 UP
1.000 UL
LTb
stroke
grestore
end
showpage
%%Trailer
%%DocumentFonts: Helvetica
